{
  "aboutUs": {
    "title": "About BullForce",
    "para1": "is the brainchild of professionals having decades of experience in global financial markets and mission-critical technology architecture designs and products.",
    "para2": "provides a one-stop solution to a diverse group of traders and investors. This enables every investor or trader to experience the advantage & convenience of very high-end technology and power of artificial intelligence based trading algorithms. The traders are able to make data-driven decisions for maximizing the benefit in every trading transaction.",
    "image": "../../ui-assets/images/about-us-image1.png",
    "imageText": "Lorem Ipsum is simply dummy text of the printing and typesetting industry.Lorem Ipsum is simply dummy text of the printing and typesetting industry."
  },
  "product": {
    "title": "About the Product",
    "para1": "BullForce Platform has been designed based on the latest concepts from Machine Learning and Artificial Intelligence.",
    "para2": "This product has been designed on Artificial Intelligence and Machine Learning concepts and the product keeps continuously learning as it matures. We have tried to stand at the best possible of calculated / derived prediction accuracies from the beginning.",
    "para3": "Product has three key sections namely, Tips, News & Events and Portfolio. Under TIPS, we would be selecting a few general / common stocks which are being followed by masses and publish our tips on them. News and Events section would cover all the related market news related to your portfolio and also others. PORTFOLIO page is the section where subscribers can add their portfolio scripts and follow the tips. This also covers the aspects of technical analysis.",
    "image": "../../ui-assets/images/about_us1.png",
    "imageText": "Lorem Ipsum is simply dummy text of the printing and typesetting industry.Lorem Ipsum is simply dummy text of the printing and typesetting industry."
  },
  "products": {
    "title": "Team",
    "content": "",
    "product": [
      {
        "name": "Artificial intelligence based  recommendations",
        "para1": "Our prediction accuracies are one of the best in the market and the algorithms continuously learn and keep on improving the accuracy while creating new benchmarks. Following are the features",
        "image": "../../ui-assets/images/our-prod-Img1.svg",
        "imagePositionLeft": true
      },
      {
        "name": "Lightning dashboard",
        "para1": "Various stocks across the exchanges globally are being continuously monitored by our automated high-speed algorithm based prediction engines.These algorithms keep publishing the hot stocks the moment they predict a spurt in the activity and a definite upward or downward trend in the prices are observed.",
        "para2": "This would enable subscribers to select the next script for their portfolio and get the maximum benefit of the price movement both in intraday trading and long-term investments.",
        "image": "../../ui-assets/images/our-prod-Img2.svg",
        "imagePositionLeft": false
      },
      {
        "name": "Portfolio & multi parameter real time dashboard",
        "para1": "This part of the application showcases the detailed subscriber portfolio along with the information on the current status of the portfolio. Users could  conveniently maintain their Portfolio page by adding or removing the portfolio items contextually. Subscribers would be able to add scripts of their into the portfolio page even from the Lightning Dashboard also.",
        "image": "../../ui-assets/images/our-prod-Img3.svg",
        "imagePositionLeft": true
      },
      {
        "name": "Robotized tradings",
        "para1": "BullForce Robots are designed to trade / transact with very few clicks / steps. Simplicity of the key factor considered for designing the robots. These robots are highly customizable and extraordinarily user-friendly. Investors with very limited or even nil exposure to trading platforms would be able to initiate and drive robotised transactions.",
        "image": "../../ui-assets/images/our-prod-Img4.svg",
        "imagePositionLeft": false
      },
      {
        "name": "Multi exchange trading platform",
        "para1": "Multi exchange trading is the key feature of the  application. Investors and subscribers could configure their personalized robots to trade in various exchanges based on the scripts of their interest and portfolios.",
        "image": "../../ui-assets/images/our-prod-Img5.svg",
        "imagePositionLeft": true
      },
      {
        "name": "Real time News and Events",
        "para1": "This is the place where subscribers would get completely hooked to the information on the various events and trending news items which would have an impact on their portfolio items, be it a stock or, commodity or currency being traded in various markets across the globe.",
        "para2": " Additionally, subscribers would get access to see key global trends along with the information on Bullish and Bearish sentiment levels which reinforces the predictions and empowers users to make right decisions.",
        "image": "../../ui-assets/images/our-prod-Img6.svg",
        "imagePositionLeft": false
      },
      {
        "name": "Personal investment & portfolio advisor",
        "para1": "Every subscriber would have a BullForce’s personal investment and trading advisor who would be available over phone and real-time chat to assist investors. He would also handle the responsibility of initiating a trading transaction on behalf of client’s in the event of necessity and also for subscriber’s convenience",
        "image": "../../ui-assets/images/our-prod-Img7.svg",
        "imagePositionLeft": true
      },
      {
        "name": "Education",
        "para1": "BullForce is committed to build an enlightened investor community with commendable knowledge of markets, trends, concepts, and technology landscapes. This section of the platform enables subscribers to get online sessions and classes on various subjects related to the stock, commodity, and currency markets.",
        "para2": "Investors could subscribers use this part of the platform to enhance their knowledge of technical and fundamental analysis too.",
        "image": "../../ui-assets/images/our-prod-Img8.svg",
        "imagePositionLeft": false
      }
    ]
  },
  "team": {
    "title": "Team",
    "teams": [
      {
        "name": "Lawrence",
        "profile": "Co-Founder and President",
        "image": "../../ui-assets/images/team-member-1.png",
        "about": "A serial entrepreneur, comes from the background of having set up and ran very large scale real estate and infrastructure businesses. A passionate trader, has been trading in various markets. He has been mentoring businesses in diversified sectors for sustainability and growth."
      },
      {
        "name": "Subbu",
        "profile": "Chief of Products",
        "image": "../../ui-assets/images/team-member-2.png",
        "about": "Subbu is a certified mechanical engineer turned entrepreneur, tech businessman, and a growth strategist. He has about two decades of experience in Technology, BPM, Engineering, and Sales sectors. Has built and ran very large scale tech teams to handle various tech and bpm projects related mission critical operations."
      },
      {
        "name": "Nitin",
        "profile": "Vice President - Finance",
        "image": "../../ui-assets/images/team-member-3.png",
        "about": "Over 20 years of corporate finance, growth strategist, multi sector global business management experience. Built and led team for rapid growth. Known for out-of-the-box thinking and unique marketing ideas."
      },
      {
        "name": "Srinath",
        "profile": "Co-Founder and Chairman",
        "image": "../../ui-assets/images/team-member-4.png",
        "about": "He is the brian behind the concept, a person with deep domain knowledge, has over 15+ years of experience in analytical and fundamental trading in all the key global markets. He comes from the background of large scale information technology and tech infrastructure business where he was serving about 25 of the fortune 500 companies."
      }
    ]
  }
}
