<svg xmlns="http://www.w3.org/2000/svg" width="213.438" height="45.646" viewBox="0 0 213.438 45.646">
    <defs>
        <filter id="cag4s3r1ia" width="213.438" height="45.646" x="0" y="0" filterUnits="userSpaceOnUse">
            <feOffset dy="3"/>
            <feGaussianBlur result="blur" stdDeviation="2"/>
            <feFlood flood-opacity=".161"/>
            <feComposite in2="blur" operator="in"/>
            <feComposite in="SourceGraphic"/>
        </filter>
    </defs>
    <g>
        <g filter="url(#cag4s3r1ia)" transform="translate(5.613 -368) translate(-5.61 368)">
            <path fill="#e8e828" d="M0 0h201.438v33.646H0z" transform="translate(6 3)"/>
        </g>
        <text fill="#242430" font-family="OpenSans-Bold, Open Sans" font-size="14px" font-weight="700" transform="translate(5.613 -368) translate(20.387 394)">
            <tspan x="0" y="0">ADD TO MY PORTFOLIO</tspan>
        </text>
    </g>
</svg>
