<svg xmlns="http://www.w3.org/2000/svg" width="24" height="24" viewBox="0 0 24 24">
    <g fill="none" fill-rule="evenodd">
        <g fill="#A2A0A0">
            <g>
                <g>
                    <g>
                        <path d="M5.707 4.293L12 10.586l6.293-6.293c.39-.39 1.024-.39 1.414 0 .39.39.39 1.024 0 1.414L13.415 12l6.292 6.293c.36.36.388.928.083 1.32l-.083.094c-.36.36-.928.388-1.32.083l-.094-.083L12 13.414l-6.293 6.293c-.39.39-1.024.39-1.414 0-.36-.36-.388-.928-.083-1.32l.083-.094L10.585 12 4.293 5.707c-.39-.39-.39-1.024 0-1.414.39-.39 1.024-.39 1.414 0z" transform="translate(-1049 -158) translate(255 126) translate(794 32)"/>
                    </g>
                </g>
            </g>
        </g>
    </g>
</svg>
