<svg xmlns="http://www.w3.org/2000/svg" width="10.5" height="10.5" viewBox="0 0 10.5 10.5">
    <g transform="translate(-14 -165)">
        <circle cx="5.25" cy="5.25" r="5.25" fill="#45ff03" transform="translate(14 165)"/>
    </g>
</svg>
