<?xml version="1.0" encoding="UTF-8"?>
<svg width="16px" height="16px" viewBox="0 0 16 16" version="1.1" xmlns="http://www.w3.org/2000/svg" xmlns:xlink="http://www.w3.org/1999/xlink">
    <!-- Generator: Sketch 60 (88103) - https://sketch.com -->
    <title>cancel</title>
    <desc>Created with Sketch.</desc>
    <g id="Page-1" stroke="none" stroke-width="1" fill="none" fill-rule="evenodd">
        <g id="Investment-Advisory" transform="translate(-961.000000, -230.000000)" fill="#F4F40C" fill-rule="nonzero">
            <g id="Group-7" transform="translate(344.000000, 191.000000)">
                <g id="Rectangle">
                    <g id="cancel" transform="translate(617.000000, 39.000000)">
                        <polygon id="icon/24px/close" points="12.7454819 -3.55271368e-15 15.5 2.75451807 10.5045181 7.75 15.5 12.7454819 12.7454819 15.5 7.75 10.5045181 2.75451807 15.5 0 12.7454819 4.99548193 7.75 0 2.75451807 2.75451807 -3.55271368e-15 7.75 4.99548193"></polygon>
                    </g>
                </g>
            </g>
        </g>
    </g>
</svg>