<svg xmlns="http://www.w3.org/2000/svg" xmlns:xlink="http://www.w3.org/1999/xlink" width="76" height="86" viewBox="0 0 76 86">
    <defs>
        <path id="wktvhuhlqa" d="M0 0H84V86H0z"/>
        <path id="sb7gdnlklc" d="M20.95.375c-2.788.408-6.801 1.631-12.583 9.654-5.782 8.022-7.21 31.954-7.21 36.713S0 60.883 0 60.883s1.429 5.848 2.925 8.227c1.496 2.38 8.98 2.583 8.98 2.583s-.953.68 16.528-.068c17.55-.611 21.768-5.847 21.972-7.07.204-1.224.884-28.827-2.925-42.016-3.81-13.19-8.095-16.862-11.088-19.512C33.331.375 28.91.375 28.91.375S26.612.194 24.254.194c-1.18 0-2.373.045-3.303.18z"/>
        <path id="eiii13zdle" d="M23.535 12.694c-2.305 2.617-8.524 1.163-10.978.872-2.455-.29-6.22.007-10.974 3.926C-3.172 21.41 7.16 38.617 7.16 38.617l48.183-.443s10.924-6.869 8.903-15.884c-2.023-9.015-5.92-8.143-13.718-7.66-7.796.483-9.384-1.791-11.174-3.681-1.79-1.89-.104-9.985-.104-9.985L25.402.479s.437 9.597-1.867 12.215z"/>
        <path id="77xa5baqzg" d="M.237.34C.092.346-.083.5.043.566c.139.071.588.048.67.02l.412-.14S.75.34.315.34H.236z"/>
        <path id="oho8pnvi5i" d="M.577.53c.085.12.45.161.675.134.224-.028.434-.134.434-.134s-.3-.233-.612-.249h-.047c-.291 0-.53.137-.45.25z"/>
        <path id="f32g09i0wk" d="M33.841.333l-14.308.15s.043 5.347-.326 9.175c-.368 3.829-2.609 5.542-3.374 5.67-.763.127-10.746-.34-10.746-.34s.003 2.227-.506 5.545C4.07 23.851.455 24.744.455 24.744s.178 6.891 0 12.378c-.179 5.488 1.54 2.752 1.54 2.752l3.382.403 2.895-10.939 5.092-12.379s6.367-.893 7.003-1.53c.636-.64 1.783-6.254 1.783-6.254s2.928 3.19 4.896 5.232c1.967 2.042 11.909 2.68 11.909 2.68L51.079 41.12l1.918-17.14s-3.093-1.532-4.235-2.935c-1.143-1.405-.896-4.917-.896-4.917s7.513-.699-1.781 0c-9.295.698-8.762-1.995-10.795-3.943-1.98-1.897.33-11.36.45-11.851h-1.899z"/>
        <path id="9ve107w8hm" d="M1.467 4.766S2.962 8.72 5.342 9.19c2.379.471 5.367-2.68 6.236-3.692.867-1.014 3.036-4.495 3.036-4.495L0 .194l1.467 4.572z"/>
        <path id="ootwj0x2xo" d="M9.512.574C4.019 2.142.244 9.847.244 9.847s-.55 14.727 0 17.454c.549 2.726 1.373 9.34 4.53 11.522 3.16 2.181 6.11 5.59 10.024 5.453 3.912-.136 10.983-6.067 11.944-8.317.961-2.182 2.883-12.408 2.952-13.977.068-1.568.618-12.066-1.99-15.75C25.471 3.167 18.142.195 12.582.194c-1.113 0-2.155.12-3.071.38z"/>
        <path id="vhtcerwdnq" d="M26.007.353c-3.188.02-6.918.573-9.812 3.065C12.322 6.752 5.482 19.987 3.017 26.072c-.529 1.308-.856 2.284-.91 2.764-.298 2.708-.764 7.214-.764 7.214s1.283-6.737 2.099-8.574c.817-1.835 2.405-4.467 2.405-4.467S6.784 34.7 5.66 35.717c-1.123 1.017-.936 11.798-1.17 12.724-.232.927.118 7.176.118 7.176l3.966-12.454s-.234 9.561-1.517 11.991c-1.282 2.431-1.114 4.672-3.032 5.093-1.918.42-3.966 1.158-3.966 1.158s1.346.296 2.734.308h.162c.682-.006 1.362-.086 1.886-.308C6.475 60.71 9.74 53.07 9.74 53.07l1.05-9.908s1.517 5.085 1.284 6.975c-.233 1.891-1.75 7.215-1.75 7.215s2.594-5.17 3.104-7.215c.512-2.044.628-7.774.628-7.774l-2.916-5.497 3.851-12.13 7.71-15.166 9.536 2.204 7.584 3.506 3.03 14.204-1.803 15.454 1.002 7.785-2.205-5.903v4.05l-1.203-2.082 1.18 7.523s.924 2.662 1.226 3.241c.302.578 3.918-.464 4.151-1.505.233-1.042.7-3.24.7-3.24s1.516 2.777 1.516 3.587v1.852s2.1-1.158 2.1-3.01c0-1.851-2.954-11.82-3.402-14.706-.448-2.886.37-13.295.37-13.295s.816 3.928 1.283 5.663c.466 1.737.466 3.826 1.749 6.485 1.283 2.659 4.257 4.511 5.278 6.48 1.02 1.967 2.07 8.332 2.07 8.332s.224-1.088.236-2.784v-.257c-.013-1.954-.317-4.634-1.52-7.376-2.333-5.324-4.741-8.665-5.364-11.574-.624-2.909-1.577-8.439-1.577-8.439s2.908 9.35 4.05 10.284c1.143.933 2.105 3.48 2.105 3.48s-1.498-4.051-2.105-6.02c-.607-1.966-4.177-17.38-6.445-20.013-2.266-2.634-5.05-6.42-6.398-8.343-1.348-1.923-5.63-4.397-8.83-4.556C29.86.54 28.22.364 26.373.353h-.366z"/>
        <path id="poat6r3ics" d="M5.176.007C3.793.08.27 1.47.27 1.47L0 2.265s2.275-.534 4.239-1.127c1.964-.592 4.754.482 4.754.482S6.663.004 5.267.004c-.03 0-.061.001-.091.003z"/>
        <path id="1mv06ylb9u" d="M1.788 1.163C-.006 2.11 0 2.8 0 2.8s.148.143.348.16c.1.01.213-.016.311-.04.092-.023.171-.046.215-.042.184.022 1.374.358 3.476.666 2.102.309 4.094-1.285 4.081-1.553C8.418 1.724 7.737.883 6.38.366 6.081.252 5.706.193 5.277.193c-.98 0-2.24.309-3.489.97z"/>
        <path id="28ccqmsm9w" d="M3.087.375C2.102.376 0 1.257 0 1.257s.407 1.592 3 1.909c1.422.174 1.901-.35 1.901-.35s.292-.276.371-.422c.08-.145.58-1.37.219-1.57C5.129.626 4.078.376 3.093.376h-.006z"/>
        <path id="0c4c59meky" d="M1.094.198L.001.63l.021.717s.003 1.338 1.29 1.615c1.286.278 1.851-.508 2.019-1.058.167-.55-.193-1.314-.57-1.533C2.495.216 1.772.193 1.37.193c-.165 0-.277.005-.277.005z"/>
        <path id="bfmcoi2kdA" d="M.006.94c-.055.465.274.887.736.943.463.056.882-.276.939-.74C1.736.677 1.406.255.944.2.909.196.876.193.842.193.422.193.057.51.006.94z"/>
        <path id="8bjyw1mffC" d="M4.927.014C3.344.071 1.747.8 1.162 1.268.166 2.067 0 2.838 0 2.838s.374-.666.466-.656l.092.012s.667-.832 1.28-1.101C2.45.823 3.468.28 4.823.402 7.027.6 8.305 2.298 8.305 2.298s.369-.411-.157-.992C7.638.739 6.28.012 5.038.012c-.037 0-.074 0-.111.002z"/>
        <path id="73gbc70xpE" d="M.03.445c-.01.1.092.193.23.21.138.017.26-.05.272-.149C.543.407.442.314.302.296L.262.295C.14.294.04.357.03.445z"/>
        <path id="e2tg6gwdvG" d="M.281 1.787s2.79-1.075 4.754-.481c1.964.59 4.239 1.125 4.239 1.125l-.271-.793S5.48.247 4.098.172L4.008.17C2.61.17.28 1.787.28 1.787z"/>
        <path id="x6st9zpunI" d="M2.052.366C.695.883.012 1.724 0 1.993c-.012.267 1.98 1.86 4.082 1.552 2.1-.309 3.29-.645 3.475-.666.043-.005.123.019.216.041.098.025.211.05.31.04.201-.016.348-.16.348-.16s.006-.688-1.789-1.638C5.393.502 4.135.193 3.154.193c-.428 0-.804.06-1.102.173z"/>
        <path id="9paj15dtyK" d="M2.528.375C1.543.375.49.625.13.825c-.362.2.14 1.425.218 1.57.08.145.373.421.373.421s.478.524 1.9.35c2.593-.316 3-1.909 3-1.909S3.52.377 2.532.375h-.005z"/>
        <path id="ji7df3sxxM" d="M.612.37c-.377.22-.737.984-.57 1.534.168.55.732 1.336 2.019 1.058 1.287-.277 1.29-1.615 1.29-1.615L3.372.63 2.28.198S2.168.193 2.002.193c-.4 0-1.124.023-1.39.178z"/>
        <path id="h6sz7zmd4O" d="M.742.2c-.463.055-.79.478-.735.943.054.464.475.796.937.74.462-.056.792-.478.737-.944C1.628.51 1.265.193.844.193.811.193.777.196.742.2z"/>
        <path id="min5mldb5Q" d="M.283 1.84c-.526.58-.157.992-.157.992S1.406 1.134 3.608.936c1.356-.121 2.373.42 2.985.69.613.27 1.28 1.102 1.28 1.102l.091-.012c.092-.01.467.656.467.656s-.165-.771-1.162-1.57C6.684 1.333 5.086.605 3.504.548c-.036-.002-.073-.003-.11-.003-1.244 0-2.6.728-3.111 1.294z"/>
        <path id="6sx7w235vS" d="M.26.296C.12.314.02.407.03.506c.012.1.134.165.272.15.14-.018.241-.112.23-.21C.521.356.421.294.3.294c-.013 0-.026 0-.04.002z"/>
        <path id="b0wv8ae3pU" d="M6.622.66S5.864.204 4.89.254c-.974.051-2.977.811-3.734.762C.398.965.332.704.234.704.137.704-.09.811.04.918c.13.106.864.367 1.174.534.309.168 1.987 1.878 4.105 2.062 2.118.183 3.42-.016 4.007-.275.587-.26 3.144-1.954 3.388-2.03.245-.077.75-.336.849-.382.097-.046.52-.107.487-.444-.032-.335-.407-.152-.57 0-.162.153-1.043.29-1.286.26-.245-.03-3.047-.424-3.552-.45h-.038c-.54 0-1.981.467-1.981.467z"/>
        <path id="60petkkv6W" d="M13.62.275c-.148.08-.212.29-.266.328-.339.251-1.519.542-2.225.607-.845.078-1.851.115-2.263.193-.412.078-2.058.329-2.058.329s-1.645-.27-2.216-.31c-.572-.038-2.195-.134-2.63-.212C1.697 1.162.849.91.583.841.314.773.334.587.097.696c-.338.155.318.322.318.322s3.605.542 3.948.6c.342.057 2.24.271 2.24.271s2.034-.31 2.743-.329c.709-.02 2.332-.235 3.017-.466.388-.133.602-.235.965-.338.103-.03.4-.038.633-.157.11-.057.158-.405-.087-.405-.063 0-.147.023-.253.081z"/>
        <path id="p3h19qqo8Y" d="M6.428 1.4c0 .448-.161.777-.443.898-.157.069-.35.01-.601-.047-.202-.047-.44-.093-.727-.074-.644.04-.537.53-1.492.53-.489-.001-1.003-.49-1.003-.49-.321-.204-1.046-.204-1.61-.204C-.01 2.013.155.36.155.36S-.4 2.34.593 2.545c.402.083 1.408.204 1.408.204s.805.369 1.65.246c.846-.124 1.047-.328 1.57-.288.523.042 1.287-.04 1.488-.694.202-.654-.523-1.82-.523-1.82s.242.756.242 1.206z"/>
        <path id="54c8sx1uwaa" d="M8.106 1.468L0 19.06s.411 5.582 1.24 10.442c.827 4.858 2.695 6.866 2.695 6.866s-.998-3.308-1.804-6.86c-.806-3.554-.288-8.158-.264-9.987.023-1.83 3.086-6.517 4.008-7.793.921-1.275 5.453-10.085 5.453-10.085s13.091 5.39 14.163 7.244c1.073 1.854 2.67 8.058 2.729 9.3.058 1.242-.222 11.836-.222 11.836l1.79-11.122L26.67 8.02l-3.142-3.884L17.047 1.7 11.31.194 8.106 1.468z"/>
        <path id="qozw0snn2ac" d="M22.203.493c-4.187.466-9.233 5.365-10.162 8.192-.929 2.827-1.944 8.565-1.944 8.565s2.777-6.517 4.324-9.03C15.968 5.705 18.8 5.552 18.8 5.552s-.648 1.084-1.622 1.55c-.973.465-3.192 3.724-4.58 8.1C11.207 19.576 9.17 26 8.337 28.815c-.832 2.814-2.777 5.843-2.777 5.843s.927-.56 3.242-3.538c2.313-2.979 4.627-9.98 4.627-9.98s-.185 6.07-1.296 8.026C11.023 31.123 1.95 39.22.47 42.2c-1.481 2.98 1.019 5.998 1.019 5.998s-.186-1.995 0-3.484c.185-1.49 10.09-10.24 11.664-13.778 1.574-3.538 8.424-20.667 11.015-22.343 2.593-1.676 7.406 1.303 7.406 1.303s5.833 1.303 7.974 4.097c2.141 2.792 4.523 15.639 5.08 19.177.555 3.537 3.887 11.264 5.368 13.778 1.481 2.513 5.648 10.334 5.648 10.334S49.44 43.689 48.05 39.87c-1.388-3.816-1.573-9.03-2.22-12.039-.65-3.01-2.517-11.712-5.085-15.702-2.569-3.991-6.025-4.19-6.025-4.19s3.889-.185 6.025 1.77c2.137 1.954 6.195 14.615 6.195 14.615l-1.852-8.006s1.481 2.048 1.945 3.723c.462 1.676 3.425 9.125 3.425 9.125s-.186-4.004-2.13-9.497c-1.944-5.492-2.685-8.565-3.98-10.148-1.296-1.582-3.603-2.791-3.603-2.791s.918-.187 1.937.278c1.018.467 3.795 2.85 3.795 2.85s-1.262-2.275-2.644-3.595c-1.382-1.318-4.576-1.488-6.93-1.488-2.351 0-5.805 2.605-5.805 2.605s-1.1-2.42-2.258-3.444c-1.16-1.024-6.046-1.21-6.046-1.21s5.076-1.303 7.096-.745c2.019.559 2.797 1.955 2.797 1.955s-.282-1.862-1.589-2.885c-.782-.612-2.31-.859-4.308-.859-1.345 0-2.903.112-4.588.3z"/>
        <path id="cfpfighrwae" d="M3.548.22C1.227.372 0 2.454 0 2.454S3.548.22 6.46 1.083c1.697.05 3.657 1.371 3.657 1.371s-.671-.698-1.267-1.27C8.322.68 6.398.194 4.356.194c-.268 0-.538.008-.808.026z"/>
    </defs>
    <g fill="none" fill-rule="evenodd">
        <g>
            <g>
                <g transform="translate(-976.000000, -142.000000) translate(964.000000, 137.000000) translate(8.000000, 5.000000)">
                    <mask id="t1j8g66x5b" fill="#fff">
                        <use xlink:href="#wktvhuhlqa"/>
                    </mask>
                    <g mask="url(#t1j8g66x5b)">
                        <g>
                            <g transform="translate(3.000000, 0.000000) translate(14.051095, 0.777739)">
                                <mask id="wlyizfwipd" fill="#fff">
                                    <use xlink:href="#sb7gdnlklc"/>
                                </mask>
                                <path fill="#26130E" d="M-2.81 74.803L53.394 74.803 53.394 -2.632 -2.81 -2.632z" mask="url(#wlyizfwipd)"/>
                            </g>
                            <g transform="translate(3.000000, 0.000000) translate(7.868613, 47.690783)">
                                <mask id="db0qdd897f" fill="#fff">
                                    <use xlink:href="#eiii13zdle"/>
                                </mask>
                                <path fill="#FBBE9B" d="M-7.869 61.043L72.397 61.043 72.397 -2.347 -7.869 -2.347z" mask="url(#db0qdd897f)"/>
                            </g>
                            <g transform="translate(3.000000, 0.000000) translate(41.029197, 38.082087)">
                                <mask id="5lmfkqou1h" fill="#fff">
                                    <use xlink:href="#77xa5baqzg"/>
                                </mask>
                                <path fill="#D2785C" d="M-2.81 3.438L3.934 3.438 3.934 -2.486 -2.81 -2.486z" mask="url(#5lmfkqou1h)"/>
                            </g>
                            <g transform="translate(3.000000, 0.000000) translate(37.094891, 38.082087)">
                                <mask id="7uiawdbl2j" fill="#fff">
                                    <use xlink:href="#oho8pnvi5i"/>
                                </mask>
                                <path fill="#CF795C" d="M-2.248 3.498L4.496 3.498 4.496 -2.546 -2.248 -2.546z" mask="url(#7uiawdbl2j)"/>
                            </g>
                            <g transform="translate(3.000000, 0.000000) translate(13.489051, 45.995130)">
                                <mask id="owb8clxqul" fill="#fff">
                                    <use xlink:href="#f32g09i0wk"/>
                                </mask>
                                <path fill="#F9A984" d="M-5.497 62.368L58.953 62.368 58.953 -2.493 -5.497 -2.493z" mask="url(#owb8clxqul)"/>
                            </g>
                            <g transform="translate(3.000000, 0.000000) translate(33.160584, 46.560348)">
                                <mask id="l87oi94lsn" fill="#fff">
                                    <use xlink:href="#9ve107w8hm"/>
                                </mask>
                                <path fill="#E58869" d="M-2.81 12.063L17.423 12.063 17.423 -2.632 -2.81 -2.632z" mask="url(#l87oi94lsn)"/>
                            </g>
                            <g transform="translate(3.000000, 0.000000) translate(25.291971, 8.125565)">
                                <mask id="3aam5ft5hp" fill="#fff">
                                    <use xlink:href="#ootwj0x2xo"/>
                                </mask>
                                <path fill="#FBBE9B" d="M-2.81 47.107L32.599 47.107 32.599 -2.632 -2.81 -2.632z" mask="url(#3aam5ft5hp)"/>
                            </g>
                            <g transform="translate(3.000000, 0.000000) translate(11.802920, 0.212522)">
                                <mask id="wl1chylf4r" fill="#fff">
                                    <use xlink:href="#vhtcerwdnq"/>
                                </mask>
                                <path fill="#391F15" d="M-2.75 64.539L59.909 64.539 59.909 -2.473 -2.75 -2.473z" mask="url(#wl1chylf4r)"/>
                            </g>
                            <g transform="translate(3.000000, 0.000000) translate(43.839416, 24.516870)">
                                <mask id="gxl2oi015t" fill="#fff">
                                    <use xlink:href="#poat6r3ics"/>
                                </mask>
                                <path fill="#5E2918" d="M-2.81 5.091L11.803 5.091 11.803 -2.822 -2.81 -2.822z" mask="url(#gxl2oi015t)"/>
                            </g>
                            <g transform="translate(3.000000, 0.000000) translate(43.277372, 27.908174)">
                                <mask id="hdo3d54qpv" fill="#fff">
                                    <use xlink:href="#1mv06ylb9u"/>
                                </mask>
                                <path fill="#EFC3BB" d="M-2.81 6.411L11.241 6.411 11.241 -2.632 -2.81 -2.632z" mask="url(#hdo3d54qpv)"/>
                            </g>
                            <g transform="translate(3.000000, 0.000000) translate(44.963504, 27.908174)">
                                <mask id="5msswsb9ox" fill="#fff">
                                    <use xlink:href="#28ccqmsm9w"/>
                                </mask>
                                <path fill="#FDE9DF" d="M-2.81 6.027L8.431 6.027 8.431 -2.451 -2.81 -2.451z" mask="url(#5msswsb9ox)"/>
                            </g>
                            <g transform="translate(3.000000, 0.000000) translate(46.087591, 27.908174)">
                                <mask id="baj54u7dxz" fill="#fff">
                                    <use xlink:href="#0c4c59meky"/>
                                </mask>
                                <path fill="#5E2918" d="M-2.81 5.846L6.182 5.846 6.182 -2.632 -2.81 -2.632z" mask="url(#baj54u7dxz)"/>
                            </g>
                            <g transform="translate(3.000000, 0.000000) translate(47.211679, 28.473391)">
                                <mask id="gowbn5biqB" fill="#fff">
                                    <use xlink:href="#bfmcoi2kdA"/>
                                </mask>
                                <path fill="#0C1016" d="M-2.81 4.716L4.496 4.716 4.496 -2.632 -2.81 -2.632z" mask="url(#gowbn5biqB)"/>
                            </g>
                            <g transform="translate(3.000000, 0.000000) translate(43.277372, 27.908174)">
                                <mask id="n6jdummytD" fill="#fff">
                                    <use xlink:href="#8bjyw1mffC"/>
                                </mask>
                                <path fill="#0C1016" d="M-2.81 5.663L11.241 5.663 11.241 -2.815 -2.81 -2.815z" mask="url(#n6jdummytD)"/>
                            </g>
                            <g transform="translate(3.000000, 0.000000) translate(47.211679, 29.038609)">
                                <mask id="wtgbnwjw5F" fill="#fff">
                                    <use xlink:href="#73gbc70xpE"/>
                                </mask>
                                <path fill="#FFF" d="M-2.781 3.484L3.343 3.484 3.343 -2.532 -2.781 -2.532z" mask="url(#wtgbnwjw5F)"/>
                            </g>
                            <g transform="translate(3.000000, 0.000000) translate(26.978102, 23.951652)">
                                <mask id="ju9sgzjv5H" fill="#fff">
                                    <use xlink:href="#e2tg6gwdvG"/>
                                </mask>
                                <path fill="#5E2918" d="M-2.529 5.258L12.084 5.258 12.084 -2.655 -2.529 -2.655z" mask="url(#ju9sgzjv5H)"/>
                            </g>
                            <g transform="translate(3.000000, 0.000000) translate(28.102190, 27.908174)">
                                <mask id="wfjujrhalJ" fill="#fff">
                                    <use xlink:href="#x6st9zpunI"/>
                                </mask>
                                <path fill="#E8B1A3" d="M-2.81 6.411L11.241 6.411 11.241 -2.632 -2.81 -2.632z" mask="url(#wfjujrhalJ)"/>
                            </g>
                            <g transform="translate(3.000000, 0.000000) translate(29.226277, 27.908174)">
                                <mask id="4peebhmyaL" fill="#fff">
                                    <use xlink:href="#9paj15dtyK"/>
                                </mask>
                                <path fill="#FDE9DF" d="M-2.81 6.027L8.431 6.027 8.431 -2.451 -2.81 -2.451z" mask="url(#4peebhmyaL)"/>
                            </g>
                            <g transform="translate(3.000000, 0.000000) translate(30.350365, 27.908174)">
                                <mask id="jsx0x71f1N" fill="#fff">
                                    <use xlink:href="#ji7df3sxxM"/>
                                </mask>
                                <path fill="#5E2918" d="M-2.81 5.846L6.182 5.846 6.182 -2.632 -2.81 -2.632z" mask="url(#jsx0x71f1N)"/>
                            </g>
                            <g transform="translate(3.000000, 0.000000) translate(31.474453, 27.908174)">
                                <mask id="pkej164iiP" fill="#fff">
                                    <use xlink:href="#h6sz7zmd4O"/>
                                </mask>
                                <path fill="#0C1016" d="M-2.81 4.716L4.496 4.716 4.496 -2.632 -2.81 -2.632z" mask="url(#pkej164iiP)"/>
                            </g>
                            <g transform="translate(3.000000, 0.000000) translate(28.102190, 27.342957)">
                                <mask id="yltv1j1gvR" fill="#fff">
                                    <use xlink:href="#min5mldb5Q"/>
                                </mask>
                                <path fill="#0C1016" d="M-2.81 6.198L11.241 6.198 11.241 -2.28 -2.81 -2.28z" mask="url(#yltv1j1gvR)"/>
                            </g>
                            <g transform="translate(3.000000, 0.000000) translate(31.474453, 28.473391)">
                                <mask id="8xzp9cjxlT" fill="#fff">
                                    <use xlink:href="#6sx7w235vS"/>
                                </mask>
                                <path fill="#FFF" d="M-2.781 3.484L3.343 3.484 3.343 -2.532 -2.781 -2.532z" mask="url(#8xzp9cjxlT)"/>
                            </g>
                            <g transform="translate(3.000000, 0.000000) translate(33.160584, 41.473391)">
                                <mask id="6a2ailje4V" fill="#fff">
                                    <use xlink:href="#b0wv8ae3pU"/>
                                </mask>
                                <path fill="#F26A61" d="M-2.81 6.411L16.861 6.411 16.861 -2.632 -2.81 -2.632z" mask="url(#6a2ailje4V)"/>
                            </g>
                            <g transform="translate(3.000000, 0.000000) translate(33.160584, 41.473391)">
                                <mask id="noco1jsk8X" fill="#fff">
                                    <use xlink:href="#60petkkv6W"/>
                                </mask>
                                <path fill="#5C1C0E" d="M-2.81 4.716L16.861 4.716 16.861 -2.632 -2.81 -2.632z" mask="url(#noco1jsk8X)"/>
                            </g>
                            <g transform="translate(3.000000, 0.000000) translate(36.532847, 36.386435)">
                                <mask id="64lpat6vhZ" fill="#fff">
                                    <use xlink:href="#p3h19qqo8Y"/>
                                </mask>
                                <path fill="#E49273" d="M-2.81 5.846L9.555 5.846 9.555 -2.632 -2.81 -2.632z" mask="url(#64lpat6vhZ)"/>
                            </g>
                            <g transform="translate(3.000000, 0.000000) translate(25.291971, 9.256000)">
                                <mask id="4at1p66evab" fill="#fff">
                                    <use xlink:href="#54c8sx1uwaa"/>
                                </mask>
                                <path fill="#F9A984" d="M-2.81 39.194L32.599 39.194 32.599 -2.632 -2.81 -2.632z" mask="url(#4at1p66evab)"/>
                            </g>
                            <g transform="translate(3.000000, 0.000000) translate(11.240876, 2.473391)">
                                <mask id="l1ve1ngmqad" fill="#fff">
                                    <use xlink:href="#qozw0snn2ac"/>
                                </mask>
                                <path fill="#633E35" d="M-2.81 60.107L58.453 60.107 58.453 -2.632 -2.81 -2.632z" mask="url(#l1ve1ngmqad)"/>
                            </g>
                            <g transform="translate(3.000000, 0.000000) translate(43.839416, 4.734261)">
                                <mask id="sc6pn00eqaf" fill="#fff">
                                    <use xlink:href="#cfpfighrwae"/>
                                </mask>
                                <path fill="#633E35" d="M-2.81 5.281L12.927 5.281 12.927 -2.632 -2.81 -2.632z" mask="url(#sc6pn00eqaf)"/>
                            </g>
                            <g>
                                <path fill="#231F20" d="M52.753 8.305c-.519.928-1.426 1.295-2.468 1.415-.444.05-3.032-.026-3.855-.185-1.447-.279-2.529-1.08-3.267-2.29-.665-1.087-1.1-2.25-1.222-3.512-.14-1.453.412-2.362 1.863-2.825C44.51.683 45.267.545 46.01.49c1.79-.13 3.569-.025 5.327.384 1.476.342 2.272 1.202 2.45 2.628.214 1.712-.194 3.303-1.033 4.802M38.44 3.613c-.148 1.68-.75 3.198-1.884 4.496-.825.943-1.955 1.379-3.203 1.546-.634.083-3.07.182-3.738.05-.657-.13-1.45-.586-1.803-1.139-1.091-1.71-1.545-3.547-1.12-5.543.218-1.017.842-1.67 1.873-2.003C29.62.68 30.708.542 31.81.48c1.384-.076 2.768-.089 4.129.229.272.063.542.146.8.249 1.285.509 1.816 1.332 1.7 2.655m16.293-.793c-.411-.408-.91-.747-1.263-1.194-.42-.535-.948-.84-1.596-.995-2.29-.548-4.61-.782-6.96-.488-1.188.148-2.334.464-3.121 1.414-.447.54-.936.805-1.691.764-.564-.03-.993-.135-1.339-.575-.55-.704-1.3-1.133-2.182-1.376-1.005-.277-2.035-.345-3.24-.366-.506.034-1.18.115-1.852.135-1.032.03-2.068.215-3.243.576-.51.158-.937.407-1.274.839-.324.418-.713.816-1.15 1.121-.412.289-.56.612-.524 1.065.017.202-.017.412.025.608.022.107.15.268.238.272.357.017.433.21.478.496.144.916.375 1.811.803 2.647.696 1.352 1.758 2.25 3.396 2.36.75.05 1.507.067 2.259.034 1.104-.048 2.198-.202 3.223-.62.324-.133.649-.318.895-.553 1.066-1.015 1.745-2.246 2.147-3.627.124-.432.274-.86.442-1.28.171-.429.537-.557 1-.554.455.002.798.143.97.554.127.308.233.625.331.943.41 1.328.939 2.588 1.923 3.647.483.518 1.047.863 1.733 1.054 1.723.478 3.477.574 5.249.374 1.276-.143 2.183-.836 2.843-1.858.619-.96.902-2.026 1.084-3.122.048-.294.134-.474.478-.493.086-.004.227-.131.234-.21.028-.352.055-.71.005-1.059-.027-.19-.175-.387-.321-.533" transform="translate(3.000000, 0.000000) translate(0.000000, 25.647304)"/>
                                <path stroke="#000" stroke-width=".5" d="M52.753 8.305c-.519.928-1.426 1.295-2.468 1.415-.444.05-3.032-.026-3.855-.185-1.447-.279-2.529-1.08-3.267-2.29-.665-1.087-1.1-2.25-1.222-3.512-.14-1.453.412-2.362 1.863-2.825C44.51.683 45.267.545 46.01.49c1.79-.13 3.569-.025 5.327.384 1.476.342 2.272 1.202 2.45 2.628.214 1.712-.194 3.303-1.033 4.802zM38.44 3.613c-.148 1.68-.75 3.198-1.884 4.496-.825.943-1.955 1.379-3.203 1.546-.634.083-3.07.182-3.738.05-.657-.13-1.45-.586-1.803-1.139-1.091-1.71-1.545-3.547-1.12-5.543.218-1.017.842-1.67 1.873-2.003C29.62.68 30.708.542 31.81.48c1.384-.076 2.768-.089 4.129.229.272.063.542.146.8.249 1.285.509 1.816 1.332 1.7 2.655zm16.293-.793c-.411-.408-.91-.747-1.263-1.194-.42-.535-.948-.84-1.596-.995-2.29-.548-4.61-.782-6.96-.488-1.188.148-2.334.464-3.121 1.414-.447.54-.936.805-1.691.764-.564-.03-.993-.135-1.339-.575-.55-.704-1.3-1.133-2.182-1.376-1.005-.277-2.035-.345-3.24-.366-.506.034-1.18.115-1.852.135-1.032.03-2.068.215-3.243.576-.51.158-.937.407-1.274.839-.324.418-.713.816-1.15 1.121-.412.289-.56.612-.524 1.065.017.202-.017.412.025.608.022.107.15.268.238.272.357.017.433.21.478.496.144.916.375 1.811.803 2.647.696 1.352 1.758 2.25 3.396 2.36.75.05 1.507.067 2.259.034 1.104-.048 2.198-.202 3.223-.62.324-.133.649-.318.895-.553 1.066-1.015 1.745-2.246 2.147-3.627.124-.432.274-.86.442-1.28.171-.429.537-.557 1-.554.455.002.798.143.97.554.127.308.233.625.331.943.41 1.328.939 2.588 1.923 3.647.483.518 1.047.863 1.733 1.054 1.723.478 3.477.574 5.249.374 1.276-.143 2.183-.836 2.843-1.858.619-.96.902-2.026 1.084-3.122.048-.294.134-.474.478-.493.086-.004.227-.131.234-.21.028-.352.055-.71.005-1.059-.027-.19-.175-.387-.321-.533z" transform="translate(3.000000, 0.000000) translate(0.000000, 25.647304)"/>
                                <path fill="#4F3161" d="M0 63.478s7.671-25.224 8.227-26.476c.556-1.251 2.557-1.363 2.557-1.363s0-1.565 4.78-2.46c4.781-.894 12.897-2.347 12.897-2.347l-4.186 21.242 9.32-4.695 20.517-18.886s13.038 7.705 15.595 9.16c2.557 1.452 5.781 4.024 5.781 4.024s1.557 1.788 1.445 4.472c-.11 2.683-4.148 18.424-4.148 18.424L0 63.478z" transform="translate(3.000000, 0.000000) translate(0.000000, 25.647304)"/>
                                <path fill="#8261A2" d="M23.988 63.725L24.36 53.639 31.127 50.285 42.394 40.555 51.428 29.054 55.08 36.058 55.08 40.728 48.987 40.436 55.08 45.151 25.825 63.867z" transform="translate(3.000000, 0.000000) translate(0.000000, 25.647304)"/>
                                <path fill="#FFF" d="M23.633 53.64l2.191-3.355L38.43 39.664s7.082-9.734 7.995-11.335c.913-1.6 2.53-6.215 2.53-6.215s5.9 6.096 6.58 7.47c.68 1.375.314 3.884.314 3.884s.341 2.642.582 4.052c.24 1.411.7 3.567.7 3.567s-6.11-2.837-7.314-4.836c-1.206-2-2.434-1.106-2.434-1.106S37.295 46.703 32.951 49.268c-4.343 2.565-9.318 4.371-9.318 4.371" transform="translate(3.000000, 0.000000) translate(0.000000, 25.647304)"/>
                                <path fill="#8261A2" d="M18.912 63.731L14.052 54.422 14.052 51.487 14.052 43.666 21.735 45.056 17.894 42.192 23.633 36.068 25.825 42.647 25.825 47.866 23.633 54.365 23.313 63.786z" transform="translate(3.000000, 0.000000) translate(0.000000, 25.647304)"/>
                                <path fill="#FFF" d="M32.948 24.114s-5.275 6.846-7.383 8.15c-2.107 1.305-10.536 5.38-10.536 5.38l7.133-.978s3.3 4.809 3.3 7.254c0 2.445-1.474 9.587-1.474 9.587s4.387-9.505 5.009-12.603c.62-3.097-.146-4.813-.146-4.813l2.985-1.984 1.112-4.271v-5.722z" transform="translate(3.000000, 0.000000) translate(0.000000, 25.647304)"/>
                                <path fill="#4F3161" d="M23.962 63.786L29.552 51.087 23.91 53.216 23.621 54.522 23.314 63.786z" transform="translate(3.000000, 0.000000) translate(0.000000, 25.647304)"/>
                            </g>
                        </g>
                    </g>
                </g>
            </g>
        </g>
    </g>
</svg>
