<svg xmlns="http://www.w3.org/2000/svg" xmlns:xlink="http://www.w3.org/1999/xlink" width="173" height="202" viewBox="0 0 173 202">
    <defs>
        <path id="7nuiksoz7a" d="M47.071.84c-6.264.915-15.282 3.658-28.273 21.646-12.99 17.988-16.2 71.646-16.2 82.316 0 10.67-2.598 31.706-2.598 31.706s3.21 13.112 6.573 18.446c3.36 5.335 20.173 5.792 20.173 5.792s-2.14 1.524 37.136-.153c39.43-1.37 48.906-13.108 49.365-15.852.458-2.744 1.986-64.634-6.572-94.206-8.557-29.573-18.187-37.806-24.91-43.749C74.886.84 64.953.84 64.953.84S59.791.435 54.493.435c-2.65 0-5.332.101-7.422.405z"/>
        <path id="ibyiz26tmc" d="M52.244 27.828c-5.179 5.868-19.153 2.608-24.666 1.956-5.516-.652-13.973.015-24.654 8.802-10.684 8.787 12.53 47.366 12.53 47.366l108.255-.993s24.542-15.401 20.001-35.613c-4.543-20.214-13.3-18.258-30.82-17.175-17.515 1.083-21.082-4.017-25.106-8.255-4.02-4.239-.233-22.388-.233-22.388L56.437.441s.983 21.517-4.193 27.387z"/>
        <path id="d9xyvn3fce" d="M.532.764c-.325.01-.718.355-.435.502.31.161 1.32.108 1.507.046.357-.12.923-.316.923-.316S1.686.763.706.763L.532.764z"/>
        <path id="bgw7ig8o2g" d="M.663 1.189c.19.267 1.012.36 1.515.3.504-.062.977-.3.977-.3S2.479.665 1.778.63C1.744.63 1.708.63 1.675.63c-.656 0-1.191.308-1.012.56z"/>
        <path id="jhkkqzu5ri" d="M75.4.114L43.25.448s.098 11.991-.73 20.575c-.828 8.583-5.862 12.426-7.581 12.71-1.716.287-24.144-.762-24.144-.762s.006 4.994-1.138 12.435c-1.145 7.439-9.27 9.441-9.27 9.441s.4 15.451 0 27.754c-.402 12.304 3.462 6.17 3.462 6.17l7.596.904 6.506-24.527 11.44-27.755s14.305-2.004 15.735-3.434c1.428-1.433 4.004-14.02 4.004-14.02s6.579 7.154 11 11.732c4.42 4.577 26.757 6.01 26.757 6.01l27.24 53.881 4.309-38.432s-6.949-3.433-9.515-6.58c-2.568-3.15-2.012-11.023-2.012-11.023s16.879-1.568-4.003 0c-20.882 1.564-19.685-4.475-24.252-8.842-4.45-4.253.74-25.47 1.012-26.571H75.4z"/>
        <path id="7ojhx04pbk" d="M3.296 10.687S6.655 19.551 12 20.602c5.346 1.057 12.06-6.007 14.01-8.278 1.95-2.272 6.822-10.077 6.822-10.077L0 .435l3.296 10.252z"/>
        <path id="uavw20uchm" d="M21.371 1.286C9.031 4.803.55 22.078.55 22.078s-1.235 33.02 0 39.134c1.233 6.113 3.084 20.94 10.178 25.834 7.097 4.892 13.728 12.533 22.52 12.227 8.79-.306 24.676-13.604 26.836-18.649 2.16-4.89 6.478-27.82 6.633-31.337.153-3.516 1.388-27.055-4.474-35.312C57.23 7.098 40.762.435 28.271.433c-2.5 0-4.841.268-6.9.853z"/>
        <path id="lcbxdvdhyo" d="M58.431.158C51.27.204 42.888 1.444 36.386 7.032 27.684 14.506 12.317 44.18 6.779 57.825c-1.189 2.932-1.924 5.121-2.044 6.196-.67 6.072-1.718 16.175-1.718 16.175S5.9 65.092 7.733 60.973c1.835-4.116 5.404-10.017 5.404-10.017s2.106 26.215-.418 28.493c-2.523 2.281-2.103 26.454-2.627 28.53-.524 2.078.264 16.09.264 16.09l8.91-27.924s-.526 21.437-3.408 26.887c-2.882 5.45-2.504 10.474-6.811 11.417-4.312.943-8.912 2.596-8.912 2.596s3.024.664 6.142.691h.364c1.533-.013 3.06-.191 4.238-.69 3.67-1.557 11.005-18.687 11.005-18.687l2.36-22.214s3.407 11.4 2.883 15.64-3.93 16.176-3.93 16.176 5.827-11.593 6.973-16.177c1.15-4.583 1.41-17.43 1.41-17.43l-6.55-12.325 8.652-27.197 17.323-34.006 21.423 4.942 17.04 7.862 6.806 31.847-4.049 34.65 2.252 17.455-4.955-13.234v9.081l-2.703-4.67 2.65 16.868s2.078 5.968 2.756 7.267c.679 1.295 8.802-1.04 9.326-3.375.524-2.336 1.573-7.266 1.573-7.266s3.406 6.23 3.406 8.044v4.152s4.718-2.596 4.718-6.747c0-4.152-6.636-26.502-7.642-32.974-1.007-6.471.828-29.808.828-29.808s1.836 8.805 2.884 12.697c1.048 3.894 1.048 8.577 3.93 14.54 2.881 5.96 9.564 10.114 11.859 14.526 2.291 4.412 4.65 18.683 4.65 18.683s.504-2.44.53-6.241v-.576c-.03-4.382-.713-10.392-3.413-16.538-5.243-11.937-10.654-19.43-12.054-25.95-1.4-6.523-3.542-18.923-3.542-18.923s6.532 20.964 9.1 23.058c2.567 2.092 4.729 7.802 4.729 7.802s-3.367-9.082-4.73-13.495c-1.365-4.41-9.386-38.97-14.48-44.873-5.091-5.905-11.347-14.395-14.375-18.708-3.03-4.31-12.65-9.857-19.838-10.214-2.595-.13-6.281-.525-10.43-.55h-.823z"/>
        <path id="5yughm71uq" d="M11.629.015C8.522.18.609 3.3.609 3.3L0 5.079S5.112 3.88 9.524 2.55c4.412-1.327 10.682 1.082 10.682 1.082S14.97.01 11.835.01c-.07 0-.14.002-.206.006z"/>
        <path id="hqjxosgz4s" d="M4.018 2.607C-.014 4.733 0 6.28 0 6.28s.332.32.782.357c.223.022.478-.034.7-.09.205-.05.383-.103.482-.094.413.05 3.087.804 7.81 1.495 4.721.691 9.198-2.881 9.169-3.483-.03-.6-1.56-2.485-4.61-3.646-.671-.255-1.513-.387-2.477-.387-2.203 0-5.03.692-7.838 2.174z"/>
        <path id="5ayorf4vlu" d="M6.936.209C4.723.21 0 2.186 0 2.186s.914 3.57 6.74 4.28c3.194.39 4.271-.784 4.271-.784s.657-.62.834-.948c.18-.324 1.304-3.07.491-3.518C11.524.77 9.161.21 6.95.21h-.014z"/>
        <path id="g0ammvuoxw" d="M2.459.444L0 1.413l.05 1.607s.006 3 2.898 3.62c2.889.624 4.158-1.139 4.534-2.37.375-1.234-.433-2.948-1.28-3.439C5.607.485 3.982.433 3.08.433c-.372 0-.622.01-.622.01z"/>
        <path id="io8lfgds2y" d="M.014 2.106c-.125 1.043.615 1.99 1.654 2.115 1.04.126 1.981-.618 2.108-1.659C3.9 1.518 3.159.572 2.12.447 2.043.438 1.967.433 1.892.433c-.945 0-1.763.71-1.878 1.673z"/>
        <path id="oh22w52m6A" d="M11.07.032C7.513.158 3.925 1.793 2.61 2.842.373 4.636 0 6.364 0 6.364S.841 4.87 1.047 4.892l.207.026S2.753 3.053 4.129 2.45C5.504 1.845 7.79.63 10.836.9c4.951.444 7.824 4.25 7.824 4.25s.828-.92-.354-2.224c-1.147-1.27-4.193-2.9-6.988-2.9-.083 0-.165 0-.249.005z"/>
        <path id="iysxm0ipfC" d="M.068.999c-.025.221.206.432.515.47.311.038.585-.112.613-.333C1.22.912.99.703.68.666.649.661.617.658.586.658c-.27 0-.493.14-.518.34z"/>
        <path id="p8zwvxmn1E" d="M.631 4.007s6.27-2.411 10.68-1.08c4.413 1.326 9.525 2.524 9.525 2.524l-.609-1.778S12.315.553 9.208.387C9.14.384 9.072.38 9.004.38 5.867.381.63 4.007.63 4.007z"/>
        <path id="njje416rgG" d="M4.61.82C1.56 1.98.03 3.865 0 4.468c-.028.6 4.447 4.171 9.17 3.48 4.72-.691 7.395-1.447 7.808-1.494.097-.01.277.043.486.094.22.055.475.11.698.09.45-.038.78-.359.78-.359s.015-1.544-4.019-3.673C12.118 1.124 9.29.433 7.087.433 6.124.433 5.28.565 4.61.82z"/>
        <path id="2moxf4wpsI" d="M5.679.209c-2.213 0-4.575.56-5.387 1.007-.814.449.314 3.195.49 3.522.179.323.837.944.837.944s1.076 1.174 4.27.783c5.826-.708 6.739-4.28 6.739-4.28S7.908.212 5.69.21H5.68z"/>
        <path id="vybi66wzgK" d="M1.374.831C.529 1.321-.28 3.036.096 4.27c.376 1.233 1.643 2.994 4.535 2.37 2.891-.62 2.898-3.62 2.898-3.62l.048-1.607L5.12.443s-.25-.01-.623-.01c-.9 0-2.526.052-3.124.398z"/>
        <path id="035gxrib4M" d="M1.668.447C.628.572-.11 1.52.015 2.562c.123 1.04 1.067 1.785 2.106 1.66C3.158 4.095 3.9 3.148 3.776 2.105 3.658 1.142 2.84.433 1.896.433c-.074 0-.15.005-.228.014z"/>
        <path id="qfhomg3ejO" d="M.635 3.491C-.545 4.795.283 5.716.283 5.716s2.874-3.807 7.824-4.25c3.046-.271 5.331.943 6.707 1.547 1.376.605 2.874 2.47 2.874 2.47l.206-.025c.207-.025 1.049 1.47 1.049 1.47s-.371-1.73-2.612-3.52C15.017 2.356 11.428.722 7.873.594 7.791.591 7.71.59 7.627.59 4.83.59 1.784 2.222.635 3.491z"/>
        <path id="lo2zl5el0Q" d="M.583.664c-.31.04-.54.248-.515.472.027.221.3.37.611.334.312-.04.542-.25.517-.47C1.17.8.946.659.674.659.645.659.615.66.584.664z"/>
        <path id="p62nar85gS" d="M14.878 1.48S13.176.457 10.986.57C8.798.684 4.297 2.39 2.596 2.277.894 2.163.746 1.58.526 1.58c-.22 0-.73.24-.438.48.293.237 1.941.822 2.637 1.197.695.377 4.465 4.21 9.223 4.623 4.758.41 7.686-.036 9.004-.617 1.318-.582 7.063-4.381 7.612-4.553.55-.172 1.686-.752 1.905-.855.219-.103 1.171-.24 1.097-.995-.074-.751-.915-.34-1.28 0-.367.344-2.345.652-2.891.583-.55-.067-6.847-.95-7.981-1.007l-.086-.002c-1.211 0-4.45 1.047-4.45 1.047z"/>
        <path id="p8ydvccfrU" d="M30.602.617c-.333.179-.477.648-.598.735-.762.563-3.414 1.216-5 1.361-1.899.175-4.16.259-5.085.434-.924.173-4.623.736-4.623.736s-3.696-.606-4.98-.693c-1.285-.086-4.93-.302-5.906-.477-.599-.109-2.504-.675-3.103-.827-.601-.154-.557-.57-1.09-.326-.757.347.716.722.716.722s8.098 1.216 8.87 1.345c.768.13 5.03.608 5.03.608s4.572-.694 6.164-.737c1.594-.047 5.24-.526 6.779-1.046.871-.296 1.352-.526 2.17-.758.23-.066.897-.083 1.421-.352.248-.127.355-.907-.195-.907-.143 0-.33.052-.57.182z"/>
        <path id="g85aikwznW" d="M14.442 3.138c0 1.006-.362 1.742-.996 2.015-.351.153-.785.024-1.35-.107-.453-.104-.989-.207-1.633-.166-1.447.092-1.207 1.188-3.352 1.188-1.098-.001-2.253-1.096-2.253-1.096-.722-.46-2.35-.46-3.617-.46C-.024 4.513.35.81.35.81s-1.25 4.434.983 4.895c.904.187 3.165.46 3.165.46s1.807.825 3.707.55c1.9-.277 2.35-.736 3.526-.645 1.174.094 2.892-.09 3.344-1.557.454-1.466-1.175-4.078-1.175-4.078s.543 1.693.543 2.703z"/>
        <path id="iqeqylr89Y" d="M18.213 3.291L0 42.735S.924 55.25 2.784 66.148c1.86 10.892 6.058 15.394 6.058 15.394S6.599 74.124 4.788 66.16c-1.81-7.968-.647-18.291-.594-22.392.053-4.103 6.935-14.612 9.006-17.474C15.27 23.436 25.45 3.683 25.45 3.683s29.413 12.086 31.822 16.244c2.41 4.157 6 18.067 6.13 20.852.13 2.784-.5 26.537-.5 26.537l4.024-24.936-7.006-24.4-7.06-8.71L38.3 3.812 25.412.435 18.213 3.29z"/>
        <path id="5yvrjijcaaa" d="M49.885 1.105C40.478 2.15 29.14 13.135 27.052 19.473c-2.086 6.338-4.368 19.204-4.368 19.204s6.241-14.611 9.718-20.248c3.473-5.634 9.834-5.978 9.834-5.978s-1.456 2.43-3.643 3.474c-2.186 1.044-7.173 8.35-10.292 18.16-3.12 9.81-7.696 24.21-9.568 30.524-1.871 6.31-6.24 13.1-6.24 13.1s2.08-1.253 7.282-7.931C24.973 63.098 30.173 47.4 30.173 47.4s-.417 13.61-2.912 17.997C24.766 69.78 4.38 87.937 1.054 94.617c-3.328 6.68 2.289 13.448 2.289 13.448s-.417-4.473 0-7.811c.415-3.341 22.671-22.961 26.206-30.893 3.536-7.932 18.926-46.34 24.749-50.096 5.825-3.758 16.64 2.922 16.64 2.922s13.103 2.92 17.915 9.185c4.81 6.26 10.162 35.065 11.411 42.997 1.248 7.932 8.736 25.257 12.064 30.893 3.327 5.634 12.688 23.17 12.688 23.17S111.08 97.957 107.96 89.397c-3.12-8.557-3.536-20.246-4.99-26.993-1.458-6.748-5.653-26.26-11.424-35.206-5.77-8.95-13.536-9.395-13.536-9.395s8.736-.416 13.536 3.968c4.801 4.381 13.918 32.769 13.918 32.769l-4.16-17.95s3.328 4.592 4.369 8.347c1.038 3.759 7.695 20.46 7.695 20.46s-.417-8.977-4.783-21.294C104.217 31.79 102.55 24.9 99.64 21.35c-2.912-3.547-8.094-6.259-8.094-6.259s2.062-.418 4.352.625c2.288 1.045 8.526 6.388 8.526 6.388s-2.835-5.1-5.94-8.059c-3.105-2.955-10.282-3.336-15.569-3.336-5.283 0-13.043 5.84-13.043 5.84s-2.47-5.426-5.074-7.722c-2.605-2.295-13.584-2.712-13.584-2.712s11.404-2.923 15.943-1.67c4.537 1.252 6.285 4.382 6.285 4.382s-.633-4.173-3.57-6.469C68.114.988 64.68.433 60.192.433c-3.021 0-6.522.251-10.307.672z"/>
        <path id="eo3zvys6bac" d="M7.972.493C2.757.833 0 5.503 0 5.503S7.972.493 14.516 2.428c3.81.114 8.214 3.075 8.214 3.075s-1.508-1.566-2.846-2.848C18.698 1.522 14.375.435 9.786.435c-.602 0-1.208.017-1.814.058z"/>
    </defs>
    <g fill="none" fill-rule="evenodd">
        <g>
            <g>
                <g>
                    <g>
                        <g transform="translate(-1121.000000, -4357.000000) translate(1121.000000, 4357.000000) translate(31.569343, 1.111061)">
                            <mask id="rfvta2h3fb" fill="#fff">
                                <use xlink:href="#7nuiksoz7a"/>
                            </mask>
                            <path fill="#26130E" d="M-6.314 167.718L119.964 167.718 119.964 -5.902 -6.314 -5.902z" mask="url(#rfvta2h3fb)"/>
                        </g>
                        <g transform="translate(-1121.000000, -4357.000000) translate(1121.000000, 4357.000000) translate(18.312532, 106.929662)">
                            <mask id="lq9vuevjad" fill="#fff">
                                <use xlink:href="#ibyiz26tmc"/>
                            </mask>
                            <path fill="#FBBE9B" d="M-18.313 136.236L162.025 136.236 162.025 -5.896 -18.313 -5.896z" mask="url(#lq9vuevjad)"/>
                        </g>
                        <g transform="translate(-1121.000000, -4357.000000) translate(1121.000000, 4357.000000) translate(92.182482, 84.752828)">
                            <mask id="toqc7phs9f" fill="#fff">
                                <use xlink:href="#d9xyvn3fce"/>
                            </mask>
                            <path fill="#D2785C" d="M-6.314 7.708L8.839 7.708 8.839 -5.575 -6.314 -5.575z" mask="url(#toqc7phs9f)"/>
                        </g>
                        <g transform="translate(-1121.000000, -4357.000000) translate(1121.000000, 4357.000000) translate(83.976765, 84.752828)">
                            <mask id="xg6svttzuh" fill="#fff">
                                <use xlink:href="#bgw7ig8o2g"/>
                            </mask>
                            <path fill="#CF795C" d="M-5.685 7.842L9.468 7.842 9.468 -5.708 -5.685 -5.708z" mask="url(#xg6svttzuh)"/>
                        </g>
                        <g transform="translate(-1121.000000, -4357.000000) translate(1121.000000, 4357.000000) translate(30.940269, 103.127764)">
                            <mask id="sraouuvytj" fill="#fff">
                                <use xlink:href="#jhkkqzu5ri"/>
                            </mask>
                            <path fill="#F9A984" d="M-12.984 139.205L131.819 139.205 131.819 -6.222 -12.984 -6.222z" mask="url(#sraouuvytj)"/>
                        </g>
                        <g transform="translate(-1121.000000, -4357.000000) translate(1121.000000, 4357.000000) translate(74.503650, 103.762320)">
                            <mask id="iecc255zzl" fill="#fff">
                                <use xlink:href="#7ojhx04pbk"/>
                            </mask>
                            <path fill="#E58869" d="M-6.314 27.048L39.146 27.048 39.146 -5.902 -6.314 -5.902z" mask="url(#iecc255zzl)"/>
                        </g>
                        <g transform="translate(-1121.000000, -4357.000000) translate(1121.000000, 4357.000000) translate(56.824818, 17.585955)">
                            <mask id="7sjfclgonn" fill="#fff">
                                <use xlink:href="#uavw20uchm"/>
                            </mask>
                            <path fill="#FBBE9B" d="M-6.314 105.621L73.241 105.621 73.241 -5.902 -6.314 -5.902z" mask="url(#7sjfclgonn)"/>
                        </g>
                        <g transform="translate(-1121.000000, -4357.000000) translate(1121.000000, 4357.000000) translate(26.518248, 0.476505)">
                            <mask id="jjvd3p1ilp" fill="#fff">
                                <use xlink:href="#lcbxdvdhyo"/>
                            </mask>
                            <path fill="#391F15" d="M-6.179 144.074L134.6 144.074 134.6 -6.178 -6.179 -6.178z" mask="url(#jjvd3p1ilp)"/>
                        </g>
                        <g transform="translate(-1121.000000, -4357.000000) translate(1121.000000, 4357.000000) translate(98.496350, 54.337640)">
                            <mask id="6mnnd27dar" fill="#fff">
                                <use xlink:href="#5yughm71uq"/>
                            </mask>
                            <path fill="#5E2918" d="M-6.314 11.415L26.518 11.415 26.518 -6.328 -6.314 -6.328z" mask="url(#6mnnd27dar)"/>
                        </g>
                        <g transform="translate(-1121.000000, -4357.000000) translate(1121.000000, 4357.000000) translate(97.233577, 61.941437)">
                            <mask id="9lwa82205t" fill="#fff">
                                <use xlink:href="#hqjxosgz4s"/>
                            </mask>
                            <path fill="#EFC3BB" d="M-6.314 14.375L25.255 14.375 25.255 -5.902 -6.314 -5.902z" mask="url(#9lwa82205t)"/>
                        </g>
                        <g transform="translate(-1121.000000, -4357.000000) translate(1121.000000, 4357.000000) translate(101.021898, 62.574180)">
                            <mask id="exyxz51vyv" fill="#fff">
                                <use xlink:href="#5ayorf4vlu"/>
                            </mask>
                            <path fill="#FDE9DF" d="M-6.314 12.882L18.942 12.882 18.942 -6.128 -6.314 -6.128z" mask="url(#exyxz51vyv)"/>
                        </g>
                        <g transform="translate(-1121.000000, -4357.000000) translate(1121.000000, 4357.000000) translate(103.547445, 61.941437)">
                            <mask id="1llg037t3x" fill="#fff">
                                <use xlink:href="#g0ammvuoxw"/>
                            </mask>
                            <path fill="#5E2918" d="M-6.314 13.108L13.891 13.108 13.891 -5.902 -6.314 -5.902z" mask="url(#1llg037t3x)"/>
                        </g>
                        <g transform="translate(-1121.000000, -4357.000000) translate(1121.000000, 4357.000000) translate(106.072993, 63.208736)">
                            <mask id="1eub7z6fdz" fill="#fff">
                                <use xlink:href="#io8lfgds2y"/>
                            </mask>
                            <path fill="#0C1016" d="M-6.314 10.573L10.102 10.573 10.102 -5.902 -6.314 -5.902z" mask="url(#1eub7z6fdz)"/>
                        </g>
                        <g transform="translate(-1121.000000, -4357.000000) translate(1121.000000, 4357.000000) translate(97.233577, 61.941437)">
                            <mask id="lfa0g2drpB" fill="#fff">
                                <use xlink:href="#oh22w52m6A"/>
                            </mask>
                            <path fill="#0C1016" d="M-6.314 12.698L25.255 12.698 25.255 -6.311 -6.314 -6.311z" mask="url(#lfa0g2drpB)"/>
                        </g>
                        <g transform="translate(-1121.000000, -4357.000000) translate(1121.000000, 4357.000000) translate(106.072993, 64.476036)">
                            <mask id="tdizz9k3uD" fill="#fff">
                                <use xlink:href="#iysxm0ipfC"/>
                            </mask>
                            <path fill="#FFF" d="M-6.248 7.812L7.511 7.812 7.511 -5.678 -6.248 -5.678z" mask="url(#tdizz9k3uD)"/>
                        </g>
                        <g transform="translate(-1121.000000, -4357.000000) translate(1121.000000, 4357.000000) translate(60.613139, 53.070341)">
                            <mask id="4msg1yxk1F" fill="#fff">
                                <use xlink:href="#p8zwvxmn1E"/>
                            </mask>
                            <path fill="#5E2918" d="M-5.682 11.788L27.15 11.788 27.15 -5.954 -5.682 -5.954z" mask="url(#4msg1yxk1F)"/>
                        </g>
                        <g transform="translate(-1121.000000, -4357.000000) translate(1121.000000, 4357.000000) translate(63.138686, 61.941437)">
                            <mask id="p4m5ccx5tH" fill="#fff">
                                <use xlink:href="#njje416rgG"/>
                            </mask>
                            <path fill="#E8B1A3" d="M-6.314 14.375L25.255 14.375 25.255 -5.902 -6.314 -5.902z" mask="url(#p4m5ccx5tH)"/>
                        </g>
                        <g transform="translate(-1121.000000, -4357.000000) translate(1121.000000, 4357.000000) translate(65.664234, 62.574180)">
                            <mask id="ek2ztmt30J" fill="#fff">
                                <use xlink:href="#2moxf4wpsI"/>
                            </mask>
                            <path fill="#FDE9DF" d="M-6.314 12.882L18.942 12.882 18.942 -6.128 -6.314 -6.128z" mask="url(#ek2ztmt30J)"/>
                        </g>
                        <g transform="translate(-1121.000000, -4357.000000) translate(1121.000000, 4357.000000) translate(68.189781, 61.941437)">
                            <mask id="9msbuwli4L" fill="#fff">
                                <use xlink:href="#vybi66wzgK"/>
                            </mask>
                            <path fill="#5E2918" d="M-6.314 13.108L13.891 13.108 13.891 -5.902 -6.314 -5.902z" mask="url(#9msbuwli4L)"/>
                        </g>
                        <g transform="translate(-1121.000000, -4357.000000) translate(1121.000000, 4357.000000) translate(70.715328, 61.941437)">
                            <mask id="ab81yyox5N" fill="#fff">
                                <use xlink:href="#035gxrib4M"/>
                            </mask>
                            <path fill="#0C1016" d="M-6.314 10.573L10.102 10.573 10.102 -5.902 -6.314 -5.902z" mask="url(#ab81yyox5N)"/>
                        </g>
                        <g transform="translate(-1121.000000, -4357.000000) translate(1121.000000, 4357.000000) translate(63.138686, 61.306880)">
                            <mask id="ppyxyydgyP" fill="#fff">
                                <use xlink:href="#qfhomg3ejO"/>
                            </mask>
                            <path fill="#0C1016" d="M-6.314 13.264L25.255 13.264 25.255 -5.745 -6.314 -5.745z" mask="url(#ppyxyydgyP)"/>
                        </g>
                        <g transform="translate(-1121.000000, -4357.000000) translate(1121.000000, 4357.000000) translate(70.715328, 63.208736)">
                            <mask id="hbyqc2wamR" fill="#fff">
                                <use xlink:href="#lo2zl5el0Q"/>
                            </mask>
                            <path fill="#FFF" d="M-6.248 7.812L7.511 7.812 7.511 -5.678 -6.248 -5.678z" mask="url(#hbyqc2wamR)"/>
                        </g>
                        <g transform="translate(-1121.000000, -4357.000000) translate(1121.000000, 4357.000000) translate(74.503650, 92.356625)">
                            <mask id="4p7ipw9k9T" fill="#fff">
                                <use xlink:href="#p62nar85gS"/>
                            </mask>
                            <path fill="#F26A61" d="M-6.314 14.375L37.883 14.375 37.883 -5.902 -6.314 -5.902z" mask="url(#4p7ipw9k9T)"/>
                        </g>
                        <g transform="translate(-1121.000000, -4357.000000) translate(1121.000000, 4357.000000) translate(74.503650, 92.356625)">
                            <mask id="icyt60eifV" fill="#fff">
                                <use xlink:href="#p8ydvccfrU"/>
                            </mask>
                            <path fill="#5C1C0E" d="M-6.314 10.573L37.883 10.573 37.883 -5.902 -6.314 -5.902z" mask="url(#icyt60eifV)"/>
                        </g>
                        <g transform="translate(-1121.000000, -4357.000000) translate(1121.000000, 4357.000000) translate(82.080292, 80.950929)">
                            <mask id="8z246o6e2X" fill="#fff">
                                <use xlink:href="#g85aikwznW"/>
                            </mask>
                            <path fill="#E49273" d="M-6.314 13.108L21.467 13.108 21.467 -5.902 -6.314 -5.902z" mask="url(#8z246o6e2X)"/>
                        </g>
                        <g transform="translate(-1121.000000, -4357.000000) translate(1121.000000, 4357.000000) translate(56.824818, 20.120554)">
                            <mask id="lirhisdzuZ" fill="#fff">
                                <use xlink:href="#iqeqylr89Y"/>
                            </mask>
                            <path fill="#F9A984" d="M-6.314 87.878L73.241 87.878 73.241 -5.902 -6.314 -5.902z" mask="url(#lirhisdzuZ)"/>
                        </g>
                        <g transform="translate(-1121.000000, -4357.000000) translate(1121.000000, 4357.000000) translate(25.255474, 4.912960)">
                            <mask id="woutijlweab" fill="#fff">
                                <use xlink:href="#5yvrjijcaaa"/>
                            </mask>
                            <path fill="#633E35" d="M-6.314 134.768L131.328 134.768 131.328 -5.902 -6.314 -5.902z" mask="url(#woutijlweab)"/>
                        </g>
                        <g transform="translate(-1121.000000, -4357.000000) translate(1121.000000, 4357.000000) translate(98.496350, 9.982158)">
                            <mask id="qclwgciw6ad" fill="#fff">
                                <use xlink:href="#eo3zvys6bac"/>
                            </mask>
                            <path fill="#633E35" d="M-6.314 11.84L29.044 11.84 29.044 -5.902 -6.314 -5.902z" mask="url(#qclwgciw6ad)"/>
                        </g>
                        <g>
                            <path fill="#231F20" d="M118.524 18.62c-1.166 2.082-3.205 2.905-5.545 3.173-1 .114-6.813-.059-8.662-.415-3.251-.624-5.682-2.421-7.341-5.135-1.493-2.437-2.472-5.042-2.746-7.872-.315-3.26.927-5.298 4.188-6.335 1.586-.505 3.285-.814 4.954-.934 4.021-.293 8.017-.057 11.968.859 3.315.768 5.104 2.695 5.503 5.893.481 3.838-.434 7.406-2.32 10.767M86.364 8.1c-.332 3.765-1.684 7.17-4.234 10.08-1.852 2.115-4.392 3.092-7.196 3.466-1.424.188-6.896.41-8.397.114-1.476-.293-3.259-1.315-4.05-2.555-2.453-3.835-3.473-7.953-2.517-12.428.49-2.281 1.891-3.745 4.207-4.492 2.372-.762 4.818-1.07 7.293-1.209 3.11-.172 6.22-.2 9.276.512.611.142 1.219.327 1.797.558 2.89 1.142 4.081 2.987 3.821 5.954m36.606-1.778c-.924-.915-2.046-1.676-2.837-2.678-.945-1.199-2.13-1.88-3.587-2.23C111.402.188 106.19-.338 100.91.32c-2.67.332-5.245 1.04-7.014 3.17-1.004 1.21-2.102 1.805-3.8 1.714-1.267-.069-2.23-.302-3.007-1.29-1.235-1.577-2.92-2.54-4.903-3.085-2.258-.62-4.571-.773-7.281-.821-1.134.077-2.648.26-4.158.303-2.32.067-4.647.483-7.287 1.292-1.148.354-2.106.912-2.862 1.881-.728.938-1.603 1.829-2.585 2.514-.925.647-1.258 1.373-1.177 2.387.038.453-.038.924.055 1.365.05.238.34.6.537.608.8.038.971.473 1.073 1.114.324 2.052.841 4.06 1.804 5.933 1.563 3.033 3.95 5.045 7.63 5.293 1.684.112 3.386.15 5.074.076 2.482-.108 4.94-.454 7.244-1.392.726-.298 1.457-.712 2.01-1.24 2.395-2.275 3.92-5.036 4.823-8.13.28-.97.616-1.93.993-2.87.385-.963 1.206-1.25 2.25-1.244 1.02.005 1.79.322 2.175 1.243.288.691.525 1.402.745 2.115.92 2.976 2.109 5.802 4.32 8.176 1.086 1.163 2.353 1.935 3.894 2.363 3.87 1.072 7.813 1.288 11.794.84 2.867-.32 4.904-1.875 6.387-4.166 1.39-2.152 2.028-4.544 2.436-7 .108-.66.3-1.063 1.073-1.106.193-.009.511-.294.525-.47.063-.79.124-1.594.013-2.375-.062-.425-.393-.868-.722-1.195" transform="translate(-1121.000000, -4357.000000) translate(1121.000000, 4357.000000) translate(0.000000, 56.872239)"/>
                            <path stroke="#000" stroke-width=".5" d="M118.524 18.62c-1.166 2.082-3.205 2.905-5.545 3.173-1 .114-6.813-.059-8.662-.415-3.251-.624-5.682-2.421-7.341-5.135-1.493-2.437-2.472-5.042-2.746-7.872-.315-3.26.927-5.298 4.188-6.335 1.586-.505 3.285-.814 4.954-.934 4.021-.293 8.017-.057 11.968.859 3.315.768 5.104 2.695 5.503 5.893.481 3.838-.434 7.406-2.32 10.767zM86.364 8.1c-.333 3.766-1.685 7.171-4.235 10.08-1.852 2.116-4.392 3.093-7.196 3.467-1.424.188-6.896.41-8.397.114-1.476-.293-3.259-1.315-4.05-2.555-2.453-3.835-3.473-7.953-2.517-12.428.49-2.281 1.891-3.745 4.207-4.492 2.372-.762 4.818-1.07 7.293-1.209 3.11-.172 6.22-.2 9.276.512.611.142 1.219.327 1.797.558 2.89 1.142 4.081 2.987 3.821 5.954zm36.605-1.777c-.924-.915-2.046-1.676-2.837-2.678-.945-1.199-2.13-1.88-3.587-2.23C111.402.188 106.19-.338 100.91.32c-2.67.332-5.245 1.04-7.014 3.17-1.004 1.21-2.102 1.805-3.8 1.714-1.267-.069-2.23-.302-3.007-1.29-1.235-1.577-2.92-2.54-4.903-3.085-2.258-.62-4.571-.773-7.281-.821-1.134.077-2.648.26-4.158.303-2.32.067-4.647.483-7.287 1.292-1.148.354-2.106.912-2.862 1.881-.728.938-1.603 1.829-2.585 2.514-.925.647-1.258 1.373-1.177 2.387.038.453-.038.924.055 1.365.05.238.34.6.537.608.8.038.971.473 1.073 1.114.324 2.052.841 4.06 1.804 5.933 1.563 3.033 3.95 5.045 7.63 5.293 1.684.112 3.386.15 5.074.076 2.482-.108 4.94-.454 7.244-1.392.726-.298 1.457-.712 2.01-1.24 2.395-2.275 3.92-5.036 4.823-8.13.28-.97.616-1.93.993-2.87.385-.963 1.206-1.25 2.25-1.244 1.02.005 1.79.322 2.175 1.243.288.691.525 1.402.745 2.115.92 2.976 2.109 5.802 4.32 8.176 1.086 1.163 2.353 1.935 3.894 2.363 3.87 1.072 7.813 1.288 11.794.84 2.867-.32 4.904-1.875 6.387-4.166 1.39-2.152 2.028-4.544 2.436-7 .108-.66.3-1.063 1.073-1.106.193-.009.511-.294.525-.47.063-.79.124-1.594.013-2.375-.062-.425-.393-.868-.722-1.195z" transform="translate(-1121.000000, -4357.000000) translate(1121.000000, 4357.000000) translate(0.000000, 56.872239)"/>
                            <path fill="#0A6190" d="M0 142.327S17.236 85.77 18.486 82.964c1.248-2.806 5.744-3.055 5.744-3.055s0-3.51 10.74-5.515c10.741-2.007 28.976-5.265 28.976-5.265l-9.405 47.63 20.942-10.528 46.093-42.345s29.295 17.275 35.038 20.536c5.746 3.258 12.99 9.023 12.99 9.023s3.497 4.01 3.247 10.028c-.249 6.016-9.32 41.309-9.32 41.309L0 142.327z" transform="translate(-1121.000000, -4357.000000) translate(1121.000000, 4357.000000) translate(0.000000, 56.872239)"/>
                            <path fill="#229BDC" d="M53.895 142.882L54.73 120.267 69.935 112.746 95.25 90.931 115.545 65.144 123.752 80.847 123.752 91.318 110.061 90.662 123.752 101.234 58.022 143.198z" transform="translate(-1121.000000, -4357.000000) translate(1121.000000, 4357.000000) translate(0.000000, 56.872239)"/>
                            <path fill="#FFF" d="M53.099 120.267l4.922-7.521 28.323-23.814s15.91-21.826 17.961-25.415c2.052-3.589 5.685-13.935 5.685-13.935s13.254 13.668 14.782 16.749c1.53 3.083.708 8.709.708 8.709s.766 5.923 1.307 9.086c.54 3.163 1.573 7.997 1.573 7.997s-13.726-6.36-16.434-10.843-5.468-2.48-5.468-2.48-22.666 25.915-32.425 31.666c-9.759 5.75-20.934 9.801-20.934 9.801" transform="translate(-1121.000000, -4357.000000) translate(1121.000000, 4357.000000) translate(0.000000, 56.872239)"/>
                            <path fill="#229BDC" d="M42.49 142.895L31.57 122.022 31.57 115.44 31.57 97.905 48.832 101.021 40.204 94.6 53.098 80.87 58.022 95.62 58.022 107.323 53.098 121.894 52.38 143.017z" transform="translate(-1121.000000, -4357.000000) translate(1121.000000, 4357.000000) translate(0.000000, 56.872239)"/>
                            <path fill="#FFF" d="M74.026 54.067S62.173 69.417 57.439 72.34c-4.735 2.925-23.673 12.061-23.673 12.061l16.026-2.192s7.415 10.783 7.415 16.265c0 5.483-3.311 21.495-3.311 21.495s9.855-21.312 11.252-28.257c1.396-6.943-.328-10.791-.328-10.791l6.708-4.45 2.498-9.576v-12.83z" transform="translate(-1121.000000, -4357.000000) translate(1121.000000, 4357.000000) translate(0.000000, 56.872239)"/>
                            <path fill="#094C71" d="M53.836 143.017L66.396 114.544 53.72 119.318 53.071 122.245 52.38 143.017z" transform="translate(-1121.000000, -4357.000000) translate(1121.000000, 4357.000000) translate(0.000000, 56.872239)"/>
                        </g>
                    </g>
                </g>
            </g>
        </g>
    </g>
</svg>
