<svg xmlns="http://www.w3.org/2000/svg" width="150.877" height="70.119" viewBox="0 0 150.877 70.119">
    <defs>
        <style>
            .cls-1{fill:#fff;fill-rule:evenodd}
        </style>
    </defs>
    <g id="dashboard_overview" transform="translate(-22.388 -34.632)">
        <g id="gauge" transform="translate(36.047 36.079)">
            <g id="inner-gauge" transform="translate(23.462 21.837)">
                <path id="pointer" d="M24.246 47.3V28.577a2.781 2.781 0 1 1 5.563 0V47.3a2.781 2.781 0 1 1-5.563 0z" class="cls-1" transform="translate(11.25 -8.698)"/>
                <path id="center" d="M31.154 28.47a7.879 7.879 0 1 0 7.876 7.882 7.888 7.888 0 0 0-7.876-7.882z" class="cls-1" transform="translate(7.136 2.607)"/>
                <path id="dots" d="M82.487 63.9l-.3-5.547 11.553-.622.292 5.547zM29 63.86l-11.55-.548.256-5.547 11.548.543zm51.225-13.81l-2.883-4.75 9.892-6.012 2.878 4.748zm-49.049-.02L21.3 43.981l2.9-4.742 9.866 6.043zM71.268 39.2l-4.753-2.878 6.017-9.892 4.742 2.883zm-31.093-.01l-6.011-9.89 4.748-2.883 6.012 9.892zm13.094-4.821l-.622-11.548 5.547-.3.622 11.553z" class="cls-1" transform="translate(-17.45 -22.52)"/>
            </g>
            <path id="outter" d="M74.731 18.339A61.785 61.785 0 0 1 136.482 80.1h-5.557a56.207 56.207 0 0 0-112.415 0h-5.552a61.776 61.776 0 0 1 61.773-61.761zm0 11.1A50.669 50.669 0 0 1 125.389 80.1h-5.557a45.109 45.109 0 0 0-90.217 0h-5.553a50.671 50.671 0 0 1 50.669-50.657z" class="cls-1" transform="translate(-12.958 -18.339)"/>
        </g>
        <path id="grid" d="M10.353 82.613V76.56h6.053v6.053zm144.792 0V76.56h6.064v6.053zM10.353 72.945V66.9H16.4v6.043zm144.8 0V66.9h6.053v6.043zm-144.8-9.673v-6.043H16.4v6.043zm144.8 0v-6.043h6.053v6.043zm-144.8-9.657v-6.053H16.4v6.053zm144.8 0v-6.053h6.053v6.053zm-144.81-9.663V37.9H16.4v6.053zm10.368 0V37.9h6.048v6.053zm124.094 0V37.9h6.043v6.053zm10.352 0V37.9h6.064v6.053zM10.353 33.783v-6.064h6.053v6.064zm10.368 0v-6.064h6.048v6.064zm10.357 0v-6.064h6.048v6.064zm103.348 0v-6.064h6.048v6.064zm10.368 0v-6.064h6.043v6.064zm10.352 0v-6.064h6.064v6.064zM10.353 24.11v-6.048h6.053v6.048zm10.368 0v-6.048h6.048v6.048zm10.357 0v-6.048h6.048v6.048zm10.347 0v-6.048h6.059v6.048zm82.649 0v-6.048h6.059v6.048zm10.352 0v-6.048h6.048v6.048zm10.368 0v-6.048h6.043v6.048zm10.352 0v-6.048h6.064v6.048z" class="cls-1" transform="translate(12.045 16.57)"/>
    </g>
</svg>
