<svg xmlns="http://www.w3.org/2000/svg" width="20" height="22" viewBox="0 0 20 22">
    <path fill="none" stroke="#f84f59" stroke-linecap="round" stroke-linejoin="round" stroke-width="2px" d="M1 5h2m0 0h16M3 5v14a2 2 0 0 0 2 2h10a2 2 0 0 0 2-2V5zm3 0V3a2 2 0 0 1 2-2h4a2 2 0 0 1 2 2v2m-6 5v6m4-6v6"/>
</svg>
