<svg xmlns="http://www.w3.org/2000/svg" width="70.738" height="49.896" viewBox="0 0 70.738 49.896">
    <defs>
        <style>
            .cls-3,.cls-4{fill:#fff}.cls-4{font-size:16px;font-family:OpenSans-ExtraBold,Open Sans;font-weight:800;letter-spacing:.1em}
        </style>
    </defs>
    <g id="Group_776" transform="translate(-401 -189)">
        <g id="Group_777" transform="translate(401 189)">
            <path id="Path_536" fill="none" stroke="#f84f59" stroke-linecap="round" stroke-width="3px" d="M-230.537-361.323l-18.259-13.19h-22.316L-291.4-394.8" transform="translate(299.008 400.378)"/>
            <path id="Path_537" fill="none" stroke="#f84f59" stroke-width="3px" d="M0 11.045h12.325V0" transform="rotate(-10 206.432 -298.35)"/>
            <ellipse id="Ellipse_84" cx="3.5" cy="4" class="cls-3" rx="3.5" ry="4" transform="translate(3)"/>
            <ellipse id="Ellipse_85" cx="4" cy="3.5" class="cls-3" rx="4" ry="3.5" transform="translate(25 23)"/>
            <circle id="Ellipse_86" cx="3.5" cy="3.5" r="3.5" class="cls-3" transform="translate(46 23)"/>
            <text id="a" class="cls-4" transform="translate(0 22)">
                <tspan x="0" y="0">a</tspan>
            </text>
            <text id="b" class="cls-4" transform="translate(26.628 17)">
                <tspan x="0" y="0">b</tspan>
            </text>
            <text id="c" class="cls-4" transform="translate(41.843 44.896)">
                <tspan x="0" y="0">c</tspan>
            </text>
        </g>
    </g>
</svg>
