<svg xmlns="http://www.w3.org/2000/svg" width="11" height="8" viewBox="0 0 11 8">
    <g fill="none" fill-rule="evenodd">
        <g fill="#FC4C4C">
            <g>
                <g>
                    <g>
                        <path d="M0 8L5.5 0 11 8z" transform="translate(-1016.000000, -780.000000) translate(822.000000, 755.000000) translate(24.000000, 0.000000) translate(170.000000, 25.000000) translate(5.500000, 4.000000) rotate(-180.000000) translate(-5.500000, -4.000000)"/>
                    </g>
                </g>
            </g>
        </g>
    </g>
</svg>
