<svg xmlns="http://www.w3.org/2000/svg" width="116" height="32" viewBox="0 0 116 32">
    <g fill="none" fill-rule="evenodd">
        <g>
            <g>
                <g>
                    <g>
                        <path fill="#454871" fill-rule="nonzero" d="M115.448-.374l-2.598 9.72-2.995-2.652-20.933 23.637-.26.295-.349-.184L46.391 8.168.72 30.948l-.447-.895L46.175 7.159l.23-.115.228.12 41.801 22.209 20.672-23.342-2.994-2.651 9.336-3.754z" transform="translate(-319.000000, -349.000000) translate(281.000000, 211.000000) translate(24.000000, 94.000000) translate(14.000000, 45.000000)"/>
                        <path fill="#0FAA14" d="M0 27H4V31H0z" transform="translate(-319.000000, -349.000000) translate(281.000000, 211.000000) translate(24.000000, 94.000000) translate(14.000000, 45.000000)"/>
                        <path fill="#FF6969" d="M45 6H49V10H45z" transform="translate(-319.000000, -349.000000) translate(281.000000, 211.000000) translate(24.000000, 94.000000) translate(14.000000, 45.000000)"/>
                        <path fill="#0083CA" d="M94 20H98V24H94z" transform="translate(-319.000000, -349.000000) translate(281.000000, 211.000000) translate(24.000000, 94.000000) translate(14.000000, 45.000000)"/>
                    </g>
                </g>
            </g>
        </g>
    </g>
</svg>
