<svg xmlns="http://www.w3.org/2000/svg" width="28.629" height="28.629" viewBox="0 0 28.629 28.629">
    <defs>
        <style>
            .cls-1{fill:#f84f59;stroke:#f84f59}.cls-2{stroke:none}.cls-3{fill:none}
        </style>
    </defs>
    <g id="Group_618" transform="translate(-4368.735 51.264)">
        <g id="Rectangle_249" class="cls-1">
            <path d="M0 0H3.579V28.629H0z" class="cls-2" transform="translate(4381.263 -51.264)"/>
            <path d="M0.5 0.5H3.079V28.129H0.5z" class="cls-3" transform="translate(4381.263 -51.264)"/>
        </g>
        <g id="Rectangle_250" class="cls-1">
            <path d="M0 0H3.579V28.629H0z" class="cls-2" transform="rotate(90 2218.052 2179.313)"/>
            <path d="M0.5 0.5H3.079V28.129H0.5z" class="cls-3" transform="rotate(90 2218.052 2179.313)"/>
        </g>
    </g>
</svg>
