<svg xmlns="http://www.w3.org/2000/svg" width="551.001" height="273.48" viewBox="0 0 551.001 273.48">
    <defs>
        <style>
            .cls-2{fill:#4565db}
        </style>
    </defs>
    <g id="Group_619" opacity="0.3" transform="rotate(-180 316.869 105.827)">
        <g id="Group_65" transform="translate(82.736 -51.519)">
            <path id="Rectangle_192" d="M0 0H11.265V11.265H0z" class="cls-2" transform="rotate(-45 245.406 101.488)"/>
            <path id="Rectangle_193" d="M0 0H14.802V14.802H0z" class="cls-2" transform="rotate(-45 218.28 -46.455)"/>
            <path id="Rectangle_194" d="M0 0H8.878V8.878H0z" class="cls-2" transform="rotate(-37 22.501 -40.728)"/>
            <path id="Rectangle_195" d="M0 0H5.247V5.247H0z" class="cls-2" transform="rotate(-45 385.76 -52.295)"/>
            <g id="Group_58" transform="translate(516.452 7.61)">
                <path id="Rectangle_197" d="M0 0H12.1V12.1H0z" class="cls-2" transform="rotate(-45 10.328 4.278)"/>
            </g>
            <g id="Group_59" transform="translate(446.879 203.067)">
                <path id="Rectangle_198" d="M0 0H30.481V30.481H0z" class="cls-2" transform="rotate(-45 26.017 10.777)"/>
            </g>
            <g id="Group_339" transform="translate(7.795 106.134)">
                <path id="Rectangle_198-2" d="M0 0H30.481V30.481H0z" class="cls-2" transform="rotate(-45 26.017 10.777)"/>
            </g>
            <g id="Group_60" transform="translate(525.008 160.452)">
                <path id="Rectangle_199" d="M0 0H18.38V18.38H0z" class="cls-2" transform="rotate(-45 15.689 6.502)"/>
            </g>
            <g id="Group_61" transform="translate(0 65.996)">
                <path id="Rectangle_200" d="M0 0H11.261V11.261H0z" class="cls-2" transform="rotate(-45 9.612 3.982)"/>
            </g>
            <g id="Group_62" transform="rotate(8 47.376 1039.92)">
                <path id="Rectangle_201" d="M0 0H11.231V11.231H0z" class="cls-2" transform="rotate(-45 9.587 3.971)"/>
                <path id="Path_67" d="M15.883 7.942L7.942 0 0 7.942z" class="cls-2"/>
            </g>
            <g id="Group_63" transform="translate(502.202 99.044)">
                <path id="Rectangle_202" d="M0 0H10.279V10.279H0z" class="cls-2" transform="rotate(-45 8.773 3.634)"/>
            </g>
            <path id="Path_69" d="M1021.485 1302.8l-15.951 15.951-15.95-15.951z" class="cls-2" transform="translate(-733.957 -1055.575)"/>
            <g id="Group_64" transform="translate(57.276 242.056)">
                <path id="Rectangle_203" d="M0 0H13.383V13.383H0z" class="cls-2" transform="rotate(-45 11.423 4.731)"/>
            </g>
            <path id="Rectangle_303" d="M0 0H12.401V12.401H0z" class="cls-2" transform="rotate(-37 194.678 -494.157)"/>
        </g>
        <path id="Rectangle_205" d="M0 0H33.1V33.1H0z" class="cls-2" transform="rotate(-45 203.692 -622.931)"/>
    </g>
</svg>
