<svg xmlns="http://www.w3.org/2000/svg" width="76.8" height="105.75" viewBox="0 0 76.8 105.75">
    <defs>
        <filter id="Path_526" width="68.239" height="65.25" x="5.5" y="0" filterUnits="userSpaceOnUse">
            <feOffset dy="10"/>
            <feGaussianBlur result="blur" stdDeviation="1"/>
            <feFlood/>
            <feComposite in2="blur" operator="in"/>
            <feComposite in="SourceGraphic"/>
        </filter>
        <filter id="Path_527" width="76.8" height="49.9" x="0" y="55.85" filterUnits="userSpaceOnUse">
            <feOffset dy="10"/>
            <feGaussianBlur result="blur-2" stdDeviation="1"/>
            <feFlood/>
            <feComposite in2="blur-2" operator="in"/>
            <feComposite in="SourceGraphic"/>
        </filter>
        <style>
            .cls-1{fill:#e8e828}
        </style>
    </defs>
    <g id="iconfinder_Tilda_Icons_1ed_teacher_3586376">
        <g filter="url(#Path_526)" transform="translate(-11 -3.95) translate(11 3.95)">
            <path id="Path_526-2" d="M20.4 19.3L32 24.4a20.168 20.168 0 0 0-3.5 11.4 20.4 20.4 0 1 0 37.4-11.3l10.2-4.8v19.4L73 45.7a1.392 1.392 0 0 0 .1 1.4 1.709 1.709 0 0 0 1.3.7h5.9a1.213 1.213 0 0 0 1.2-.7 1.392 1.392 0 0 0 .1-1.4l-2.7-6.6V18.4c0-.8-.1-1.4-1.5-2-.3-.1-27.8-12.3-27.8-12.3a1.275 1.275 0 0 0-1.2 0l-28 12.4a1.568 1.568 0 0 0-.9 1.4 1.508 1.508 0 0 0 .9 1.4zm45.8 16.5a17.4 17.4 0 0 1-34.8 0 17.722 17.722 0 0 1 3.3-10.2l13.6 6.1a1.85 1.85 0 0 0 1.2 0l13.4-6a16.95 16.95 0 0 1 3.3 10.1zm10.5 9l.7-1.5.6 1.5zM49 7.1l24.3 10.8L49 28.7 24.7 17.9z" class="cls-1" transform="translate(-11 -3.95)"/>
        </g>
        <g filter="url(#Path_527)" transform="translate(-11 -3.95) translate(11 3.95)">
            <path id="Path_527-2" d="M49.4 59.8A35.465 35.465 0 0 0 14 95.2a1.538 1.538 0 0 0 1.5 1.5h67.8a1.538 1.538 0 0 0 1.5-1.5 35.465 35.465 0 0 0-35.4-35.4zM17.1 93.7a32.384 32.384 0 0 1 64.7 0z" class="cls-1" transform="translate(-11 -3.95)"/>
        </g>
    </g>
</svg>
