<svg xmlns="http://www.w3.org/2000/svg" width="43.436" height="42.268" viewBox="0 0 43.436 42.268">
    <defs>
        <filter id="Path_114" width="43.436" height="42.268" x="0" y="0" filterUnits="userSpaceOnUse">
            <feOffset dy="3"/>
            <feGaussianBlur result="blur" stdDeviation="2"/>
            <feFlood flood-opacity=".161"/>
            <feComposite in2="blur" operator="in"/>
            <feComposite in="SourceGraphic"/>
        </filter>
        <style>
            .cls-3{fill:#fff}.cls-4,.cls-6{stroke:none}.cls-6{fill:#e8e828}
        </style>
    </defs>
    <g id="Group_613" transform="translate(-1155.273 -77)">
        <g id="Group_426" transform="translate(1153.5 73)">
            <g filter="url(#Path_114)" transform="translate(1.77 4)">
                <path id="Path_114-2" fill="#ffff57" d="M11 0h31.436v30.268H11z" transform="translate(-5 3)"/>
            </g>
            <g id="Group_425" transform="translate(19.772 14.634)">
                <g id="Group_424" transform="translate(-4 .366)">
                    <g id="Ellipse_68" fill="#25273e" stroke="#e8e828">
                        <circle cx="7.5" cy="7.5" r="7.5" class="cls-4"/>
                        <circle cx="7.5" cy="7.5" r="7" fill="none"/>
                    </g>
                    <g id="Path_267" class="cls-3">
                        <path d="M.5 6.5v-6 6z" class="cls-4" transform="rotate(90 2 9)"/>
                        <path d="M0 0h1v7H0V0z" class="cls-6" transform="rotate(90 2 9)"/>
                    </g>
                    <g id="Path_268" class="cls-3">
                        <path d="M.574 6.441H.5V.5h.074v5.941z" class="cls-4" transform="rotate(180 4.037 5.47)"/>
                        <path d="M0 0h1.074v6.941H0V0z" class="cls-6" transform="rotate(180 4.037 5.47)"/>
                    </g>
                </g>
            </g>
        </g>
    </g>
</svg>
