<svg xmlns="http://www.w3.org/2000/svg" width="138.216" height="143.633" viewBox="0 0 138.216 143.633">
    <defs>
        <filter id="Path_487" width="8.639" height="16.238" x="15.783" y="64.946" filterUnits="userSpaceOnUse">
            <feOffset dy="10"/>
            <feGaussianBlur result="blur" stdDeviation="1"/>
            <feFlood/>
            <feComposite in2="blur" operator="in"/>
            <feComposite in="SourceGraphic"/>
        </filter>
        <filter id="Path_488" width="9.238" height="16.519" x="20.428" y="70.999" filterUnits="userSpaceOnUse">
            <feOffset dy="10"/>
            <feGaussianBlur result="blur-2" stdDeviation="1"/>
            <feFlood/>
            <feComposite in2="blur-2" operator="in"/>
            <feComposite in="SourceGraphic"/>
        </filter>
        <filter id="Path_489" width="9.66" height="17.223" x="28.874" y="82.119" filterUnits="userSpaceOnUse">
            <feOffset dy="10"/>
            <feGaussianBlur result="blur-3" stdDeviation="1"/>
            <feFlood/>
            <feComposite in2="blur-3" operator="in"/>
            <feComposite in="SourceGraphic"/>
        </filter>
        <filter id="Path_490" width="9.019" height="16.801" x="41.12" y="99.573" filterUnits="userSpaceOnUse">
            <feOffset dy="10"/>
            <feGaussianBlur result="blur-4" stdDeviation="1"/>
            <feFlood/>
            <feComposite in2="blur-4" operator="in"/>
            <feComposite in="SourceGraphic"/>
        </filter>
        <filter id="Path_491" width="8.956" height="16.238" x="37.32" y="93.943" filterUnits="userSpaceOnUse">
            <feOffset dy="10"/>
            <feGaussianBlur result="blur-5" stdDeviation="1"/>
            <feFlood/>
            <feComposite in2="blur-5" operator="in"/>
            <feComposite in="SourceGraphic"/>
        </filter>
        <filter id="Path_492" width="9.097" height="16.097" x="24.792" y="77.052" filterUnits="userSpaceOnUse">
            <feOffset dy="10"/>
            <feGaussianBlur result="blur-6" stdDeviation="1"/>
            <feFlood/>
            <feComposite in2="blur-6" operator="in"/>
            <feComposite in="SourceGraphic"/>
        </filter>
        <filter id="Path_493" width="9.238" height="16.378" x="33.238" y="88.453" filterUnits="userSpaceOnUse">
            <feOffset dy="10"/>
            <feGaussianBlur result="blur-7" stdDeviation="1"/>
            <feFlood/>
            <feComposite in2="blur-7" operator="in"/>
            <feComposite in="SourceGraphic"/>
        </filter>
        <filter id="Path_494" width="13.038" height="23.698" x="45.343" y="105.908" filterUnits="userSpaceOnUse">
            <feOffset dy="10"/>
            <feGaussianBlur result="blur-8" stdDeviation="1"/>
            <feFlood/>
            <feComposite in2="blur-8" operator="in"/>
            <feComposite in="SourceGraphic"/>
        </filter>
        <filter id="Path_495" width="138.216" height="143.633" x="0" y="0" filterUnits="userSpaceOnUse">
            <feOffset dy="10"/>
            <feGaussianBlur result="blur-9" stdDeviation="1"/>
            <feFlood/>
            <feComposite in2="blur-9" operator="in"/>
            <feComposite in="SourceGraphic"/>
        </filter>
        <filter id="Path_496" width="33.086" height="33.752" x="22.873" y="36.682" filterUnits="userSpaceOnUse">
            <feOffset dy="10"/>
            <feGaussianBlur result="blur-10" stdDeviation="1"/>
            <feFlood/>
            <feComposite in2="blur-10" operator="in"/>
            <feComposite in="SourceGraphic"/>
        </filter>
        <filter id="Path_497" width="32.38" height="34.583" x="27.144" y="42.688" filterUnits="userSpaceOnUse">
            <feOffset dy="10"/>
            <feGaussianBlur result="blur-11" stdDeviation="1"/>
            <feFlood/>
            <feComposite in2="blur-11" operator="in"/>
            <feComposite in="SourceGraphic"/>
        </filter>
        <filter id="Path_498" width="34.528" height="34.912" x="32.276" y="48.078" filterUnits="userSpaceOnUse">
            <feOffset dy="10"/>
            <feGaussianBlur result="blur-12" stdDeviation="1"/>
            <feFlood/>
            <feComposite in2="blur-12" operator="in"/>
            <feComposite in="SourceGraphic"/>
        </filter>
        <filter id="Path_499" width="34.749" height="34.993" x="36.869" y="54.524" filterUnits="userSpaceOnUse">
            <feOffset dy="10"/>
            <feGaussianBlur result="blur-13" stdDeviation="1"/>
            <feFlood/>
            <feComposite in2="blur-13" operator="in"/>
            <feComposite in="SourceGraphic"/>
        </filter>
        <filter id="Path_500" width="33.825" height="34.631" x="42.72" y="60.295" filterUnits="userSpaceOnUse">
            <feOffset dy="10"/>
            <feGaussianBlur result="blur-14" stdDeviation="1"/>
            <feFlood/>
            <feComposite in2="blur-14" operator="in"/>
            <feComposite in="SourceGraphic"/>
        </filter>
        <filter id="Path_501" width="63.095" height="55.112" x="51.005" y="49.767" filterUnits="userSpaceOnUse">
            <feOffset dy="10"/>
            <feGaussianBlur result="blur-15" stdDeviation="1"/>
            <feFlood/>
            <feComposite in2="blur-15" operator="in"/>
            <feComposite in="SourceGraphic"/>
        </filter>
        <filter id="Path_502" width="25.318" height="27.515" x="57.983" y="86.759" filterUnits="userSpaceOnUse">
            <feOffset dy="10"/>
            <feGaussianBlur result="blur-16" stdDeviation="1"/>
            <feFlood/>
            <feComposite in2="blur-16" operator="in"/>
            <feComposite in="SourceGraphic"/>
        </filter>
        <filter id="Path_503" width="26.973" height="28.079" x="60.658" y="92.958" filterUnits="userSpaceOnUse">
            <feOffset dy="10"/>
            <feGaussianBlur result="blur-17" stdDeviation="1"/>
            <feFlood/>
            <feComposite in2="blur-17" operator="in"/>
            <feComposite in="SourceGraphic"/>
        </filter>
        <filter id="Path_504" width="26.691" height="28.342" x="63.473" y="100.166" filterUnits="userSpaceOnUse">
            <feOffset dy="10"/>
            <feGaussianBlur result="blur-18" stdDeviation="1"/>
            <feFlood/>
            <feComposite in2="blur-18" operator="in"/>
            <feComposite in="SourceGraphic"/>
        </filter>
        <filter id="Path_505" width="22.327" height="25.104" x="79.942" y="72.013" filterUnits="userSpaceOnUse">
            <feOffset dy="10"/>
            <feGaussianBlur result="blur-19" stdDeviation="1"/>
            <feFlood/>
            <feComposite in2="blur-19" operator="in"/>
            <feComposite in="SourceGraphic"/>
        </filter>
        <filter id="Path_506" width="22.562" height="25.902" x="83.701" y="78.578" filterUnits="userSpaceOnUse">
            <feOffset dy="10"/>
            <feGaussianBlur result="blur-20" stdDeviation="1"/>
            <feFlood/>
            <feComposite in2="blur-20" operator="in"/>
            <feComposite in="SourceGraphic"/>
        </filter>
        <filter id="Path_507" width="22.001" height="26.479" x="87.764" y="84.635" filterUnits="userSpaceOnUse">
            <feOffset dy="10"/>
            <feGaussianBlur result="blur-21" stdDeviation="1"/>
            <feFlood/>
            <feComposite in2="blur-21" operator="in"/>
            <feComposite in="SourceGraphic"/>
        </filter>
        <filter id="Path_508" width="19.789" height="24.355" x="99.941" y="59.057" filterUnits="userSpaceOnUse">
            <feOffset dy="10"/>
            <feGaussianBlur result="blur-22" stdDeviation="1"/>
            <feFlood/>
            <feComposite in2="blur-22" operator="in"/>
            <feComposite in="SourceGraphic"/>
        </filter>
        <filter id="Path_509" width="20.891" height="25.341" x="102.95" y="64.941" filterUnits="userSpaceOnUse">
            <feOffset dy="10"/>
            <feGaussianBlur result="blur-23" stdDeviation="1"/>
            <feFlood/>
            <feComposite in2="blur-23" operator="in"/>
            <feComposite in="SourceGraphic"/>
        </filter>
        <filter id="Path_510" width="21.035" height="25.243" x="106.429" y="71.171" filterUnits="userSpaceOnUse">
            <feOffset dy="10"/>
            <feGaussianBlur result="blur-24" stdDeviation="1"/>
            <feFlood/>
            <feComposite in2="blur-24" operator="in"/>
            <feComposite in="SourceGraphic"/>
        </filter>
        <filter id="Path_511" width="6" height="13" x="81.941" y="15.257" filterUnits="userSpaceOnUse">
            <feOffset dy="10"/>
            <feGaussianBlur result="blur-25" stdDeviation="1"/>
            <feFlood/>
            <feComposite in2="blur-25" operator="in"/>
            <feComposite in="SourceGraphic"/>
        </filter>
        <filter id="Path_512" width="6" height="13" x="76.592" y="27.644" filterUnits="userSpaceOnUse">
            <feOffset dy="10"/>
            <feGaussianBlur result="blur-26" stdDeviation="1"/>
            <feFlood/>
            <feComposite in2="blur-26" operator="in"/>
            <feComposite in="SourceGraphic"/>
        </filter>
        <filter id="Path_513" width="53.503" height="58.911" x="54.896" y="15.257" filterUnits="userSpaceOnUse">
            <feOffset dy="10"/>
            <feGaussianBlur result="blur-27" stdDeviation="1"/>
            <feFlood/>
            <feComposite in2="blur-27" operator="in"/>
            <feComposite in="SourceGraphic"/>
        </filter>
        <style>
            .cls-1{fill:none}.cls-2{fill:#e8e828}
        </style>
    </defs>
    <g id="line_copy">
        <g filter="url(#Path_487)" transform="translate(3) translate(-3)">
            <path id="Path_487-2" d="M16.634 54c-.845-1.126-1.689-2.111-2.534-3.1l2.252 3.238c.141 0 .282 0 .282-.138z" class="cls-1" transform="translate(4.68 14.05)"/>
        </g>
        <g filter="url(#Path_488)" transform="translate(3) translate(-3)">
            <path id="Path_488-2" d="M20.638 58.156L18.1 55.2a1.405 1.405 0 0 1-.7.563l2.111 2.956a8.357 8.357 0 0 1 1.127-.563z" class="cls-1" transform="translate(6.03 15.8)"/>
        </g>
        <g filter="url(#Path_489)" transform="translate(3) translate(-3)">
            <path id="Path_489-2" d="M27.06 66.2c-.7-.985-1.548-2.111-2.252-3.1a1.405 1.405 0 0 1-.563.7l-.845.7 1.971 2.815A11.742 11.742 0 0 1 27.06 66.2z" class="cls-1" transform="translate(8.47 19.02)"/>
        </g>
        <g filter="url(#Path_490)" transform="translate(3) translate(-3)">
            <path id="Path_490-2" d="M35.056 78.456c0-.141.141-.141 0 0a31.627 31.627 0 0 0-1.689-2.956 9.107 9.107 0 0 1-1.267 1.126l1.971 2.674c.281-.281.563-.7.985-.844z" class="cls-1" transform="translate(12.02 24.07)"/>
        </g>
        <g filter="url(#Path_491)" transform="translate(3) translate(-3)">
            <path id="Path_491-2" d="M31.793 74.034c.141-.141.422-.282.563-.422-.422-.7-.985-1.408-1.408-2.111-.141.141-.141.141-.282.141-.422.282-.845.7-1.267.985l1.548 2.111a5.36 5.36 0 0 1 .846-.704z" class="cls-1" transform="translate(10.92 22.44)"/>
        </g>
        <g filter="url(#Path_492)" transform="translate(3) translate(-3)">
            <path id="Path_492-2" d="M22.611 62.174a1.278 1.278 0 0 1 .985-.422 25.7 25.7 0 0 0-1.83-2.252l-.422.422-.845.422 1.549 2.256z" class="cls-1" transform="translate(7.29 17.55)"/>
        </g>
        <g filter="url(#Path_493)" transform="translate(3) translate(-3)">
            <path id="Path_493-2" d="M29.456 69.993c.141 0 .141-.141.282-.141-.563-.7-.985-1.408-1.548-2.252-.563.422-1.126.7-1.689 1.126l1.548 2.252a8.543 8.543 0 0 1 1.407-.985z" class="cls-1" transform="translate(9.74 20.85)"/>
        </g>
        <g filter="url(#Path_494)" transform="translate(3) translate(-3)">
            <path id="Path_494-2" d="M39.323 85.49c-1.126-1.83-2.111-3.8-3.238-5.49-.282.282-.7.563-.985.845l7.038 9.855c-.985-1.691-1.83-3.38-2.815-5.21z" class="cls-1" transform="translate(13.24 25.91)"/>
        </g>
        <g filter="url(#Path_495)" transform="translate(3) translate(-3)">
            <path id="Path_495-2" d="M133.954 68.3c-2.111-4.645-11.261-23.93-30.4-47.014-2.956-3.66-7.038-8.3-11.965-13.513a9.652 9.652 0 0 0-12.109-1.55l.985 1.83-1.126-1.689c-13.513 8.3-27.449 17.6-41.666 28.012-7.883 5.63-15.343 11.261-22.522 16.891A9.561 9.561 0 0 0 13.462 64.5l-7.6 6.334a8.414 8.414 0 0 0-1.127 11.682 384.858 384.858 0 0 0 47.015 47.578 33.065 33.065 0 0 0 4.5 3.238 13.111 13.111 0 0 0 5.63 1.689h.141c.141.141.282.141.422.282a2.354 2.354 0 0 0 1.689-.141 306.98 306.98 0 0 0 56.45-40.262c3.519-3.1 6.757-6.194 9.853-9.29a14.883 14.883 0 0 0 4.5-10.839 10.386 10.386 0 0 0-.985-6.475zM81.591 9.743a5.742 5.742 0 0 1 7.038.845C93.556 15.8 97.5 20.3 100.453 23.819c18.721 22.663 27.73 41.666 29.842 46.029v.141a10.01 10.01 0 0 1 .985 4.5 11.21 11.21 0 0 1-3.378 7.883c-3.1 3.1-6.334 6.194-9.713 9.15a286.548 286.548 0 0 1-53.912 38.85c-2.534-5.349-5.208-10.7-8.3-16.188a248.885 248.885 0 0 0-38.85-51.941 5.185 5.185 0 0 1 .141-7.46l.422-.422c7.179-5.63 14.639-11.12 22.381-16.751 14.212-10.272 28.007-19.563 41.52-27.867zM7.128 77.167a4.209 4.209 0 0 1 1.548-3.237l7.742-6.475c.7.845 1.548 1.548 2.252 2.393.845.985 1.83 1.971 2.674 2.956H21.2c-.141 0-.141.141-.282.141a23.221 23.221 0 0 0-6.053 5.067 2 2 0 1 0 3.1 2.534 19.549 19.549 0 0 1 5.208-4.364c.282-.141.422-.422.7-.563l2.534 2.956a4.938 4.938 0 0 0-1.126.7 38.413 38.413 0 0 0-6.053 4.645 1.993 1.993 0 0 0 2.674 2.956l.141-.141a25.988 25.988 0 0 1 5.49-4.223l.845-.422.422-.422a25.7 25.7 0 0 0 1.83 2.252 2.1 2.1 0 0 0-.985.422l-.422.422c-1.408 1.267-2.956 2.534-4.364 3.941a1.993 1.993 0 1 0 2.674 2.956l4.082-3.66.845-.7a1.405 1.405 0 0 0 .563-.7c.7.985 1.548 1.971 2.252 3.1a14.746 14.746 0 0 0-1.548 1.126 24.311 24.311 0 0 0-3.941 3.66 1.993 1.993 0 0 0 2.956 2.674 21.209 21.209 0 0 1 3.242-2.961 11.743 11.743 0 0 1 1.689-1.126c.563.7.985 1.408 1.548 2.252-.141 0-.141.141-.282.141-.422.282-.985.7-1.408.985a19.185 19.185 0 0 0-3.378 3.378 2 2 0 1 0 3.1 2.534 15.073 15.073 0 0 1 2.674-2.534c.422-.282.845-.7 1.267-.985.141 0 .141-.141.282-.141.422.7.985 1.408 1.408 2.111-.141.141-.422.141-.563.422a6.122 6.122 0 0 1-.985.845c-.845.7-1.83 1.548-2.674 2.111a2.03 2.03 0 0 0 2.252 3.378c.985-.7 1.83-1.408 2.815-2.111.422-.422.845-.7 1.267-1.126.563.985 1.267 1.971 1.83 2.956h-.141a9.009 9.009 0 0 0-3.238 3.66 2.078 2.078 0 0 0 3.66 1.971 7.735 7.735 0 0 1 .985-1.267 6.122 6.122 0 0 1 .985-.845c1.126 1.83 2.111 3.66 3.238 5.49.985 1.689 1.83 3.378 2.815 5.067 1.548 3.1 3.1 6.053 4.5 9.009-.422-.141-.845-.422-1.267-.563a19.008 19.008 0 0 1-3.8-2.815 366.466 366.466 0 0 1-46.45-47.014 5.239 5.239 0 0 1-.985-2.816z" class="cls-2" transform="translate(.11 -4.76)"/>
        </g>
        <g filter="url(#Path_496)" transform="translate(3) translate(-3)">
            <path id="Path_496-2" d="M19.648 50.92a2 2 0 0 0 2.815.141 124.311 124.311 0 0 1 22.663-16.469 1.983 1.983 0 0 0-1.83-3.519.138.138 0 0 0-.141.141 132.4 132.4 0 0 0-23.366 17.032 1.821 1.821 0 0 0-.141 2.674z" class="cls-2" transform="translate(6.74 5.86)"/>
        </g>
        <g filter="url(#Path_497)" transform="translate(3) translate(-3)">
            <path id="Path_497-2" d="M22.634 55.938a2.008 2.008 0 0 0 2.815.282c7.179-6.194 14.639-11.965 22.24-17.454a2.013 2.013 0 1 0-2.389-3.239c-7.742 5.63-15.343 11.542-22.522 17.736a1.945 1.945 0 0 0-.141 2.674z" class="cls-2" transform="translate(7.97 7.6)"/>
        </g>
        <g filter="url(#Path_498)" transform="translate(3) translate(-3)">
            <path id="Path_498-2" d="M53.523 42.553a2.013 2.013 0 0 0-2.393-3.238L26.638 57.192a2.013 2.013 0 1 0 2.393 3.238c8.164-5.912 16.328-11.965 24.492-17.877z" class="cls-2" transform="translate(9.46 9.16)"/>
        </g>
        <g filter="url(#Path_499)" transform="translate(3) translate(-3)">
            <path id="Path_499-2" d="M56.838 47.3a2.052 2.052 0 1 0-2.111-3.519 176.272 176.272 0 0 0-24.915 18.16 2 2 0 1 0 2.534 3.1A169.628 169.628 0 0 1 56.838 47.3z" class="cls-2" transform="translate(10.79 11.03)"/>
        </g>
        <g filter="url(#Path_500)" transform="translate(3) translate(-3)">
            <path id="Path_500-2" d="M60.071 51.4a2.052 2.052 0 1 0-2.111-3.519A156.878 156.878 0 0 0 33.889 65.76a1.993 1.993 0 0 0 2.674 2.956A168.645 168.645 0 0 1 60.071 51.4z" class="cls-2" transform="translate(12.48 12.7)"/>
        </g>
        <g filter="url(#Path_501)" transform="translate(3) translate(-3)">
            <path id="Path_501-2" d="M39.513 81.336a2.065 2.065 0 0 0 2.815.563C60.205 69.512 77.941 56.7 95.4 43.753a2.013 2.013 0 1 0-2.4-3.237C75.548 53.325 57.812 65.993 40.076 78.38a2.084 2.084 0 0 0-.563 2.956z" class="cls-2" transform="translate(14.88 9.65)"/>
        </g>
        <g filter="url(#Path_502)" transform="translate(3) translate(-3)">
            <path id="Path_502-2" d="M47.064 80.619C52.132 76.959 57.2 73.58 62.407 70.2a2.052 2.052 0 1 0-2.107-3.517c-5.208 3.378-10.416 6.9-15.484 10.557a2.008 2.008 0 0 0-.282 2.815 1.806 1.806 0 0 0 2.53.564z" class="cls-2" transform="translate(16.9 20.36)"/>
        </g>
        <g filter="url(#Path_503)" transform="translate(3) translate(-3)">
            <path id="Path_503-2" d="M49.246 85.439a107.8 107.8 0 0 1 16.61-10.7 2.058 2.058 0 0 0 .845-2.815 1.952 1.952 0 0 0-2.815-.845A105.329 105.329 0 0 0 46.712 82.2a2.008 2.008 0 0 0-.282 2.815 1.913 1.913 0 0 0 2.815.422z" class="cls-2" transform="translate(17.68 22.16)"/>
        </g>
        <g filter="url(#Path_504)" transform="translate(3) translate(-3)">
            <path id="Path_504-2" d="M65.6 76.173a105.4 105.4 0 0 0-16.888 11.542 2 2 0 1 0 2.534 3.1 97.487 97.487 0 0 1 16.328-10.982 2.078 2.078 0 1 0-1.971-3.66z" class="cls-2" transform="translate(18.49 24.24)"/>
        </g>
        <g filter="url(#Path_505)" transform="translate(3) translate(-3)">
            <path id="Path_505-2" d="M75.755 57.018a2.058 2.058 0 0 0-2.815-.845 66.714 66.714 0 0 0-12.528 8.3 2 2 0 1 0 2.534 3.1l.141-.141a66.507 66.507 0 0 1 11.823-7.881 1.721 1.721 0 0 0 .845-2.533z" class="cls-2" transform="translate(23.26 16.09)"/>
        </g>
        <g filter="url(#Path_506)" transform="translate(3) translate(-3)">
            <path id="Path_506-2" d="M77.763 64.407a2.12 2.12 0 0 0 .985-2.674 2.071 2.071 0 0 0-2.674-.985A46.715 46.715 0 0 0 62.983 69.9a2.09 2.09 0 0 0 2.956 2.956 41.285 41.285 0 0 1 11.824-8.449z" class="cls-2" transform="translate(24.35 17.99)"/>
        </g>
        <g filter="url(#Path_507)" transform="translate(3) translate(-3)">
            <path id="Path_507-2" d="M77.994 65.327A80.485 80.485 0 0 0 65.889 74.9a1.993 1.993 0 0 0 2.674 2.956l.141-.141a80.4 80.4 0 0 1 11.542-9.15 1.982 1.982 0 1 0-2.252-3.238z" class="cls-2" transform="translate(25.53 19.75)"/>
        </g>
        <g filter="url(#Path_508)" transform="translate(3) translate(-3)">
            <path id="Path_508-2" d="M74.327 57.25a2.031 2.031 0 0 0 2.815.422l9.713-7.32a2.013 2.013 0 1 0-2.393-3.238c-3.238 2.393-6.475 4.927-9.713 7.32a1.913 1.913 0 0 0-.422 2.816z" class="cls-2" transform="translate(29.05 12.34)"/>
        </g>
        <g filter="url(#Path_509)" transform="translate(3) translate(-3)">
            <path id="Path_509-2" d="M76.553 62.585a2 2 0 0 0 2.815.141A65.216 65.216 0 0 1 89.925 54.7a2.052 2.052 0 0 0-2.111-3.519 93.974 93.974 0 0 0-11.261 8.446 2.333 2.333 0 0 0 0 2.956z" class="cls-2" transform="translate(29.92 14.04)"/>
        </g>
        <g filter="url(#Path_510)" transform="translate(3) translate(-3)">
            <path id="Path_510-2" d="M79.064 66.833a2.008 2.008 0 0 0 2.815.282 84.825 84.825 0 0 1 10.7-8.023 2.03 2.03 0 1 0-2.252-3.378 108.748 108.748 0 0 0-11.12 8.3 1.873 1.873 0 0 0-.143 2.819z" class="cls-2" transform="translate(30.93 15.85)"/>
        </g>
        <g filter="url(#Path_511)" transform="translate(3) translate(-3)"/>
        <g filter="url(#Path_512)" transform="translate(3) translate(-3)"/>
        <g filter="url(#Path_513)" transform="translate(3) translate(-3)">
            <path id="Path_513-2" d="M42.468 35.166A99.281 99.281 0 0 1 59.5 60.362a2.071 2.071 0 0 0 2.674.985.138.138 0 0 0 .141-.141c9.009-5.63 17.736-11.4 26.182-17.736a2.03 2.03 0 1 0-2.252-3.378H86.1c-7.179 5.349-14.639 10.416-22.381 15.343-.282-6.053-.563-11.965-.845-18.018a77.4 77.4 0 0 0 9.713 1.548 2.05 2.05 0 0 0 2.252-1.83v-.422a128.344 128.344 0 0 0-2.956-14.639l2.393 1.689a1.991 1.991 0 0 0 2.815-.422 2.031 2.031 0 0 0-.422-2.815l-5.49-3.941c-.282-.141-.563-.422-.845-.563a2.716 2.716 0 0 0-1.408-.422h-.141a3.748 3.748 0 0 0-1.689.422 6.673 6.673 0 0 0-1.408 1.408 4.215 4.215 0 0 0-.563 1.408l-2.252 6.475a1.785 1.785 0 0 0-.141.845 1.785 1.785 0 0 0 .141.845 2.525 2.525 0 0 0 .7.985 1.91 1.91 0 0 0 2.252.141 3.732 3.732 0 0 0 .845-.7 2.3 2.3 0 0 0 .282-1.689l.845-2.534c.985 3.8 1.689 7.6 2.393 11.542a63.833 63.833 0 0 1-9.009-1.83 2.014 2.014 0 0 0-2.534 1.408 6.1 6.1 0 0 0-.141.7c.282 5.49.422 10.839.7 16.328a102.111 102.111 0 0 0-13.922-18.863 1.944 1.944 0 1 0-2.815 2.674z" class="cls-2" transform="translate(16.01 -.34)"/>
        </g>
    </g>
</svg>
