<svg xmlns="http://www.w3.org/2000/svg" xmlns:xlink="http://www.w3.org/1999/xlink" width="198" height="160" viewBox="0 0 198 160">
    <defs>
        <path id="frk415dila" d="M0.002 0.596L27.498 0.596 27.498 27.658 0.002 27.658z"/>
        <path id="bbk5je1uhc" d="M0 0.553L31.199 0.553 31.199 30.29 0 30.29z"/>
    </defs>
    <g fill="none" fill-rule="evenodd">
        <g>
            <g>
                <g>
                    <g>
                        <path fill="#838693" d="M23.277 121.284H11.981s3.694-6.325 5.613-7.461c1.918-1.137 7.104-3.127 8.951-5.827 1.848-2.771 3.198-5.756 3.198-5.756s7.602-5.613 9.52-7.816c1.918-2.203 5.186-27.003 10.94-36.098C55.96 49.231 70.88 34.522 70.88 34.522l37.015 10.09s10.23 6.537 12.432 9.095c2.203 2.558 3.41 2.63 3.41 2.63s5.968 1.136 8.74 3.34c2.77 2.202 4.689 3.765 4.689 3.765s10.656 4.833 14.92 12.862c4.262 8.03 4.475 14.922 4.475 14.922s5.542 2.416 8.738 7.035c3.198 4.619 6.466 11.014 6.466 11.014l12.291 3.908 1.634 10.587s-4.05-.71-5.257-1.847c-1.279-1.137-2.734-2.659-2.734-2.659s.268-4.038-.27-4.208c-.181-.058-1.094 3.695-1.32 3.624-2.143-.666-6.013-1.802-7.47-1.802-2.06 0-3.126-.782-4.12-2.416-1.066-1.635-1.279-6.538-9.308-7.674-8.028-1.137-14.138-1.35-18.258-4.477-4.12-3.126-6.11-6.75-6.11-6.75s-5.045-.427-9.45 1.137c-4.333 1.634-6.891 3.908-6.891 3.908s3.765 2.132 1.35 5.329c-2.487 3.198-8.881 6.964-12.433 11.156-3.624 4.122-7.745 10.587-7.745 10.587H85.301s0-3.979 3.197-6.039c.611-.394 1.34-.775 2.141-1.16.415-.199 4.653 3.024 5.097 2.82.352-.16-3.095-3.746-2.732-3.912 2.932-1.344 6.124-2.9 7.785-5.28 2.629-3.766 2.487-6.253 2.487-6.253s-4.334-2.842-5.684-3.624c-1.35-.782-4.121-1.706-4.121-1.706s-2.841 4.69-7.531 6.254c-4.689 1.492-9.236 3.055-13.001 8.527-3.766 5.47-6.04 10.373-6.04 10.373H52.905s2.51-3.189 4.748-5.038c.37-.306 2.15 1.48 2.493 1.267.18-.107-1.047-2.274-.851-2.39 2.51-1.475 6.223-3.572 8.529-7.197 2.487-3.98 6.394-12.08 6.394-12.08s-4.546-2.487-8.667.568c-4.12 3.056-11.297 6.253-13.215 4.335-1.918-1.918-6.394-3.055-12.078-1.705l-6.474 1.538c-.287.068-1.95.326-3.347.537-1.08.164 2.354.043 1.915.674-1.21 1.74-3.541 5.142-3.958 6.133-.568 1.35-.924 3.056-.924 3.056l-2.273.781-1.919 3.127z" transform="translate(-149.000000, -230.000000) translate(149.000000, 230.000000)"/>
                        <path fill="#838693" d="M151.587 79.146l.142 2.842s2.842 1.28 3.553 1.635c.71.355 12.503 8.74 16.056 9.522 3.552.852 6.75 1.208 7.815-2.345.923-3.411-6.75-7.32-6.75-7.32s-.71-1.278-.568-2.131c.142-.923-1.918-3.766-2.344-5.756-.497-1.918-.853-6.466-.853-6.466s-2.7 4.832-2.131 9.806c.568 4.974 5.754 5.33 5.754 5.33s5.897 2.7 5.684 5.542c-.213 2.842-2.274 2.629-7.175 1.066-4.974-1.564-23.8-20.607-23.8-20.607l4.617 8.882z" transform="translate(-149.000000, -230.000000) translate(149.000000, 230.000000)"/>
                        <path fill="#D1D3D7" d="M53.117 89.876s-.213-2.558-3.482-3.695c-3.268-1.066-7.318-2.771-7.318-2.771 2.345-20.11 13.854-33.397 25.79-44.696 0 0 2.842.285 3.34 2.7.71 3.411-1.847 9.167-2.06 11.227-.427 3.553 2.77 7.39 2.77 7.39s-6.962 1.564-8.241 3.056 2.77 1.706 2.77 1.706l-6.11 5.187s-1.918-4.477-1.065-10.445c.853-6.183 4.405-13.928 4.192-14-.427-.141-4.76 7.675-7.176 15.775-1.776 6.112-1.705 13.217-2.345 12.72-1.491-1.066-2.557-7.745-2.77-5.187-.214 2.558.639 9.095 1.279 11.369.639 2.345.426 9.664.426 9.664M78.764 94.708s.498-6.964 3.34-10.73C84.946 80.212 88 77.014 88 77.014s-9.52 5.686-10.656 6.964c-1.137 1.35 1.35-10.587 9.093-10.943 23.516 3.482 29.13-10.8 28.561-14.353-.569-3.624-6.536-12.01-6.536-12.01s4.263 2.203 5.897 3.27c1.633 1.065 9.378 6.537 9.378 6.537s5.4 1.207 7.673 2.77c4.333 2.914 15.986 13.36 15.986 13.36s-1.422-1.066-3.908-1.705c-2.487-.64-6.821-2.7-6.821-2.7s8.88 6.04 12.291 13.074c3.41 7.035 3.41 11.44 3.41 11.44s-2.628-.284-4.334-1.634c-1.704-1.35-3.623-2.06-3.623-2.06s10.8 5.684 13.428 8.1c2.629 2.487 7.176 4.76 3.41 5.471-3.766.782-12.646-1.35-17.62-6.04-4.972-4.69-10.017-10.587-10.017-10.587s.568 6.68-.923 3.979c-1.492-2.7-3.766-5.685-3.766-9.593 0-3.837.356-5.187.356-5.187s-2.63 3.624-7.745 5.187c-5.115 1.635-22.166 9.593-18.187.853 1.136-2.416-6.466.782-9.45 4.192-4.973 7.177-15.133 9.31-15.133 9.31" transform="translate(-149.000000, -230.000000) translate(149.000000, 230.000000)"/>
                        <path fill="#515050" d="M15.604 121.284l8.81-6.893 8.597-10.09s6.82-3.34 9.378-3.34 6.323-9.877 6.323-9.877 3.126.924 3.765 2.63c.64 1.705 2.274 5.968 2.274 5.968s5.044-5.472 5.754-9.877c.711-4.406-2.415-16.557-2.415-16.557s4.405 12.79 5.897 12.365c1.492-.427 12.93-15.775 14.778-16.486 1.846-.71 4.12-.569 4.12-.569S71.518 59.605 70.523 53.92c-.477-2.725-.876-16.975 2.269-16.8 3.413.19 10.512 14.99 13.249 16.617 1.86 1.107 4.222-2.565 6.662-1.276 4.45 2.353 6.423 6.597 9.36 6.414 6.891-.427 9.16-6.747 9.16-6.747s4.865 7.097-9.913 13.137c-4.973 1.99-9.356-.97-17.714 5.994-1.492 1.137-13.57 15.562-13.428 21.175.07 6.182 12.433 3.695 12.433 3.695l-10.089 14.496s-9.238 10.5-11.725 12.852c-.214.202.104-.07 0 0-.055.037.61 1.277.555 1.32-.177.14-1.557-.477-1.734-.286-1.107 1.19-2.157 3.167-2.157 3.167h-4.69s3.898-4.423 4.893-5.205c.07-.06 1.976.897 2.368 1.297.393.402-1.135-2.133-.996-2.231 2.161-1.518 5.992-4.095 7.432-5.407 1.84-1.676 7.688-13.963 7.688-13.963s-3.997-1.98-8.557.81c-3.055 1.919-9.235 6.919-13.354 4.322-3.147-1.983-4.968-3.351-12.143-1.645-3.768.895-5.512 1.26-6.318 1.405-.73.132-2.986.554-2.986.554l1.923.079s-3.852 5.738-4.146 6.276c-.362.658-1.096 3.406-1.096 3.406l-2.273.781-1.919 3.127h-7.673zM93.471 102.524s3.766 1.564 5.329 2.558c1.563.995 4.263 2.772 4.263 2.772s-.64 6.893-7.106 10.019c-.624.303-1.332.617-2.07.943-.525.233-1.066.473-1.604.72-.073.033 2.657 3.152 2.657 3.152s-3.553-2.735-3.884-2.571c-1.357.67-2.597 1.388-3.39 2.166-2.66 2.609-2.507 5.396-2.507 5.396h11.083s3.662-6.59 6.86-9.716c3.196-3.126 12.164-10.006 13.514-12.635 1.422-2.63-2.258-4.722-2.258-4.722s5.542-3.98 8.882-4.477c3.339-.497 7.388-.568 7.388-.568s3.837 5.969 7.105 7.46c6.607 4.264 19.04 4.193 19.04 4.193s4.192.356 5.827 3.837c2.77 5.33 2.77 5.33 5.754 5.898 2.196.419 6.009 1.453 7.869 1.97.729-.62 1.252-3.607 1.252-3.607s-.06 3.55.209 4.294c.709.714 2.248 2.227 3.103 2.815 1.137.781 4.902 1.35 4.902 1.35l-1.544-10.876-12.567-3.98s-4.687-9.765-8.896-13.893c-2.432-2.388-5.96-4.075-5.96-4.075s-.54-6.743-3.075-10.593c-5.044-9.45-13.072-10.374-13.072-10.374s8.667 8.171 12.007 16.982c3.339 8.812 7.672 10.873 10.16 13.075 2.557 2.203 4.76 6.609 5.257 9.38.568 2.771-2.416 2.416-2.416 2.416s-5.542-6.111-9.022-8.1c-3.482-1.99-11.44-.427-16.413-5.898-4.973-5.472-7.175-5.188-7.175-5.188l1.705 3.197s-7.105-6.82-7.105-9.592c0-2.771.995-5.898.995-5.898s-4.76 10.588-9.023 12.293c-4.334 1.706-13.712 5.543-17.193 5.188-3.482-.356-7.958-1.635-7.958-1.635s.996-6.466 1.706-7.958c.71-1.493-2.629 2.06-2.77 3.482.212 1.492.141 10.8.141 10.8" transform="translate(-149.000000, -230.000000) translate(149.000000, 230.000000)"/>
                        <g transform="translate(-149.000000, -230.000000) translate(149.000000, 230.000000) translate(100.966887, 0.059672)">
                            <mask id="uut9g3tobb" fill="#fff">
                                <use xlink:href="#frk415dila"/>
                            </mask>
                            <path fill="#F4D553" d="M.002 20.835s18.756-3.86 20.629-7.386c1.795-3.587.187-12.853.187-12.853S29.658 8.618 27 15.839c-2.665 7.152-15.398 9.815-15.398 9.815l-8.73 2.004-2.87-6.823z" mask="url(#uut9g3tobb)"/>
                        </g>
                        <path fill="#D1D3D7" d="M74.983 31.937s-6.388-2.592-10.165.436c-3.776 3.027-3.153 2.83-3.153 2.83s2.854 3.684 6.011 3.858c3.158.172 5.202.658 5.202.658s-1.445 9.424 1.791 14.847c3.37 5.341 18.819 7.878 18.819 7.878s2.697 2.812 4.35 2.925c1.794.1 3.706 1.418 7.009.143 3.296-1.343 4.663-3.454 4.663-3.454s3.165-2.695 1.713-6.651c-1.452-3.957-3.222-4.537-3.222-4.537s-3.64-10.367-3.437-11.957c.274-1.597 1.092-4.953 1.092-4.953s5.392-1.818 6.823-3.253c1.497-1.51 3.527-6.349 3.527-6.349s-3.756-1.208-6.77-.644c-3.093.504-5.039 1.785-5.039 1.785s-.175-6.983-7.789-7.477c-4.237-.273-5.789-.088-9.357.665-2.866.619-11.166 1.147-13.498 2.874-4.265 3.143-4.81 8.589-4.153 9.481.645.758 5.583.895 5.583.895" transform="translate(-149.000000, -230.000000) translate(149.000000, 230.000000)"/>
                        <path fill="#F4D553" d="M75.131 23.116s-9.497 4.398-10.757.219c-1.26-4.18 1.352-16.312 1.352-16.312s-10.848 17.024-9.794 20.54c1.052 3.517 7.316 4.073 7.805 3.958 3.439-.605 8.408-.88 8.408-.88s2.82-1.843 3.196-3.86c.525-1.961-.21-3.665-.21-3.665" transform="translate(-149.000000, -230.000000) translate(149.000000, 230.000000)"/>
                        <path fill="#4F4F4F" d="M96.417 56.563s4.04 1.93 4.44 2.37c.412.575 1.625 2.78.846 2.855-.707.068-3.4.26-4-.775-.6-1.035.19-1.725.067-2.26-.136-.67-1.353-2.19-1.353-2.19" transform="translate(-149.000000, -230.000000) translate(149.000000, 230.000000)"/>
                        <path fill="#818491" d="M75.662 34.534s-2.252-.396-4.72-.09c-2.533.38-7.251 1.041-7.251 1.041s1.932 2.272 3.25 2.622c2.8.89 7.22-1.38 7.22-1.38l.111 1.902 1.39-4.095zM105.023 27.399l.515 5.343s-.43.724.111 1.15c.146-1.447 3.835-2.418 4.375-2.743 2.802-1.295 5.052-6.087 5.052-6.087s-2.84 1.64-5.662 1.981c-2.096.476-4.391.356-4.391.356" transform="translate(-149.000000, -230.000000) translate(149.000000, 230.000000)"/>
                        <path fill="#4F4F4F" d="M107.884 58.528s-.942-2.367-.255-3.389c.686-1.022 1.89-.387 1.917.634.027 1.022-1.662 2.755-1.662 2.755" transform="translate(-149.000000, -230.000000) translate(149.000000, 230.000000)"/>
                        <path fill="#8C919D" d="M87.49 36.533s1.118.506 1.945 2.407c.826 1.9 3.235 9.86 3.332 10.124.09.196 1.142 2.962 2.796 3.826 1.654.865 5.009.131 5.009.131s-4.743 1.141-5.083 2.061c-.198.907-1.05 2.423-1.05 2.423s-.132-1.353-.835-2.719c-.702-1.366-2.026-5.47-2.374-6.12-.406-.507-3.717-4.489-3.717-4.489l-4.979-1.294s4.715.773 5.69-.959c.988-1.597-.735-5.39-.735-5.39" transform="translate(-149.000000, -230.000000) translate(149.000000, 230.000000)"/>
                        <path fill="#818491" d="M74.349 37.938s1.843 2.826 2.692 3.495c.857.737 2.332-1.727 2.332-1.727s-.367 3.586.052 4.979c.42 1.393.84 3.538-.154 4.316-.996.78-.894 4.047.626 5.743 1.532 1.832 4.757 4.183 4.757 4.183l-.462-4.051s3.262 2.006 4.28 2.932c1.017.926 1.816 2.555 3.392 2.608 1.505.06 2.868.133 3.209.714.342.582 1.335 2.739 1.335 2.739s-2.156-1.635-3.982-1.322c-1.755.305-7.136.757-9.917-1.433-2.915-2.108-8.32-4.863-8.946-6.919-.104-.332-2.301-7.561-2.213-8.867.133-1.583.629-1.63 1.77-3.107.892-1.11 1.229-4.283 1.229-4.283" transform="translate(-149.000000, -230.000000) translate(149.000000, 230.000000)"/>
                        <path fill="#4F4F4F" d="M77.483 35.656s2.909 1.29 4.367.875c1.446-.549 3.587-.55 5.21 1.477.736 1.705 1.085 3.105 1.085 3.105s-1.506-1.562-1.81-1.737l-.302-.176s-.487.866-1.926 1.483c-1.298.603-2.348.09-2.348.09l1.276 1.379s-2.908-1.29-3.115-1.952c-.22-.799-.479-2.003-.479-2.003l-1.958-2.541z" transform="translate(-149.000000, -230.000000) translate(149.000000, 230.000000)"/>
                        <path fill="#818491" d="M82.988 37.071c.941-.27 1.927.238 2.202 1.137.275.899-.265 1.847-1.206 2.118-.941.27-1.927-.238-2.203-1.137-.274-.899.265-1.847 1.207-2.118" transform="translate(-149.000000, -230.000000) translate(149.000000, 230.000000)"/>
                        <path fill="#FFF" d="M83.84 37.45c.488-.14 1.001.124 1.144.591.144.468-.138.961-.627 1.102-.49.14-1.002-.124-1.145-.592-.143-.466.137-.96.627-1.1" transform="translate(-149.000000, -230.000000) translate(149.000000, 230.000000)"/>
                        <path fill="#504F4F" d="M75.335 22.273s6.481-1.625 10.82-1.044c4.338.58 5.207.71 5.207.71l-2.49-1.401s4.2-2.333 7.287-1.418c3.156.91 6.959 3.327 6.959 3.327s13.167-3.073 15.095-4.544C125.512 13.41 121.65.74 121.65.74s3.155 10.669-3.652 15.231c-2.962 1.857-15.41 3.957-15.41 3.957s-2.899-1.934-6.593-2.505c-3.696-.572-13.618 2.386-15.739 2.59-2.121.205-6.267.89-7.628 2.307-1.363 1.417-1.92 2.128-1.92 2.128s-5.33 1.907-6.24-.86c-.908-2.769.308-12.36.308-12.36s-2.809 10.837-2.3 13.143c.514 2.378 3.608 3.364 5.766 2.8 2.158-.567 4.837-2.396 4.837-2.396s.992-.809 1.489.642c.426 1.458.72 2.286.72 2.286s.673-2.634.366-3.604c-.23-.907-.319-1.826-.319-1.826" transform="translate(-149.000000, -230.000000) translate(149.000000, 230.000000)"/>
                        <path fill="#515050" d="M95.096 62.841s-.565-4.371.909-5.37c1.474-.999 6.703-2.29 6.703-2.29s-7.68.314-8.24 1.154c-.568.768.628 6.506.628 6.506M107.92 52.252s-2.664-3.955-3.57-5.938c-.905-1.983-1.812-5.465-1.812-5.465l1.922 2.17s.473-12.11.12-14.289c-.353-2.179-.574-3.728-.574-3.728s.75 1.855 1.201 4.31c.32 1.826.353 4.392.4 4.887.116 1.203-.086 8.718-.086 8.718l2.4 9.335z" transform="translate(-149.000000, -230.000000) translate(149.000000, 230.000000)"/>
                        <g transform="translate(-149.000000, -230.000000) translate(149.000000, 230.000000) translate(0.000000, 128.584262)">
                            <mask id="kgjzgprtjd" fill="#fff">
                                <use xlink:href="#bbk5je1uhc"/>
                            </mask>
                            <path fill="#F4D553" d="M18.37 12.236c1.22 0 2.117-.241 2.687-.723.57-.481.855-1.047.855-1.7 0-.622-.23-1.067-.692-1.337-.462-.27-1.208-.404-2.24-.404H15.03l-1.06 4.164h4.4zM15.843 22.77c1.167 0 2.077-.24 2.73-.722.65-.482.977-1.09.977-1.827 0-1.246-1.02-1.87-3.056-1.87h-4.114l-1.14 4.419h4.603zM7.657.553h12.627c2.199 0 3.998.191 5.395.574 1.399.382 2.51.9 3.331 1.55.822.652 1.393 1.402 1.711 2.252.318.849.478 1.728.478 2.634 0 1.812-.566 3.42-1.697 4.821-1.13 1.402-2.798 2.4-5.003 2.995 1.35.368 2.459 1.055 3.324 2.06.866 1.006 1.298 2.273 1.298 3.802 0 1.247-.25 2.422-.753 3.526-.503 1.105-1.297 2.068-2.383 2.89-1.086.821-2.491 1.465-4.215 1.932-1.724.468-3.808.701-6.252.701H0L7.657.553z" mask="url(#kgjzgprtjd)"/>
                        </g>
                        <path fill="#F4D553" d="M37.267 159.404c-2.036 0-3.605-.611-4.705-1.834-1.1-1.221-1.649-2.878-1.649-4.97 0-1.193.176-2.443.53-3.747l3.258-12.22h9.246l-2.974 11.08c-.082.299-.142.597-.183.896-.04.299-.061.557-.061.774 0 .597.156 1.073.468 1.426.312.353.808.529 1.487.529.922 0 1.649-.299 2.179-.896.53-.597.957-1.508 1.283-2.73l2.973-11.08h9.246l-5.947 22.242h-9.246l.734-2.77c-.734.897-1.678 1.67-2.831 2.322-1.155.652-2.424.978-3.808.978M63.089 129.137L72.335 129.137 64.352 158.875 55.106 158.875zM75.349 129.137L84.595 129.137 76.611 158.875 67.366 158.875z" transform="translate(-149.000000, -230.000000) translate(149.000000, 230.000000)"/>
                        <path fill="#FFF" d="M87.114 129.463L110.981 129.463 108.781 137.61 94.445 137.61 93.467 141.235 106.786 141.235 104.79 148.65 91.471 148.65 88.748 158.875 79.216 158.875zM119.412 150.972c.57 0 1.106-.136 1.608-.408.503-.271.93-.638 1.284-1.1.352-.461.63-.997.835-1.609.203-.61.305-1.241.305-1.894 0-.95-.272-1.725-.815-2.322-.543-.597-1.262-.896-2.159-.896-.57 0-1.106.135-1.609.407-.502.271-.93.64-1.282 1.1-.353.463-.631.998-.835 1.609-.204.61-.306 1.242-.306 1.894 0 .952.272 1.725.815 2.322.543.598 1.263.897 2.159.897m-.57 7.535c-1.766 0-3.334-.265-4.705-.794-1.372-.528-2.532-1.263-3.482-2.2-.951-.936-1.677-2.037-2.18-3.299-.502-1.263-.753-2.614-.753-4.054 0-1.71.333-3.346.998-4.907.665-1.563 1.589-2.941 2.77-4.136 1.181-1.195 2.586-2.145 4.215-2.851 1.63-.706 3.408-1.059 5.336-1.059 1.737 0 3.299.264 4.684.794 1.384.53 2.551 1.263 3.503 2.2.95.936 1.675 2.037 2.178 3.3.503 1.262.754 2.613.754 4.053 0 1.711-.333 3.347-.998 4.908-.666 1.562-1.588 2.94-2.77 4.135-1.181 1.196-2.585 2.146-4.215 2.851-1.63.706-3.408 1.06-5.335 1.06M137.29 135.736h9.247l-1.181 4.481c1.031-1.52 2.213-2.722 3.543-3.605s3.964-1.595 6.729-1.213l-5.031 9.829h-.598c-2.2 0-3.917.583-5.153 1.751-1.235 1.169-2.165 2.988-2.79 5.46l-1.466 5.54h-9.245l5.946-22.243zM161.851 158.548c-1.493 0-2.871-.21-4.134-.631-1.262-.42-2.362-1.039-3.3-1.853-.936-.815-1.669-1.814-2.198-2.994-.53-1.181-.794-2.52-.794-4.013 0-1.9.352-3.692 1.059-5.377.705-1.684 1.67-3.15 2.891-4.4 1.222-1.249 2.661-2.234 4.317-2.954 1.656-.718 3.448-1.078 5.377-1.078 1.33 0 2.545.184 3.645.552 1.1.369 2.063.88 2.892 1.537.828.654 1.507 1.426 2.036 2.314.53.886.902 1.85 1.12 2.887l-7.33 2.934c-.408-1.792-1.359-2.688-2.852-2.688-.652 0-1.249.162-1.792.485-.543.325-1.005.75-1.385 1.277-.38.528-.672 1.116-.876 1.765-.203.648-.305 1.31-.305 1.985 0 .838.237 1.5.713 1.987.474.486 1.079.73 1.812.73.652 0 1.242-.156 1.771-.47.53-.312 1.066-.779 1.61-1.404l6.231 4.154c-1.113 1.603-2.504 2.88-4.174 3.83-1.67.95-3.781 1.425-6.334 1.425M189.71 144.943c.108-.3.162-.625.162-.978 0-.624-.21-1.175-.63-1.65-.422-.475-1.013-.713-1.772-.713-.707 0-1.446.244-2.22.733-.774.49-1.378 1.358-1.813 2.608h6.273zm-6.843 4.073c.055.896.367 1.616.937 2.16.57.542 1.37.814 2.403.814.76 0 1.5-.148 2.22-.448.72-.3 1.472-.747 2.26-1.344l4.277 4.684c-1.277 1.14-2.696 2.031-4.257 2.669-1.56.637-3.319.957-5.274.957-1.684 0-3.204-.239-4.561-.712-1.36-.476-2.506-1.142-3.442-1.997-.937-.856-1.657-1.88-2.158-3.076-.504-1.194-.754-2.525-.754-3.992 0-1.684.305-3.34.916-4.97.61-1.629 1.5-3.075 2.668-4.338 1.167-1.263 2.586-2.28 4.256-3.056 1.67-.773 3.564-1.16 5.682-1.16 1.819 0 3.353.284 4.603.855 1.248.57 2.26 1.31 3.034 2.22.773.91 1.323 1.942 1.65 3.096.325 1.155.488 2.315.488 3.483 0 .733-.055 1.454-.163 2.16-.11.705-.272 1.371-.489 1.995h-14.296z" transform="translate(-149.000000, -230.000000) translate(149.000000, 230.000000)"/>
                    </g>
                </g>
            </g>
        </g>
    </g>
</svg>
