<svg xmlns="http://www.w3.org/2000/svg" width="25" height="24" viewBox="0 0 25 24">
    <g fill="none" fill-rule="evenodd">
        <g>
            <g>
                <g>
                    <g fill="#FFFF57" fill-rule="nonzero">
                        <path d="M0 0L24 0 24 23.108 0 23.108z" transform="translate(-1286 -1188) translate(260 1015) translate(1025 173) translate(1.03)"/>
                    </g>
                    <g>
                        <g>
                            <g transform="translate(-1286 -1188) translate(260 1015) translate(1025 173) translate(5.29 3.88) translate(0 .378)">
                                <circle cx="7.742" cy="7.742" r="7.742" fill="#25273E" fill-rule="nonzero"/>
                                <circle cx="7.742" cy="7.742" r="7.226" stroke="#E8E828"/>
                            </g>
                            <g fill-rule="nonzero">
                                <path fill="#FFF" d="M3.613 3.763V-2.43v6.193z" transform="translate(-1286 -1188) translate(260 1015) translate(1025 173) translate(5.29 3.88) translate(0 .378) translate(4.129 7.226) rotate(90 3.613 .667)"/>
                                <path fill="#E8E828" d="M2.946 -2.946L4.28 -2.946 4.28 4.28 2.946 4.28z" transform="translate(-1286 -1188) translate(260 1015) translate(1025 173) translate(5.29 3.88) translate(0 .378) translate(4.129 7.226) rotate(90 3.613 .667)"/>
                            </g>
                            <g fill-rule="nonzero">
                                <path fill="#FFF" d="M0.593 7.68L0.516 7.68 0.516 1.547 0.593 1.547z" transform="translate(-1286 -1188) translate(260 1015) translate(1025 173) translate(5.29 3.88) translate(0 .378) translate(7.226 3.097) rotate(180 .554 4.614)"/>
                                <path fill="#E8E828" d="M0 1.031L1.109 1.031 1.109 8.196 0 8.196z" transform="translate(-1286 -1188) translate(260 1015) translate(1025 173) translate(5.29 3.88) translate(0 .378) translate(7.226 3.097) rotate(180 .554 4.614)"/>
                            </g>
                        </g>
                    </g>
                </g>
            </g>
        </g>
    </g>
</svg>
