<svg xmlns="http://www.w3.org/2000/svg" xmlns:xlink="http://www.w3.org/1999/xlink" width="421.998" height="211" viewBox="0 0 421.998 211">
  <defs>
    <filter id="Subtraction_6" x="-30" y="-30" width="481.998" height="271" filterUnits="userSpaceOnUse">
      <feOffset input="SourceAlpha"/>
      <feGaussianBlur stdDeviation="10" result="blur"/>
      <feFlood flood-opacity="0.4"/>
      <feComposite operator="in" in2="blur"/>
      <feComposite in="SourceGraphic"/>
    </filter>
    <clipPath id="clip-path">
      <g transform="matrix(1, 0, 0, 1, 0, 0)" filter="url(#Subtraction_6)">
        <path id="Subtraction_6-2" data-name="Subtraction 6" d="M428,217H6a212.561,212.561,0,0,1,4.287-42.524A209.848,209.848,0,0,1,42.036,99.028a211.613,211.613,0,0,1,92.833-76.446,209.938,209.938,0,0,1,39.607-12.295,213.057,213.057,0,0,1,85.047,0,209.848,209.848,0,0,1,75.448,31.749,211.614,211.614,0,0,1,76.446,92.834,209.931,209.931,0,0,1,12.295,39.607A212.563,212.563,0,0,1,428,217Z" transform="translate(2333 13698)" fill="#25273e" stroke="#4f526e" stroke-width="1"/>
      </g>
    </clipPath>
    <filter id="Subtraction_1" x="-30" y="-30" width="481.998" height="271" filterUnits="userSpaceOnUse">
      <feOffset input="SourceAlpha"/>
      <feGaussianBlur stdDeviation="10" result="blur-2"/>
      <feFlood flood-opacity="0.4"/>
      <feComposite operator="in" in2="blur-2"/>
      <feComposite in="SourceGraphic"/>
    </filter>
    <filter id="Path_220" x="358.627" y="89.1" width="36.737" height="36.737" filterUnits="userSpaceOnUse">
      <feOffset input="SourceAlpha"/>
      <feGaussianBlur stdDeviation="3" result="blur-3"/>
      <feFlood flood-color="#45ff03"/>
      <feComposite operator="in" in2="blur-3"/>
      <feComposite in="SourceGraphic"/>
    </filter>
    <filter id="Path_226" x="1.122" y="3.244" width="387.488" height="212.453" filterUnits="userSpaceOnUse">
      <feOffset input="SourceAlpha"/>
      <feGaussianBlur stdDeviation="3" result="blur-4"/>
      <feFlood flood-color="#45ff03"/>
      <feComposite operator="in" in2="blur-4"/>
      <feComposite in="SourceGraphic"/>
    </filter>
  </defs>
  <g id="Mask_Group_17" data-name="Mask Group 17" transform="translate(-2339 -13704)" clip-path="url(#clip-path)">
    <g id="Group_404" data-name="Group 404">
      <g id="Group_400" data-name="Group 400" transform="translate(-1021 17.2)">
        <line id="Line_10" data-name="Line 10" x2="13.227" transform="translate(3736.198 13828.003)" fill="none" stroke="#707070" stroke-width="1"/>
        <path id="Path_94" data-name="Path 94" d="M3.066,7H-9.5" transform="translate(3399.805 13821.003)" fill="none" stroke="#707070" stroke-width="1"/>
        <g id="Ellipse_19" data-name="Ellipse 19" transform="translate(3565 13821.8)" fill="#fff" stroke="#707070" stroke-width="1">
          <circle cx="5.5" cy="5.5" r="5.5" stroke="none"/>
          <circle cx="5.5" cy="5.5" r="5" fill="none"/>
        </g>
        <path id="Path_95" data-name="Path 95" d="M1751.892,404.891l-89.725-89.725" transform="translate(1813.013 13417.16)" fill="none" stroke="#707070" stroke-width="1"/>
        <g transform="matrix(1, 0, 0, 1, 3360, 13686.8)" filter="url(#Subtraction_1)">
          <g id="Subtraction_1-2" data-name="Subtraction 1" transform="translate(-6 -6)" fill="#25273e">
            <path d="M 427.4980163574219 216.5007934570313 L 6.500881195068359 216.5007934570313 C 6.534032344818115 202.3850860595703 7.972216606140137 188.2832336425781 10.77687168121338 174.5769500732422 C 13.54245090484619 161.0617980957031 17.66908264160156 147.7678985595703 23.04218673706055 135.0645294189453 C 28.31771469116211 122.5915908813477 34.84745025634766 110.5613784790039 42.44992446899414 99.30805969238281 C 49.98044967651367 88.16143035888672 58.62855529785156 77.67979431152344 68.15408325195313 68.15432739257813 C 77.67971038818359 58.62853622436523 88.16129302978516 49.98032379150391 99.30760955810547 42.45000839233398 C 110.5609741210938 34.84737777709961 122.5910797119141 28.31769180297852 135.063720703125 23.04227256774902 C 147.7668762207031 17.66921997070313 161.0606536865234 13.54253482818604 174.5757598876953 10.77690315246582 C 188.4434051513672 7.93916654586792 202.7166595458984 6.500324249267578 216.9990234375 6.500324249267578 C 231.2815093994141 6.500324249267578 245.5548706054688 7.93916654586792 259.422607421875 10.77690315246582 C 272.9377746582031 13.54253482818604 286.2315979003906 17.66921997070313 298.934814453125 23.04227256774902 C 311.4075622558594 28.31769180297852 323.4377136230469 34.84737777709961 334.6910705566406 42.45000839233398 C 345.8375549316406 49.98043060302734 356.3191223144531 58.62858581542969 365.8447265625 68.15427398681641 C 375.3703308105469 77.67984771728516 384.0184936523438 88.16148376464844 391.5489196777344 99.30805969238281 C 399.1514587402344 110.5613784790039 405.6811828613281 122.5915908813477 410.9566650390625 135.0645294189453 C 416.329833984375 147.7679595947266 420.4564514160156 161.0618438720703 423.2220153808594 174.5769500732422 C 426.0266723632813 188.2830810546875 427.4648742675781 202.3848876953125 427.4980163574219 216.5007934570313 Z" stroke="none"/>
            <path d="M 426.9962463378906 216.0007934570313 C 426.9307250976563 202.0854797363281 425.4970092773438 188.1886444091797 422.732177734375 174.6772155761719 C 419.9732360839844 161.1944274902344 415.8564453125 147.9323272705078 410.4961853027344 135.25927734375 C 405.2332458496094 122.8160629272461 398.7190856933594 110.8145370483398 391.1346130371094 99.58795928955078 C 383.6219787597656 88.46774291992188 374.9942932128906 78.01090240478516 365.4911804199219 68.50785064697266 C 355.9880676269531 59.004638671875 345.5312805175781 50.37695693969727 334.4111938476563 42.86432266235352 C 323.1845703125 35.27974700927734 311.1830749511719 28.76558685302734 298.7400207519531 23.50274467468262 C 286.0672302246094 18.14258766174316 272.80517578125 14.02579784393311 259.3223876953125 11.26674556732178 C 245.487548828125 8.435745239257813 231.2479248046875 7.000324249267578 216.9990234375 7.000324249267578 C 202.750244140625 7.000324249267578 188.5107116699219 8.435745239257813 174.6759796142578 11.26674556732178 C 161.1932373046875 14.02579784393311 147.9312438964844 18.14258766174316 135.2584533691406 23.50274467468262 C 122.815559387207 28.76558685302734 110.8141326904297 35.27974700927734 99.58750152587891 42.86432266235352 C 88.46755218505859 50.37685012817383 78.01076507568359 59.00458908081055 68.50760650634766 68.50785064697266 C 59.00460815429688 78.01084899902344 50.37692260742188 88.46768951416016 42.86423873901367 99.58795928955078 C 35.27981948852539 110.8145370483398 28.76566123962402 122.8160629272461 23.50266075134277 135.25927734375 C 18.1424503326416 147.9322662353516 14.02571392059326 161.1943817138672 11.26671409606934 174.6772155761719 C 8.501893043518066 188.1888122558594 7.068169593811035 202.0856628417969 7.002649784088135 216.0007934570313 L 426.9962463378906 216.0007934570313 M 427.9985961914063 217.0008544921875 L 427.9985961914063 217.0007934570313 L 427.9985961914063 217.0008544921875 Z M 427.9985961914063 217.0007934570313 L 6.000292778015137 217.0007934570313 C 6.000292778015137 202.6825866699219 7.442924499511719 188.3757934570313 10.28702926635742 174.4767456054688 C 13.05918788909912 160.9294281005859 17.1956615447998 147.6036987304688 22.58166122436523 134.8697509765625 C 27.86981964111328 122.3670120239258 34.41508102416992 110.3081665039063 42.03561019897461 99.02816772460938 C 49.58386993408203 87.85527038574219 58.25239944458008 77.34885406494141 67.80050659179688 67.80074310302734 C 77.34866333007813 58.25248336791992 87.85502624511719 49.5838508605957 99.02771759033203 42.03569412231445 C 110.3078155517578 34.41500854492188 122.3665542602539 27.8697452545166 134.8689270019531 22.58174514770508 C 147.6025085449219 17.19585037231445 160.9280853271484 13.05932426452637 174.4755096435547 10.28706073760986 C 188.3760833740234 7.442587375640869 202.6830749511719 6.000324249267578 216.9990234375 6.000324249267578 C 231.3150787353516 6.000324249267578 245.6221923828125 7.442587375640869 259.5228576660156 10.28706073760986 C 273.0703430175781 13.05932426452637 286.3959655761719 17.19585037231445 299.1296081542969 22.58174514770508 C 311.632080078125 27.8697452545166 323.6908569335938 34.41500854492188 334.9709777832031 42.03569412231445 C 346.1437683105469 49.58390426635742 356.650146484375 58.25248336791992 366.1983032226563 67.80074310302734 C 375.7463989257813 77.34880065917969 384.4149780273438 87.85521697998047 391.9632263183594 99.02816772460938 C 399.5838317871094 110.3081665039063 406.1290893554688 122.3670120239258 411.4171752929688 134.8697509765625 C 416.8031921386719 147.6035919189453 420.9397277832031 160.9293212890625 423.7118835449219 174.4767456054688 C 426.5563354492188 188.3774261474609 427.9985961914063 202.6845855712891 427.9985961914063 217.0008544921875 Z" stroke="none" fill="#4f526e"/>
          </g>
        </g>
        <g id="Subtraction_2" data-name="Subtraction 2" transform="translate(3369 13696.8)" fill="none">
          <path d="M404,200H0a199.552,199.552,0,0,1,4.1-40.307A197.857,197.857,0,0,1,34.5,88.178,202.156,202.156,0,0,1,161.29,4.063a205.97,205.97,0,0,1,81.42,0A202.2,202.2,0,0,1,369.5,88.178,197.733,197.733,0,0,1,404,200Z" stroke="none"/>
          <path d="M 398.9359741210938 195 C 398.6400756835938 183.4433288574219 397.3196411132813 171.9305114746094 394.9995422363281 160.7049407958984 C 392.4127807617188 148.1891632080078 388.5531616210938 135.8785552978516 383.5277709960938 124.1150588989258 C 378.5927124023438 112.5627746582031 372.4840698242188 101.4199447631836 365.3714294433594 90.99610900878906 C 358.3248901367188 80.66905212402344 350.2319946289063 70.95761108398438 341.3176574707031 62.13161087036133 C 332.40234375 53.3045539855957 322.5923461914063 45.29072189331055 312.1602172851563 38.31277847290039 C 301.6282348632813 31.26799964904785 290.3692626953125 25.21733283996582 278.6961669921875 20.32883262634277 C 266.8070983886719 15.35005569458008 254.3656158447266 11.52627754211426 241.7172241210938 8.963722229003906 C 228.7354431152344 6.333611011505127 215.3726043701172 5 201.9999389648438 5 C 188.6273345947266 5 175.2645568847656 6.333611011505127 162.2827758789063 8.963722229003906 C 149.6344451904297 11.52627754211426 137.1929473876953 15.35005569458008 125.3038330078125 20.32883262634277 C 113.6310577392578 25.21711158752441 102.3721694946289 31.26777839660645 91.83983612060547 38.31277847290039 C 81.40772247314453 45.29072189331055 71.59772491455078 53.30450057983398 62.68233489990234 62.13155364990234 C 53.76811218261719 70.95755767822266 45.67522048950195 80.66899871826172 38.62855529785156 90.99610900878906 C 31.51588821411133 101.4200592041016 25.40716743469238 112.5628890991211 20.47211074829102 124.1150588989258 C 15.44672203063965 135.8788909912109 11.58705520629883 148.1894989013672 9.000389099121094 160.7049407958984 C 6.680342197418213 171.9306640625 5.359910011291504 183.4434356689453 5.064034938812256 195 L 398.9359741210938 195 M 404 200 L 0 200 C 0 186.4283905029297 1.381055593490601 172.8674468994141 4.103888988494873 159.6929473876953 C 6.757888793945313 146.8517150878906 10.71794414520264 134.2207183837891 15.87411117553711 122.1508331298828 C 20.93677711486816 110.2999420166016 27.20294380187988 98.86983489990234 34.49844360351563 88.17794799804688 C 41.72472381591797 77.58760833740234 50.02355575561523 67.62889099121094 59.16444396972656 58.57849884033203 C 68.30544281005859 49.52805709838867 78.36372375488281 41.3113899230957 89.05994415283203 34.15677642822266 C 99.85894775390625 26.93338966369629 111.4033355712891 20.72927856445313 123.3724975585938 15.71688842773438 C 135.5632781982422 10.61177730560303 148.3204956054688 6.69088888168335 161.2899475097656 4.063277721405029 C 174.5976715087891 1.367111086845398 188.2944488525391 0 201.9999389648438 0 C 215.7055511474609 0 229.4023284912109 1.367111086845398 242.7100524902344 4.063277721405029 C 255.679443359375 6.69088888168335 268.4367370605469 10.61177730560303 280.6275024414063 15.71688842773438 C 292.5967102050781 20.72938919067383 304.1411743164063 26.93344497680664 314.9401245117188 34.15677642822266 C 325.6362915039063 41.3113899230957 335.6945495605469 49.52805709838867 344.8355407714844 58.57849884033203 C 353.9765625 67.62894439697266 362.275390625 77.58766937255859 369.5015563964844 88.17794799804688 C 376.7970581054688 98.86983489990234 383.0631713867188 110.2999420166016 388.1257629394531 122.1508331298828 C 393.2820434570313 134.2207183837891 397.2420654296875 146.8517150878906 399.8960571289063 159.6929473876953 C 402.6192626953125 172.8689422607422 404 186.4301605224609 404 200 Z" stroke="none"/>
        </g>
        <g id="Group_236" data-name="Group 236" transform="translate(3390.305 13704.098)">
          <line id="Line_100" data-name="Line 100" y1="8.278" transform="translate(180.613)" fill="none" stroke="#fff" stroke-width="2"/>
          <line id="Line_105" data-name="Line 105" x1="3.575" y1="7.865" transform="translate(113.251 13.998)" fill="none" stroke="#fff" stroke-width="2"/>
          <path id="Path_140" data-name="Path 140" d="M6.347,6.007,0,0" transform="translate(58.199 46.171)" fill="#fff" stroke="#fff" stroke-width="2"/>
          <path id="Path_127" data-name="Path 127" d="M-7.5-6.566l-7.472-3.243" transform="translate(36.371 102.451)" fill="none" stroke="#fff" stroke-width="2"/>
          <path id="Path_126" data-name="Path 126" d="M-9.314,0H-19.4" transform="translate(19.402 145.55)" fill="none" stroke="#fff" stroke-width="2"/>
          <line id="Line_105-2" data-name="Line 105" y1="7.865" x2="4.002" transform="translate(246.234 13.998)" fill="none" stroke="#fff" stroke-width="2"/>
          <line id="Line_106" data-name="Line 106" y1="6.435" x2="7.577" transform="translate(296.996 46.886)" fill="none" stroke="#fff" stroke-width="2"/>
          <path id="Path_127-2" data-name="Path 127" d="M-1.433-6.431l8.9-3.378" transform="translate(334.619 103.167)" fill="none" stroke="#fff" stroke-width="2"/>
          <path id="Path_126-2" data-name="Path 126" d="M-19.4,0H-8.776" transform="translate(371.548 145.55)" fill="none" stroke="#fff" stroke-width="2"/>
        </g>
        <text id="Sell" transform="translate(3454 13776.8)" fill="#fff" font-size="16" font-family="AvenirLTStd-Roman, Avenir LT Std"><tspan x="0" y="0">Sell</tspan></text>
        <text id="Strong_Sell" data-name="Strong Sell" transform="translate(3409 13854.8)" fill="#fff" font-size="16" font-family="AvenirLTStd-Roman, Avenir LT Std"><tspan x="0" y="0">Strong Sell</tspan></text>
        <text id="Strong_Buy" data-name="Strong Buy" transform="translate(3657 13854.8)" fill="#fff" font-size="16" font-family="AvenirLTStd-Roman, Avenir LT Std"><tspan x="0" y="0">Strong Buy</tspan></text>
        <text id="Buy" transform="translate(3657 13776.8)" fill="#fff" font-size="16" font-family="AvenirLTStd-Roman, Avenir LT Std"><tspan x="0" y="0">Buy</tspan></text>
        <text id="Neutral" transform="translate(3544 13741.8)" fill="#fff" font-size="16" font-family="AvenirLTStd-Roman, Avenir LT Std"><tspan x="0" y="0">Neutral</tspan></text>
      </g>
      <g transform="matrix(1, 0, 0, 1, 2339, 13704)" filter="url(#Path_220)">
        <path id="Path_220-2" data-name="Path 220" d="M7.145,0A7.145,7.145,0,1,1,0,7.145,7.145,7.145,0,0,1,7.145,0Z" transform="matrix(0.39, -0.92, 0.92, 0.39, 367.63, 111.25)" fill="#45ff03"/>
      </g>
      <g id="Group_402" data-name="Group 402" transform="translate(2672.493 13819.799) rotate(99)">
        <path id="Union_1" data-name="Union 1" d="M-1983.689-12605.3a7.276,7.276,0,0,1-4.385-5.862l-69.7-113.227,79.208,105.488c.187.063.372.132.556.21a7.273,7.273,0,0,1,3.854,9.536,7.279,7.279,0,0,1-6.7,4.434A7.253,7.253,0,0,1-1983.689-12605.3Z" transform="translate(2088.35 12724.388)" fill="#45ff03"/>
      </g>
      <g transform="matrix(1, 0, 0, 1, 2339, 13704)" filter="url(#Path_226)">
        <path id="Path_226-2" data-name="Path 226" d="M3812.754,13747.782a194.294,194.294,0,0,0-40.369-47.268,191.6,191.6,0,0,0-56.379-32.947,210.9,210.9,0,0,0-141.1-1.975,176.774,176.774,0,0,0-35.843,17.013,209.866,209.866,0,0,0-21.725,15.579,192.556,192.556,0,0,0-39.769,44.4,198.535,198.535,0,0,0-25.395,58.29c-6.948,26.925-6.078,46.414-6.078,46.414" transform="translate(-3434.42 -13640.66)" fill="none" stroke="#45ff03" stroke-width="3"/>
      </g>
    </g>
  </g>
</svg>
