<svg xmlns="http://www.w3.org/2000/svg" width="295" height="333" viewBox="0 0 295 333">
    <g fill="none" fill-rule="evenodd">
        <g>
            <g transform="translate(-880 -951) translate(880 951)">
                <path fill="#0083CA" fill-rule="nonzero" d="M124.267 20.267c8.38-9.876 21.534-11.9 33.51-11.114 37.609 2.477 71.557 26.512 100.924 53.704 10.632 9.841 21.098 20.45 27.998 34.006 14.058 27.594 9.88 65.82-9.651 88.552-6.648 7.733-14.704 13.674-22.975 18.92-14.706 9.343-30.574 16.844-47.266 18.99-11.9 1.52-23.95.285-35.785-1.838-33.059-5.948-65.504-19.075-92.71-41.53-11.93-9.849-23.173-22.095-28.09-38.02-4.917-15.927-1.77-36.133 10.411-45.58 5.038-3.9 11.063-5.663 16.959-7.319 8.681-2.435 17.5-4.835 25.333-9.784 8.093-5.113 17.673-15 16.066-26.318-1.71-12.128-3.093-22.794 5.276-32.67z" opacity=".1"/>
                <rect width="13" height="13" x="282" y="263" fill="#6CB46F" rx="6.5"/>
                <rect width="13" height="13" x="241" y="263" fill="#87C389" rx="6.5"/>
                <rect width="9" height="9" x="239" y="293" fill="#6CB46F" rx="4.5"/>
                <rect width="7" height="7" x="251" y="301" fill="#6CB46F" rx="3.5"/>
                <rect width="7" height="7" x="274" y="288" fill="#6CB46F" rx="3.5"/>
                <rect width="7" height="7" x="234" y="281" fill="#6CB46F" rx="3.5"/>
                <rect width="7" height="7" x="275" y="272" fill="#6CB46F" rx="3.5"/>
                <rect width="9" height="9" x="248" y="289" fill="#6CB46F" rx="4.5"/>
                <rect width="9" height="9" x="251" y="243" fill="#6CB46F" rx="4.5"/>
                <rect width="13" height="13" x="257" y="280" fill="#87C389" rx="6.5"/>
                <path stroke="#A8A9B3" stroke-width="2" d="M227 325s12.59-21.947 31.547-28.27c7.97-2.603 14.866-7.679 19.655-14.466 2.248-3.24 4.189-6.675 5.798-10.264"/>
                <path stroke="#A8A9B3" stroke-width="2" d="M227 326s2.367-26.075 16.472-39.94c5.95-5.777 9.985-13.46 11.498-21.896.693-4.012 1.037-8.084 1.03-12.164"/>
                <ellipse cx="188.5" cy="319" fill="#0083CA" fill-rule="nonzero" opacity=".1" rx="60.5" ry="14"/>
                <path fill="#B77B7F" fill-rule="nonzero" d="M192 189.304L191.946 191.273 188.608 312 183 312 185.75 191.273 185.804 189z"/>
                <path fill="#DDA2A6" fill-rule="nonzero" d="M225 291L220.676 290.989 156.425 290.847 153 290.842 154.824 285 224.543 285z"/>
                <path fill="#000" fill-rule="nonzero" d="M190 189.267L189.948 191 184 191 184.052 189z" opacity=".1"/>
                <path fill="#613A3D" fill-rule="nonzero" d="M183 187H194V191H183z"/>
                <path fill="#000" fill-rule="nonzero" d="M157 285L156.43 291 153 290.995 154.827 285z" opacity=".1"/>
                <path fill="#DDA2A6" fill-rule="nonzero" d="M164 185L163.83 186.744 150.23 327 144 326.691 158.332 186.744 158.492 185.152z"/>
                <path fill="#000" fill-rule="nonzero" d="M223 291L219.476 290.989 219 285 222.627 285z" opacity=".1"/>
                <path fill="#DDA2A6" fill-rule="nonzero" d="M230 326.691L223.765 327 210.17 186.744 210 185 215.503 185.152 215.663 186.744z"/>
                <path fill="#FFF" fill-rule="nonzero" d="M114 50H258V188H114z"/>
                <path fill="#DDA2A6" fill-rule="nonzero" d="M189.997 2.827V35h-5.994V2.827c-.047-.995.514-1.934 1.46-2.444.947-.51 2.127-.51 3.074 0 .946.51 1.507 1.449 1.46 2.444z"/>
                <path fill="#000" fill-rule="nonzero" d="M184 33H190V35H184z" opacity=".1"/>
                <path fill="#DDA2A6" fill-rule="nonzero" d="M192 36.215V46h-9v-9.785c-.001-.322.128-.632.36-.86.23-.229.544-.356.87-.355h6.548c.677.005 1.222.548 1.222 1.215z"/>
                <circle cx="186" cy="40" r="2" fill="#000" fill-rule="nonzero" opacity=".1"/>
                <circle cx="91.5" cy="116.5" r="15.5" fill="#6C63FF" fill-rule="nonzero" opacity=".1"/>
                <circle cx="58" cy="78" r="10" fill="#6C63FF" fill-rule="nonzero" opacity=".1"/>
                <circle cx="5.5" cy="100.5" r="5.5" fill="#6C63FF" fill-rule="nonzero" opacity=".1"/>
            </g>
        </g>
    </g>
</svg>
