<svg xmlns="http://www.w3.org/2000/svg" width="57" height="57" viewBox="0 0 57 57">
    <g fill="none" fill-rule="evenodd">
        <g>
            <g>
                <g>
                    <g transform="translate(-126.000000, -527.000000) translate(55.000000, 503.000000) translate(71.000000, 24.000000)">
                        <circle cx="28.5" cy="28.5" r="28.5" fill="#252743"/>
                        <g>
                            <path fill="#0083CA" d="M40 0L16.108 11.621 21.969 14.651 10.263 22.624 16.108 25.684 0 40 24.718 25.684 19.065 22.624 31.243 14.651 26.763 11.621z" transform="translate(10.000000, 10.000000)"/>
                            <path fill="#FFF" d="M31.104 7.585L20.552 13.152 23.45 14.53 14.035 21.744 18.166 24.106 8.245 33.153 20.552 24.354 17.293 22.14 27.505 15.169 24.135 13.152z" transform="translate(10.000000, 10.000000)"/>
                        </g>
                    </g>
                </g>
            </g>
        </g>
    </g>
</svg>
