<svg xmlns="http://www.w3.org/2000/svg" width="338" height="235" viewBox="0 0 338 235">
    <defs>
        <filter id="gsc43d5zda" width="132.7%" height="152.7%" x="-16.4%" y="-26.3%" filterUnits="objectBoundingBox">
            <feOffset dy="8" in="SourceAlpha" result="shadowOffsetOuter1"/>
            <feGaussianBlur in="shadowOffsetOuter1" result="shadowBlurOuter1" stdDeviation="7.5"/>
            <feColorMatrix in="shadowBlurOuter1" result="shadowMatrixOuter1" values="0 0 0 0 0 0 0 0 0 0 0 0 0 0 0 0 0 0 0.5 0"/>
            <feMerge>
                <feMergeNode in="shadowMatrixOuter1"/>
                <feMergeNode in="SourceGraphic"/>
            </feMerge>
        </filter>
    </defs>
    <g fill="none" fill-rule="evenodd">
        <g fill-rule="nonzero">
            <g filter="url(#gsc43d5zda)" transform="translate(-235 -3489) translate(268 3522)">
                <path fill="#E6E6E6" d="M188 33H244V134H188z" opacity=".416"/>
                <path fill="#102B43" d="M193 129L239 129 239 38 193 38z"/>
                <path fill="#E6E6E6" d="M210 58H224V59H210zM211 62H234V63H211zM211 67H234V68H211zM198 58H208V68H198zM210 79H224V80H210zM211 84H234V85H211zM211 88H234V89H211zM198 79H208V89H198zM210 100H224V101H210zM211 104H234V105H211zM211 109H234V110H211zM198 100H208V110H198z"/>
                <path fill="#E6E6E6" d="M33 33H89V134H33z" opacity=".416"/>
                <path fill="#102B43" d="M38 129L84 129 84 38 38 38z"/>
                <path fill="#E6E6E6" d="M55 58H69V59H55zM56 62H79V63H56zM56 67H79V68H56zM42 58H52V68H42zM55 79H69V80H55zM56 84H79V85H56zM56 88H79V89H56zM42 79H52V89H42zM55 100H69V101H55zM56 104H79V105H56zM56 109H79V110H56zM42 100H52V110H42z"/>
                <ellipse cx="136" cy="137.5" fill="#E6E6E6" opacity=".345" rx="136" ry="5.5"/>
                <path fill="#AAA7CD" d="M101 0H177V138H101z" opacity=".416"/>
                <path fill="#102B43" d="M104 134L173 134 173 3 104 3z"/>
                <path fill="#E8E827" d="M131 34H149V36H131z"/>
                <path fill="#E6E6E6" d="M131 40H162V42H131zM131 45H162V47H131z"/>
                <path fill="#E8E827" d="M114 34H128V48H114zM131 62H149V64H131z"/>
                <path fill="#E6E6E6" d="M131 68H162V70H131zM131 73H162V75H131z"/>
                <path fill="#E8E827" d="M114 62H128V76H114zM131 91H149V93H131z"/>
                <path fill="#E6E6E6" d="M131 97H162V99H131zM131 102H162V104H131z"/>
                <path fill="#E8E827" d="M114 91H128V105H114z"/>
                <path fill="#FFB8B8" d="M111 97.616l-.925 4.004s.309 9.239-2.157 8.315c-2.466-.924-1.85-8.931-1.85-8.931L108.226 97l2.774.616z"/>
                <circle cx="97" cy="48" r="6" fill="#FFB8B8"/>
                <path fill="#FFB8B8" d="M91.59 50L91 59.063l7.378.937s0-7.5.59-8.438C99.56 50.626 91.59 50 91.59 50z"/>
                <path fill="#F55F44" d="M109 62.113l-10.015-4.176s-4.784-3.634-7.59-.947l-1.261 1.774S79 63.027 79 66.376l4.33 16.748s-2.474 9.44 1.237 10.049L104.67 95s2.784-3.35.31-7.613l.927-10.048L109 62.113z"/>
                <path fill="#DB4327" d="M103 62.307l6.6-.307s2.1.614 3.6 6.449c1.5 5.834 1.8 15.354 1.8 15.354L111.4 101l-4.5-.614 1.8-16.583-3-11.055-2.7-10.44zM83.059 63l-3.19 1.037s-2.693 4.183-2.693 6.333c0 2.15-1.176 18.425-1.176 18.425L83.647 102 86 95.551l-4.706-8.291 3.824-10.134L83.058 63z"/>
                <path fill="#B5B5CB" d="M105.2 93.942L83.631 92S81.5 105.912 81.8 111.436c.3 5.525.6 14.119.6 14.119L80 163l9.3-1.228 1.2-31 3.9-16.88 4.5 21.485 3 27.623 8.1-.92-2.7-33.456s2.4-30.079-2.1-34.682z"/>
                <path fill="#4E4D64" d="M109.387 161l2.874.834s6.068-1.39 4.471 2.224c-1.596 3.613-6.067 3.057-6.067 3.057s-5.43 3.614-7.665.834l1.277-5.837 5.11-1.112zM86.387 161l2.874.834s6.068-1.39 4.471 2.224c-1.596 3.613-6.067 3.057-6.067 3.057s-5.43 3.614-7.665.834l1.277-5.837 5.11-1.112z"/>
                <path fill="#923C3C" d="M92.885 54s-6.187-4.798-2.946-10.555c2.248-3.994 6.907-3.678 9.55-3.11 1.445.29 2.666 1.333 3.265 2.79.442 1.12.442 2.239-1.325 2.239-3.536 0-1.768 2.879-1.768 2.879s-2.357.64-1.768 2.878c.59 2.24-5.008 2.879-5.008 2.879z"/>
            </g>
        </g>
    </g>
</svg>
