<svg xmlns="http://www.w3.org/2000/svg" width="22.813" height="22.813" viewBox="0 0 22.813 22.813">
    <defs>
        <style>
            .cls-1{fill:#e8e828;stroke:#1f2131}
        </style>
    </defs>
    <g id="pushpin" transform="translate(.507 .501)">
        <path id="Path_131" d="M324.462 8.09l-6.625-6.625a.639.639 0 0 1 0-.9 1.917 1.917 0 0 1 2.71 0l4.818 4.818a1.917 1.917 0 0 1 0 2.71.639.639 0 0 1-.903-.003z" class="cls-1" transform="translate(-304.121)"/>
        <g id="Group_243" transform="translate(0 3.423)">
            <g id="Group_241" transform="translate(0 9.423)">
                <path id="Path_132" d="M1.853 306.627a7.115 7.115 0 0 0-1.83 3.154.639.639 0 0 0 .784.784 7.115 7.115 0 0 0 3.154-1.83l5-5-2.108-2.108z" class="cls-1" transform="translate(0 -301.628)"/>
            </g>
            <path id="Path_133" d="M107.487 127.164a5.863 5.863 0 0 0-3.114 1.631l-.74.74a.639.639 0 0 0 0 .9l8.432 8.432a.639.639 0 0 0 .9 0l.74-.74a5.894 5.894 0 0 0 1.606-5.347l-5.595-5.595a5.869 5.869 0 0 0-2.233-.025z" class="cls-1" transform="translate(-99.041 -125.08)"/>
            <g id="Group_242" transform="translate(12.12)">
                <path id="Path_134" d="M0 0h2.467v6.388H0z" class="cls-1" transform="rotate(-45 2.105 .872)"/>
            </g>
        </g>
    </g>
</svg>
