<svg xmlns="http://www.w3.org/2000/svg" width="130" height="136.104" viewBox="0 0 130 136.104">
    <defs>
        <filter id="Path_465" width="27.409" height="35.748" x="7.138" y="100.357" filterUnits="userSpaceOnUse">
            <feOffset dy="10"/>
            <feGaussianBlur result="blur" stdDeviation="1"/>
            <feFlood/>
            <feComposite in2="blur" operator="in"/>
            <feComposite in="SourceGraphic"/>
        </filter>
        <filter id="Path_466" width="27.409" height="35.748" x="36.576" y="100.357" filterUnits="userSpaceOnUse">
            <feOffset dy="10"/>
            <feGaussianBlur result="blur-2" stdDeviation="1"/>
            <feFlood/>
            <feComposite in2="blur-2" operator="in"/>
            <feComposite in="SourceGraphic"/>
        </filter>
        <filter id="Path_467" width="27.409" height="35.748" x="66.014" y="100.357" filterUnits="userSpaceOnUse">
            <feOffset dy="10"/>
            <feGaussianBlur result="blur-3" stdDeviation="1"/>
            <feFlood/>
            <feComposite in2="blur-3" operator="in"/>
            <feComposite in="SourceGraphic"/>
        </filter>
        <filter id="Path_468" width="27.409" height="35.748" x="95.452" y="100.357" filterUnits="userSpaceOnUse">
            <feOffset dy="10"/>
            <feGaussianBlur result="blur-4" stdDeviation="1"/>
            <feFlood/>
            <feComposite in2="blur-4" operator="in"/>
            <feComposite in="SourceGraphic"/>
        </filter>
        <filter id="Path_469" width="32.762" height="35.748" x="48.619" y="0" filterUnits="userSpaceOnUse">
            <feOffset dy="10"/>
            <feGaussianBlur result="blur-5" stdDeviation="1"/>
            <feFlood/>
            <feComposite in2="blur-5" operator="in"/>
            <feComposite in="SourceGraphic"/>
        </filter>
        <filter id="Path_470" width="73.119" height="51.413" x="28.441" y="25.816" filterUnits="userSpaceOnUse">
            <feOffset dy="10"/>
            <feGaussianBlur result="blur-6" stdDeviation="1"/>
            <feFlood/>
            <feComposite in2="blur-6" operator="in"/>
            <feComposite in="SourceGraphic"/>
        </filter>
        <filter id="Path_471" width="27.411" height="54.473" x="8.475" y="14.727" filterUnits="userSpaceOnUse">
            <feOffset dy="10"/>
            <feGaussianBlur result="blur-7" stdDeviation="1"/>
            <feFlood/>
            <feComposite in2="blur-7" operator="in"/>
            <feComposite in="SourceGraphic"/>
        </filter>
        <filter id="Rectangle_471" width="9" height="32" x="18" y="59.552" filterUnits="userSpaceOnUse">
            <feOffset dy="10"/>
            <feGaussianBlur result="blur-8" stdDeviation="1"/>
            <feFlood/>
            <feComposite in2="blur-8" operator="in"/>
            <feComposite in="SourceGraphic"/>
        </filter>
        <filter id="Path_472" width="12.423" height="32.536" x="23.463" y="59.411" filterUnits="userSpaceOnUse">
            <feOffset dy="10"/>
            <feGaussianBlur result="blur-9" stdDeviation="1"/>
            <feFlood/>
            <feComposite in2="blur-9" operator="in"/>
            <feComposite in="SourceGraphic"/>
        </filter>
        <filter id="Path_473" width="17.299" height="34.379" x="26.61" y="55.004" filterUnits="userSpaceOnUse">
            <feOffset dy="10"/>
            <feGaussianBlur result="blur-10" stdDeviation="1"/>
            <feFlood/>
            <feComposite in2="blur-10" operator="in"/>
            <feComposite in="SourceGraphic"/>
        </filter>
        <filter id="Path_474" width="12.423" height="32.536" x="8.476" y="59.411" filterUnits="userSpaceOnUse">
            <feOffset dy="10"/>
            <feGaussianBlur result="blur-11" stdDeviation="1"/>
            <feFlood/>
            <feComposite in2="blur-11" operator="in"/>
            <feComposite in="SourceGraphic"/>
        </filter>
        <filter id="Path_475" width="17.299" height="34.379" x=".452" y="55.004" filterUnits="userSpaceOnUse">
            <feOffset dy="10"/>
            <feGaussianBlur result="blur-12" stdDeviation="1"/>
            <feFlood/>
            <feComposite in2="blur-12" operator="in"/>
            <feComposite in="SourceGraphic"/>
        </filter>
        <filter id="Rectangle_472" width="9" height="16" x="18" y="81.552" filterUnits="userSpaceOnUse">
            <feOffset dy="10"/>
            <feGaussianBlur result="blur-13" stdDeviation="1"/>
            <feFlood/>
            <feComposite in2="blur-13" operator="in"/>
            <feComposite in="SourceGraphic"/>
        </filter>
        <filter id="Rectangle_473" width="9" height="16" x="27" y="81.552" filterUnits="userSpaceOnUse">
            <feOffset dy="10"/>
            <feGaussianBlur result="blur-14" stdDeviation="1"/>
            <feFlood/>
            <feComposite in2="blur-14" operator="in"/>
            <feComposite in="SourceGraphic"/>
        </filter>
        <filter id="Rectangle_474" width="8" height="15" x="36" y="80.552" filterUnits="userSpaceOnUse">
            <feOffset dy="10"/>
            <feGaussianBlur result="blur-15" stdDeviation="1"/>
            <feFlood/>
            <feComposite in2="blur-15" operator="in"/>
            <feComposite in="SourceGraphic"/>
        </filter>
        <filter id="Rectangle_475" width="9" height="16" x="8" y="81.552" filterUnits="userSpaceOnUse">
            <feOffset dy="10"/>
            <feGaussianBlur result="blur-16" stdDeviation="1"/>
            <feFlood/>
            <feComposite in2="blur-16" operator="in"/>
            <feComposite in="SourceGraphic"/>
        </filter>
        <filter id="Rectangle_476" width="9" height="15" x="0" y="80.552" filterUnits="userSpaceOnUse">
            <feOffset dy="10"/>
            <feGaussianBlur result="blur-17" stdDeviation="1"/>
            <feFlood/>
            <feComposite in2="blur-17" operator="in"/>
            <feComposite in="SourceGraphic"/>
        </filter>
        <filter id="Path_476" width="27.409" height="54.473" x="94.114" y="14.727" filterUnits="userSpaceOnUse">
            <feOffset dy="10"/>
            <feGaussianBlur result="blur-18" stdDeviation="1"/>
            <feFlood/>
            <feComposite in2="blur-18" operator="in"/>
            <feComposite in="SourceGraphic"/>
        </filter>
        <filter id="Rectangle_477" width="9" height="32" x="103" y="59.552" filterUnits="userSpaceOnUse">
            <feOffset dy="10"/>
            <feGaussianBlur result="blur-19" stdDeviation="1"/>
            <feFlood/>
            <feComposite in2="blur-19" operator="in"/>
            <feComposite in="SourceGraphic"/>
        </filter>
        <filter id="Path_477" width="12.423" height="32.536" x="94.114" y="59.411" filterUnits="userSpaceOnUse">
            <feOffset dy="10"/>
            <feGaussianBlur result="blur-20" stdDeviation="1"/>
            <feFlood/>
            <feComposite in2="blur-20" operator="in"/>
            <feComposite in="SourceGraphic"/>
        </filter>
        <filter id="Path_478" width="17.299" height="34.379" x="86.09" y="55.004" filterUnits="userSpaceOnUse">
            <feOffset dy="10"/>
            <feGaussianBlur result="blur-21" stdDeviation="1"/>
            <feFlood/>
            <feComposite in2="blur-21" operator="in"/>
            <feComposite in="SourceGraphic"/>
        </filter>
        <filter id="Path_479" width="12.423" height="32.536" x="109.101" y="59.411" filterUnits="userSpaceOnUse">
            <feOffset dy="10"/>
            <feGaussianBlur result="blur-22" stdDeviation="1"/>
            <feFlood/>
            <feComposite in2="blur-22" operator="in"/>
            <feComposite in="SourceGraphic"/>
        </filter>
        <filter id="Path_480" width="17.299" height="34.379" x="112.248" y="55.004" filterUnits="userSpaceOnUse">
            <feOffset dy="10"/>
            <feGaussianBlur result="blur-23" stdDeviation="1"/>
            <feFlood/>
            <feComposite in2="blur-23" operator="in"/>
            <feComposite in="SourceGraphic"/>
        </filter>
        <filter id="Rectangle_478" width="9" height="16" x="103" y="81.552" filterUnits="userSpaceOnUse">
            <feOffset dy="10"/>
            <feGaussianBlur result="blur-24" stdDeviation="1"/>
            <feFlood/>
            <feComposite in2="blur-24" operator="in"/>
            <feComposite in="SourceGraphic"/>
        </filter>
        <filter id="Rectangle_479" width="9" height="16" x="94" y="81.552" filterUnits="userSpaceOnUse">
            <feOffset dy="10"/>
            <feGaussianBlur result="blur-25" stdDeviation="1"/>
            <feFlood/>
            <feComposite in2="blur-25" operator="in"/>
            <feComposite in="SourceGraphic"/>
        </filter>
        <filter id="Rectangle_480" width="8" height="15" x="86" y="80.552" filterUnits="userSpaceOnUse">
            <feOffset dy="10"/>
            <feGaussianBlur result="blur-26" stdDeviation="1"/>
            <feFlood/>
            <feComposite in2="blur-26" operator="in"/>
            <feComposite in="SourceGraphic"/>
        </filter>
        <filter id="Rectangle_481" width="9" height="16" x="113" y="81.552" filterUnits="userSpaceOnUse">
            <feOffset dy="10"/>
            <feGaussianBlur result="blur-27" stdDeviation="1"/>
            <feFlood/>
            <feComposite in2="blur-27" operator="in"/>
            <feComposite in="SourceGraphic"/>
        </filter>
        <filter id="Rectangle_482" width="9" height="15" x="121" y="80.552" filterUnits="userSpaceOnUse">
            <feOffset dy="10"/>
            <feGaussianBlur result="blur-28" stdDeviation="1"/>
            <feFlood/>
            <feComposite in2="blur-28" operator="in"/>
            <feComposite in="SourceGraphic"/>
        </filter>
        <style>
            .cls-1{fill:#fff}
        </style>
    </defs>
    <g id="iconfinder_spray-robot-drone-farm-future-watering_4071413">
        <g filter="url(#Path_465)" transform="translate(1.5 -2) translate(-1.5 2)">
            <path id="Path_465-2" d="M17.8 86.367h-.185A10.7 10.7 0 0 0 7 77a10.7 10.7 0 0 0 9.367 10.612v12.136h2.676V87.612A10.7 10.7 0 0 0 28.409 77 10.7 10.7 0 0 0 17.8 86.367z" class="cls-1" transform="translate(3.14 23.36)"/>
        </g>
        <g filter="url(#Path_466)" transform="translate(1.5 -2) translate(-1.5 2)">
            <path id="Path_466-2" d="M39.8 86.367h-.185A10.7 10.7 0 0 0 29 77a10.7 10.7 0 0 0 9.367 10.612v12.136h2.676V87.612A10.7 10.7 0 0 0 50.409 77 10.7 10.7 0 0 0 39.8 86.367z" class="cls-1" transform="translate(10.58 23.36)"/>
        </g>
        <g filter="url(#Path_467)" transform="translate(1.5 -2) translate(-1.5 2)">
            <path id="Path_467-2" d="M60.367 87.612v12.136h2.676V87.612A10.7 10.7 0 0 0 72.409 77 10.7 10.7 0 0 0 61.8 86.367h-.185A10.7 10.7 0 0 0 51 77a10.7 10.7 0 0 0 9.367 10.612z" class="cls-1" transform="translate(18.01 23.36)"/>
        </g>
        <g filter="url(#Path_468)" transform="translate(1.5 -2) translate(-1.5 2)">
            <path id="Path_468-2" d="M85.043 99.748V87.612A10.7 10.7 0 0 0 94.409 77 10.7 10.7 0 0 0 83.8 86.367h-.185A10.7 10.7 0 0 0 73 77a10.7 10.7 0 0 0 9.367 10.612v12.136z" class="cls-1" transform="translate(25.45 23.36)"/>
        </g>
        <g filter="url(#Path_469)" transform="translate(1.5 -2) translate(-1.5 2)">
            <path id="Path_469-2" d="M38 15.381v9.367h26.762v-9.367a13.381 13.381 0 1 0-26.762 0zm12.043-8.029v2.676a4.019 4.019 0 0 0-4.014 4.014h-2.677a6.7 6.7 0 0 1 6.691-6.69z" class="cls-1" transform="translate(13.62 -2)"/>
        </g>
        <g filter="url(#Path_470)" transform="translate(1.5 -2) translate(-1.5 2)">
            <path id="Path_470-2" d="M57.817 50.339V42.7h9.131a21.334 21.334 0 0 1 5.588 14.422v2.581h2.676v-2.579A23.969 23.969 0 0 0 70.41 42.7h7.479V30.268h12.15a9.4 9.4 0 0 1-.107-1.338v-4.015H77.889v-3.622H35.07v3.622H23.027v4.014a9.4 9.4 0 0 1-.107 1.338h12.15V42.7h7.479a23.972 23.972 0 0 0-4.8 14.422v2.581h2.676v-2.579A21.334 21.334 0 0 1 46.01 42.7h9.131v7.636zM49.789 37.35v-10.7H63.17v10.7z" class="cls-1" transform="translate(8.52 4.52)"/>
        </g>
        <g filter="url(#Path_471)" transform="translate(1.5 -2) translate(-1.5 2)">
            <path id="Path_471-2" d="M28.768 16.878a1.45 1.45 0 0 0 0-2.409 8.266 8.266 0 0 0-9.194-.134h-1.739a8.266 8.266 0 0 0-9.194.134 1.45 1.45 0 0 0 0 2.409 8.267 8.267 0 0 0 8.724.411v7.752h-5.352v6.69a6.691 6.691 0 0 0 5.352 6.555V51.8h-2.676v2.676h8.029V51.8h-2.676V38.287a6.691 6.691 0 0 0 5.352-6.555v-6.69h-5.352v-7.753a8.269 8.269 0 0 0 8.726-.411z" class="cls-1" transform="translate(3.48 1.72)"/>
        </g>
        <g filter="url(#Rectangle_471)" transform="translate(1.5 -2) translate(-1.5 2)">
            <path id="Rectangle_471-2" d="M0 0H3V19H0z" class="cls-1" transform="translate(21 59.55)"/>
        </g>
        <g filter="url(#Path_472)" transform="translate(1.5 -2) translate(-1.5 2)">
            <path id="Path_472-2" d="M25.623 57.879a17.419 17.419 0 0 0-3.462-10.385l-.82-1.095-2.141 1.607.82 1.093a14.731 14.731 0 0 1 2.926 8.781v8.057h2.676z" class="cls-1" transform="translate(7.26 13.01)"/>
        </g>
        <g filter="url(#Path_473)" transform="translate(1.5 -2) translate(-1.5 2)">
            <path id="Path_473-2" d="M30.184 64.485l2.667-.222-.593-7.112a17.416 17.416 0 0 0-9.508-14.045l-1.2 2.394a14.721 14.721 0 0 1 8.039 11.873z" class="cls-1" transform="translate(8.06 11.9)"/>
        </g>
        <g filter="url(#Path_474)" transform="translate(1.5 -2) translate(-1.5 2)">
            <path id="Path_474-2" d="M10.676 57.879A14.723 14.723 0 0 1 13.6 49.1l.819-1.093-2.137-1.607-.819 1.093A17.412 17.412 0 0 0 8 57.879v8.057h2.676z" class="cls-1" transform="translate(3.48 13.01)"/>
        </g>
        <g filter="url(#Path_475)" transform="translate(1.5 -2) translate(-1.5 2)">
            <path id="Path_475-2" d="M2 64.263l2.667.222.593-7.112A14.721 14.721 0 0 1 13.3 45.5l-1.2-2.394a17.41 17.41 0 0 0-9.5 14.045z" class="cls-1" transform="translate(1.45 11.9)"/>
        </g>
        <g filter="url(#Rectangle_472)" transform="translate(1.5 -2) translate(-1.5 2)">
            <path id="Rectangle_472-2" d="M0 0H3V3H0z" class="cls-1" transform="translate(21 81.55)"/>
        </g>
        <g filter="url(#Rectangle_473)" transform="translate(1.5 -2) translate(-1.5 2)">
            <path id="Rectangle_473-2" d="M0 0H3V3H0z" class="cls-1" transform="translate(30 81.55)"/>
        </g>
        <g filter="url(#Rectangle_474)" transform="translate(1.5 -2) translate(-1.5 2)">
            <path id="Rectangle_474-2" d="M0 0H2V2H0z" class="cls-1" transform="translate(39 80.55)"/>
        </g>
        <g filter="url(#Rectangle_475)" transform="translate(1.5 -2) translate(-1.5 2)">
            <path id="Rectangle_475-2" d="M0 0H3V3H0z" class="cls-1" transform="translate(11 81.55)"/>
        </g>
        <g filter="url(#Rectangle_476)" transform="translate(1.5 -2) translate(-1.5 2)">
            <path id="Rectangle_476-2" d="M0 0H3V2H0z" class="cls-1" transform="translate(3 80.55)"/>
        </g>
        <g filter="url(#Path_476)" transform="translate(1.5 -2) translate(-1.5 2)">
            <path id="Path_476-2" d="M72.642 14.47a1.45 1.45 0 0 0 0 2.409 8.267 8.267 0 0 0 8.724.411v7.752h-5.352v6.69a6.691 6.691 0 0 0 5.352 6.555V51.8H78.69v2.676h8.029V51.8h-2.676V38.287a6.691 6.691 0 0 0 5.357-6.556v-6.69h-5.357v-7.752a8.264 8.264 0 0 0 8.724-.411 1.45 1.45 0 0 0 0-2.409 8.266 8.266 0 0 0-9.194-.134h-1.738a8.263 8.263 0 0 0-9.193.135z" class="cls-1" transform="translate(25.11 1.72)"/>
        </g>
        <g filter="url(#Rectangle_477)" transform="translate(1.5 -2) translate(-1.5 2)">
            <path id="Rectangle_477-2" d="M0 0H3V19H0z" class="cls-1" transform="translate(106 59.55)"/>
        </g>
        <g filter="url(#Path_477)" transform="translate(1.5 -2) translate(-1.5 2)">
            <path id="Path_477-2" d="M74.676 57.879A14.731 14.731 0 0 1 77.6 49.1l.82-1.093-2.138-1.607-.82 1.093A17.42 17.42 0 0 0 72 57.879v8.057h2.676z" class="cls-1" transform="translate(25.11 13.01)"/>
        </g>
        <g filter="url(#Path_478)" transform="translate(1.5 -2) translate(-1.5 2)">
            <path id="Path_478-2" d="M77.3 45.5l-1.2-2.394a17.41 17.41 0 0 0-9.5 14.045l-.6 7.112 2.667.222.593-7.112A14.721 14.721 0 0 1 77.3 45.5z" class="cls-1" transform="translate(23.09 11.9)"/>
        </g>
        <g filter="url(#Path_479)" transform="translate(1.5 -2) translate(-1.5 2)">
            <path id="Path_479-2" d="M89.623 57.879a17.419 17.419 0 0 0-3.462-10.385l-.82-1.095-2.141 1.607.82 1.093a14.731 14.731 0 0 1 2.926 8.781v8.057h2.676z" class="cls-1" transform="translate(28.9 13.01)"/>
        </g>
        <g filter="url(#Path_480)" transform="translate(1.5 -2) translate(-1.5 2)">
            <path id="Path_480-2" d="M94.184 64.485l2.667-.222-.593-7.112a17.416 17.416 0 0 0-9.508-14.045l-1.2 2.394a14.721 14.721 0 0 1 8.039 11.873z" class="cls-1" transform="translate(29.7 11.9)"/>
        </g>
        <g filter="url(#Rectangle_478)" transform="translate(1.5 -2) translate(-1.5 2)">
            <path id="Rectangle_478-2" d="M0 0H3V3H0z" class="cls-1" transform="translate(106 81.55)"/>
        </g>
        <g filter="url(#Rectangle_479)" transform="translate(1.5 -2) translate(-1.5 2)">
            <path id="Rectangle_479-2" d="M0 0H3V3H0z" class="cls-1" transform="translate(97 81.55)"/>
        </g>
        <g filter="url(#Rectangle_480)" transform="translate(1.5 -2) translate(-1.5 2)">
            <path id="Rectangle_480-2" d="M0 0H2V2H0z" class="cls-1" transform="translate(89 80.55)"/>
        </g>
        <g filter="url(#Rectangle_481)" transform="translate(1.5 -2) translate(-1.5 2)">
            <path id="Rectangle_481-2" d="M0 0H3V3H0z" class="cls-1" transform="translate(116 81.55)"/>
        </g>
        <g filter="url(#Rectangle_482)" transform="translate(1.5 -2) translate(-1.5 2)">
            <path id="Rectangle_482-2" d="M0 0H3V2H0z" class="cls-1" transform="translate(124 80.55)"/>
        </g>
    </g>
</svg>
