<svg xmlns="http://www.w3.org/2000/svg" width="137" height="19" viewBox="0 0 137 19">
    <defs>
        <linearGradient id="vgjizmumwa" x1="50%" x2="50%" y1="0%" y2="100%">
            <stop offset="0%" stop-color="#219227"/>
            <stop offset="100%" stop-color="#1B751E"/>
        </linearGradient>
    </defs>
    <g fill="none" fill-rule="evenodd">
        <g>
            <g>
                <g>
                    <g transform="translate(-63.000000, -247.000000) translate(31.000000, 143.000000) translate(0.000000, 8.000000) translate(32.000000, 96.000000)">
                        <rect width="137" height="19" fill="url(#vgjizmumwa)" rx="2"/>
                        <text fill="#FFF" font-family="OpenSans-Bold, Open Sans" font-size="12" font-weight="bold">
                            <tspan x="16.893" y="14">STRONG BUY</tspan>
                        </text>
                        <g fill="#FFF" fill-rule="nonzero">
                            <path d="M17.192 9.17c-.315-.067-.42-.54-.412-.923.009-.446.162-.726.422-.77.234-.038.46-.033.674-.002-.055-.236-.124-.45-.211-.615-.297-.564-.792-.492-1.362-1.143-1.348-1.541-3.34-3.95-4.748-3.88-2 .096-8.69 3.355-9.028 3.494-.339.14-1.608-.58-1.626-1.004-.02-.426.804-1.565 1.383-1.66.58-.098 1.757.038 2.075-.136.318-.174.748-.888.748-1.178 0-.29-.748-.888-.748-.888S4.079-.018 3.704 0C3.33.02 2.826.503 2.49.465c.093.366.841.753 1.155.736.313-.014.64-.31.64-.31s.28.114.43.347c.104.162-.075.56-.374.733-.3.175-1.701-.095-2.244.04-.543.134-2.168 1.738-2.093 2.393.074.657 1.737 2.164 2.353 2.28-.41.906.02 3.108-.166 3.263-.188.154-.898-.233-1.052.156-.154.39.864 2.295.714 2.547-.15.25-.123.822-.123.822l1.581-.012c-.018-.501-.443-.83-.443-.83l-.223-1.005s1.17-.637 1.545-1.256c.112.31.636.87.86.947.224.079-.448.155-.343.467.106.313 2.568 1.233 2.608 1.412-.283.458-.079.768-.079.768L8.64 14c-.168-1.003-.89-1.324-.89-1.324l-1.153-1.305s1.127-1.327 1.236-2.677c.744.986 2.36 1.155 2.36 1.155l-1.3 3.225c-.08.199.177.926.177.926H10.6c-.093-.378-.88-.928-.88-.928l2.133-3.248.542-.01s.598 2.663.487 2.913c-.113.25-.095.965-.095.965l1.57-.039c-.037-.521-.522-.85-.522-.85l.036-3.012s.861.291 1.33-.02c-.171.543-.282 1.818-.188 2.087.094.268.428.445.691.406.262-.04 1.813-1.776 2.114-2.324.097-.177.157-.48.181-.835-.1.009-.201.02-.298.037-.205.032-.378.054-.51.027z" transform="translate(107.000000, 3.000000)"/>
                            <path d="M19.231 8.507c-.54-.346-1.233-.59-1.972-.48-.377.055-.312 1.173 0 1.231.311.058.914-.193 1.454-.019.539.173 1.287.962 1.287.713 0-.25-.23-1.097-.769-1.445z" transform="translate(107.000000, 3.000000)"/>
                        </g>
                    </g>
                </g>
            </g>
        </g>
    </g>
</svg>
