<svg xmlns="http://www.w3.org/2000/svg" width="108.019" height="114.598" viewBox="0 0 108.019 114.598">
    <defs>
        <filter id="Path_482" width="56.002" height="53.179" x="0" y="0" filterUnits="userSpaceOnUse">
            <feOffset dy="10"/>
            <feGaussianBlur result="blur" stdDeviation="1"/>
            <feFlood/>
            <feComposite in2="blur" operator="in"/>
            <feComposite in="SourceGraphic"/>
        </filter>
        <filter id="Path_483" width="37.508" height="27.84" x="9.247" y="45.445" filterUnits="userSpaceOnUse">
            <feOffset dy="10"/>
            <feGaussianBlur result="blur-2" stdDeviation="1"/>
            <feFlood/>
            <feComposite in2="blur-2" operator="in"/>
            <feComposite in="SourceGraphic"/>
        </filter>
        <filter id="Rectangle_483" width="9.277" height="16.277" x="23.363" y="98.32" filterUnits="userSpaceOnUse">
            <feOffset dy="10"/>
            <feGaussianBlur result="blur-3" stdDeviation="1"/>
            <feFlood/>
            <feComposite in2="blur-3" operator="in"/>
            <feComposite in="SourceGraphic"/>
        </filter>
        <filter id="Rectangle_484" width="9.277" height="16.277" x="23.363" y="91.766" filterUnits="userSpaceOnUse">
            <feOffset dy="10"/>
            <feGaussianBlur result="blur-4" stdDeviation="1"/>
            <feFlood/>
            <feComposite in2="blur-4" operator="in"/>
            <feComposite in="SourceGraphic"/>
        </filter>
        <filter id="Rectangle_485" width="9.277" height="47.412" x="23.363" y="54.076" filterUnits="userSpaceOnUse">
            <feOffset dy="10"/>
            <feGaussianBlur result="blur-5" stdDeviation="1"/>
            <feFlood/>
            <feComposite in2="blur-5" operator="in"/>
            <feComposite in="SourceGraphic"/>
        </filter>
        <filter id="Path_484" width="37.508" height="27.84" x="61.685" y="34.758" filterUnits="userSpaceOnUse">
            <feOffset dy="10"/>
            <feGaussianBlur result="blur-6" stdDeviation="1"/>
            <feFlood/>
            <feComposite in2="blur-6" operator="in"/>
            <feComposite in="SourceGraphic"/>
        </filter>
        <filter id="Rectangle_486" width="9.277" height="16.279" x="75.8" y="0" filterUnits="userSpaceOnUse">
            <feOffset dy="10"/>
            <feGaussianBlur result="blur-7" stdDeviation="1"/>
            <feFlood/>
            <feComposite in2="blur-7" operator="in"/>
            <feComposite in="SourceGraphic"/>
        </filter>
        <filter id="Rectangle_487" width="9.277" height="16.277" x="75.8" y="6.555" filterUnits="userSpaceOnUse">
            <feOffset dy="10"/>
            <feGaussianBlur result="blur-8" stdDeviation="1"/>
            <feFlood/>
            <feComposite in2="blur-8" operator="in"/>
            <feComposite in="SourceGraphic"/>
        </filter>
        <filter id="Rectangle_488" width="9.277" height="40.857" x="75.8" y="13.109" filterUnits="userSpaceOnUse">
            <feOffset dy="10"/>
            <feGaussianBlur result="blur-9" stdDeviation="1"/>
            <feFlood/>
            <feComposite in2="blur-9" operator="in"/>
            <feComposite in="SourceGraphic"/>
        </filter>
        <filter id="Path_528" width="55.16" height="62.16" x="52.859" y="52.438" filterUnits="userSpaceOnUse">
            <feOffset dy="10"/>
            <feGaussianBlur result="blur-10" stdDeviation="1"/>
            <feFlood/>
            <feComposite in2="blur-10" operator="in"/>
            <feComposite in="SourceGraphic"/>
        </filter>
        <filter id="Path_529" width="25.664" height="49.051" x="67.607" y="58.992" filterUnits="userSpaceOnUse">
            <feOffset dy="10"/>
            <feGaussianBlur result="blur-11" stdDeviation="1"/>
            <feFlood/>
            <feComposite in2="blur-11" operator="in"/>
            <feComposite in="SourceGraphic"/>
        </filter>
        <style>
            .cls-1{fill:#fff}
        </style>
    </defs>
    <g id="iconfinder_Pawnshop_28_2181271">
        <g filter="url(#Path_482)" transform="translate(2.257 -1) translate(-2.26 1)">
            <path id="Path_482-2" d="M8.481 1L.743 12.605l25 28.574 25-28.574L43.008 1zm20.763 3.277h9.826l-4.37 6.55zm1.193 6.555h-9.388L25.744 5.2zm-13.652 0l-4.367-6.55h9.825zm-3.934 0H5.865l3.492-5.239zm3.5 3.277l5.519 17.658L6.414 14.109zM27.765 26.73l-2.021 6.47-5.965-19.091h11.932l-2.92 9.344 3.127.977 3.225-10.32h9.934L29.625 31.768l1.268-4.061zm10.873-15.9l3.494-5.239 3.492 5.239z" class="cls-1" transform="translate(2.26 -1)"/>
        </g>
        <g filter="url(#Path_483)" transform="translate(2.257 -1) translate(-2.26 1)">
            <path id="Path_483-2" d="M6.386 40.987L8.4 43.573l13.74-10.688 13.742 10.688 2.012-2.586L22.14 28.733z" class="cls-1" transform="translate(5.86 16.71)"/>
        </g>
        <g filter="url(#Rectangle_483)" transform="translate(2.257 -1) translate(-2.26 1)">
            <path id="Rectangle_483-2" d="M0 0H3.277V3.277H0z" class="cls-1" transform="translate(26.36 98.32)"/>
        </g>
        <g filter="url(#Rectangle_484)" transform="translate(2.257 -1) translate(-2.26 1)">
            <path id="Rectangle_484-2" d="M0 0H3.277V3.277H0z" class="cls-1" transform="translate(26.36 91.77)"/>
        </g>
        <g filter="url(#Rectangle_485)" transform="translate(2.257 -1) translate(-2.26 1)">
            <path id="Rectangle_485-2" d="M0 0H3.277V34.412H0z" class="cls-1" transform="translate(26.36 54.08)"/>
        </g>
        <g filter="url(#Path_484)" transform="translate(2.257 -1) translate(-2.26 1)">
            <path id="Path_484-2" d="M69.894 24.8l-2.012-2.586L54.14 32.9 40.4 22.211 38.386 24.8 54.14 37.051z" class="cls-1" transform="translate(26.3 12.55)"/>
        </g>
        <g filter="url(#Rectangle_486)" transform="translate(2.257 -1) translate(-2.26 1)">
            <path id="Rectangle_486-2" d="M0 0H3.277V3.279H0z" class="cls-1" transform="translate(78.8)"/>
        </g>
        <g filter="url(#Rectangle_487)" transform="translate(2.257 -1) translate(-2.26 1)">
            <path id="Rectangle_487-2" d="M0 0H3.277V3.277H0z" class="cls-1" transform="translate(78.8 6.55)"/>
        </g>
        <g filter="url(#Rectangle_488)" transform="translate(2.257 -1) translate(-2.26 1)">
            <path id="Rectangle_488-2" d="M0 0H3.277V27.857H0z" class="cls-1" transform="translate(78.8 13.11)"/>
        </g>
        <g filter="url(#Path_528)" transform="translate(2.257 -1) translate(-2.26 1)">
            <path id="Path_528-2" d="M57.58 33a24.58 24.58 0 1 0 24.58 24.58A24.608 24.608 0 0 0 57.58 33zm0 45.883a21.3 21.3 0 1 1 21.3-21.3 21.327 21.327 0 0 1-21.3 21.3z" class="cls-1" transform="translate(22.86 19.44)"/>
        </g>
        <g filter="url(#Path_529)" transform="translate(2.257 -1) translate(-2.26 1)">
            <path id="Path_529-2" d="M53.471 40.277V37h-3.278v3.277a8.193 8.193 0 0 0 0 16.387h3.277a4.916 4.916 0 1 1 0 9.832h-3.277a4.922 4.922 0 0 1-4.916-4.916v-1.639H42v1.639a8.2 8.2 0 0 0 8.193 8.193v3.277h3.277v-3.277a8.193 8.193 0 0 0 0-16.387h-3.277a4.916 4.916 0 1 1 0-9.832h3.277a4.922 4.922 0 0 1 4.916 4.916v1.639h3.277v-1.638a8.2 8.2 0 0 0-8.192-8.194z" class="cls-1" transform="translate(28.61 21.99)"/>
        </g>
    </g>
</svg>
