<?xml version="1.0" encoding="UTF-8"?>
<svg width="12px" height="11px" viewBox="0 0 12 11" version="1.1" xmlns="http://www.w3.org/2000/svg" xmlns:xlink="http://www.w3.org/1999/xlink">
    <!-- Generator: Sketch 60 (88103) - https://sketch.com -->
    <title>uparrowG</title>
    <desc>Created with Sketch.</desc>
    <g id="Page-1" stroke="none" stroke-width="1" fill="none" fill-rule="evenodd" stroke-linecap="round" stroke-linejoin="round">
        <g id="Artboard" transform="translate(-602.000000, -422.000000)" stroke="#0FAA14" stroke-width="2">
            <g id="uparrowG" transform="translate(603.000000, 423.000000)">
                <polyline id="Stroke-1" transform="translate(5.000000, 2.272727) rotate(-180.000000) translate(-5.000000, -2.272727) " points="10 2.06945572e-13 4.97652767 4.54545455 0 2.06945572e-13"></polyline>
                <polyline id="Stroke-1-Copy" transform="translate(5.000000, 6.272727) rotate(-180.000000) translate(-5.000000, -6.272727) " points="10 4 4.97652767 8.54545455 0 4"></polyline>
            </g>
        </g>
    </g>
</svg>