<svg width="178" height="141" xmlns="http://www.w3.org/2000/svg">
    <defs>
        <linearGradient x1="50.061%" y1="100.017%" x2="50.061%" y2="-.038%" id="a">
            <stop stop-color="gray" stop-opacity=".25" offset="0%"/>
            <stop stop-color="gray" stop-opacity=".12" offset="54%"/>
            <stop stop-color="gray" stop-opacity=".1" offset="100%"/>
        </linearGradient>
    </defs>
    <g transform="translate(-13 -18)" fill="none" fill-rule="evenodd">
        <ellipse fill="#646AAB" opacity=".238" transform="rotate(-14 102.073 79.228)" cx="102.073" cy="79.228" rx="90" ry="58.5"/>
        <g fill-rule="nonzero">
            <g opacity=".9" transform="translate(88 48)">
                <rect fill="#3A3768" x="47.446" y="22.003" width="1.423" height="11.746" rx=".712"/>
                <rect fill="#3A3768" x=".143" y="12.801" width="1" height="3.867" rx=".5"/>
                <rect fill="#3A3768" x=".114" y="19.881" width="1" height="6.73" rx=".5"/>
                <rect fill="#3A3768" x=".129" y="28.966" width="1" height="6.788" rx=".5"/>
                <rect fill="#767DC9" x=".596" y=".023" width="47.618" height="96.902" rx="6"/>
                <rect fill="#E6E8EC" x="19.81" y="2.915" width="6.65" height="1.351" rx=".676"/>
                <circle fill="#E6E8EC" cx="28.232" cy="3.592" r="1"/>
            </g>
            <path d="M129.284 50h-5.35v.652c0 1.706-1.37 3.088-3.06 3.088H103.8c-1.69 0-3.06-1.382-3.06-3.088V50h-5.025c-.985 0-1.93.395-2.627 1.099A3.768 3.768 0 0 0 92 53.75v83.498c0 .994.39 1.949 1.087 2.652A3.696 3.696 0 0 0 95.714 141h33.57c2.052 0 3.716-1.68 3.716-3.751V53.75c0-2.071-1.664-3.751-3.716-3.751z" fill="#4A519C"/>
            <g transform="translate(106 53)">
                <ellipse fill="#1E202F" cx="31.935" cy="102.777" rx="28.065" ry="2.914"/>
                <path fill="#3A3768" opacity=".3" d="M3.871 8.568h23.226v23.309H3.871z"/>
                <path fill="#F2F2F2" d="M4.696 16.053 22.239.086l15.874 17.647L20.57 33.7z"/>
                <path d="m11.613 14.78.928 2.482 6.06 6.845 2.029-2.036 1.277 1.44 1.352-1.361.077-2.799 1.69-1.7.135-4.902-5.422-6.124-8.126 8.155zm12.218-1.371-.077 2.801-2.03 2.037-.077 2.802-1.274-1.44-1.692 1.7-5.435-6.127 6.425-6.457 4.16 4.684z" fill="#00B0FF"/>
                <path d="m19.727 13.395.99-.942 2.509 2.685-.99.939-2.51-2.682zm-2.308 2.2.99-.945 2.506 2.688-.99.942-2.506-2.685z" fill="#00B0FF"/>
                <path d="M44.508 101.862c-.244-1.042-.39-1.954-.39-1.954a4.085 4.085 0 0 0-.448-1.984v-2.382c.142-.38.317-.747.522-1.096.373-.657 0-3.069 0-3.069s-1.381-3.4-1.048-5.557c.333-2.157-2.835-9.58-2.835-9.58.02-.717.12-1.43.3-2.126.034-.145.047-.294.04-.443a.335.335 0 0 0 0-.055v.018c-.049-1.422-1.16-4.09-1.16-4.09l.15-5.079s.709-2.999-.448-7.021a37.621 37.621 0 0 1-.829-3.394c-.018-.097-.036-.191-.05-.282 2.381-.368 4.204-.675 4.204-.675s-1.381-5.848-2.315-6.872c-.935-1.024-1.68-4.238-1.68-4.238s-.486-4.132.301-5.338c.787-1.206.901-3.29.901-3.29s1.802-1.316 2.015-1.903c.318-.832.52-1.705.601-2.594 0-.696-.225-1.316-.15-1.683.075-.368-.523-1.753-.222-2.413a1.783 1.783 0 0 0 .117-.653 9.134 9.134 0 0 0-.16-1.716 4.788 4.788 0 0 0-1.771-.96l-.04-.155-.102-.41a1.366 1.366 0 0 0-.177-.107v-.759l.28-1.337C40.665 16.347 37.602 16 37.602 16a1.622 1.622 0 0 0-.868-.771c-.601-.219-.103 3.494.186 3.73.216.177.9 1.343 1.201 1.915l.054.094a1.227 1.227 0 0 0-.14.149l.116.805.018.124a3.317 3.317 0 0 0-.49.842s.562.623.448 1.318c-.043.543.02 1.09.186 1.608-.033-.04-.426-.471-.82-.365-.393.106-1.501.438-1.501.438s-.823.145-.748.328c.075.182-.559.987-.559.987l-2.207-2.127a4.814 4.814 0 0 1-.066-.191 5.155 5.155 0 0 1-.19-.911c.24-.058.475-.135.703-.228.229-.082.435-.217.6-.395a2.43 2.43 0 0 0 .355-.963c.174-.65.55-1.23.82-1.848a6.073 6.073 0 0 0 .427-3.296 2.21 2.21 0 0 0-.337-.972c-.36-.502-1.015-.705-1.501-1.106-.487-.401-.781-1.009-1.337-1.31a2.606 2.606 0 0 0-1.676-.145 8.891 8.891 0 0 0-3.127 1.148c-.324.194-.675.416-1.048.35a1.416 1.416 0 0 1-.754-.56.15.15 0 0 1 0-.033l-.027-.027a4.04 4.04 0 0 0-.342 1.67v.359a.695.695 0 0 1 0 .08.54.54 0 0 1-.018.118.86.86 0 0 1-.204.303c-.07.076-.13.16-.18.25 0-.03.017-.061.03-.092-.142.207-.222.45-.232.702a.704.704 0 0 0 .168.505c.11.112.23.214.358.303a4.33 4.33 0 0 0 2.015 4.427l.075.191c.32.768.457 1.6.4 2.43 0 .062 0 .12-.027.18l-.078.091s-3.647.037-4.506-.75c-.859-.787-2.165 1.92-2.165 1.92s-1.307.258-1.568 0c-.261-.258-1.802-.036-1.802-.036a3.281 3.281 0 0 0-2.277-.839 6.667 6.667 0 0 0-1.673-.942l-.042-.015a1.848 1.848 0 0 0-.823-.103s-1.802-1.501-2.312-2.303c-.51-.802-3.004-3.789-3.025-3.804v-.143l-.03-.434c-.073.012-.148.019-.222.021 0-.046-.03-.094-.051-.152a8.252 8.252 0 0 0-.529-1.215s0-.547.16-.684c.159-.136-.067-2.148-.067-2.148s-1.616-3.819-3.06-.969c0 0-2.736 1.844-.442 3.995 0 0 .901.447 1.045.802.088.231.397.878.601 1.307l.093.191-.027.021.036.359v.14c-.432.246-.724.492-.654.68.128.317.216.649.26.988 0 0 3.175 4.02 3.587 5.739 0 0 8.512 5.116 11.311 5.484l-.483 2.558c-.073.692-.11 1.388-.112 2.084.036.547-.336 3.038-.336 3.038s-.487 3.646-.901 4.165c-.415.52-.336 2.707-.336 2.707a18.446 18.446 0 0 1-.56 3.105c-.41 1.392-.11 3.108-.11 3.108s-1.42 3.29 1.98 1.06c0 0 1.666-.103 3.603-.17v1c-.024 1.884-.036 4.481.048 6.447.15 3.473 1.202 10.33 1.202 10.33v3.451a4.881 4.881 0 0 0-.096.988 6.455 6.455 0 0 0 .919 3.457l.261 2.303s.6 1.519.625 2.43a1.207 1.207 0 0 1-.027.22 1.653 1.653 0 0 0-.03.352c-.033 1.045.6 3.548.6 3.548s.04 2.522.412 2.668c.318.124-.427 1.455-.649 1.823a.614.614 0 0 1-.015-.073c-.027.048-.045.076-.045.076a1.79 1.79 0 0 0-.117.638.915.915 0 0 0 .414.887c.71.44 1.09.805.49.95-.222.035-.441.081-.658.14 0-.027-.024-.057-.033-.085a.408.408 0 0 0-.234.423c.006.298.084.591.225.853.263.66.602 1.286 1.01 1.866l.3-.034c-.044.108-.1.21-.169.304a1.167 1.167 0 0 1-.42.377c-.157.094-.33.155-.51.18-.41.01-.796.2-1.058.519-.372.486-.6 1.151.13 1.735l2.67.93s4.592.607 4.348-.438c-.243-1.045-.39-1.954-.39-1.954a4.163 4.163 0 0 0-.375-1.85 1.827 1.827 0 0 0-.163-.274l.163-.018s.336-2.303.783-2.734c.106-.1.13-.18.103-.24.048-.125-.07-.198-.22-.24l-.033.091a2.228 2.228 0 0 0-.444-.049s-.15-1.215.333-1.646c.08-.101.115-.23.096-.359a2.089 2.089 0 0 0-.05-.492l-.019.03a17.67 17.67 0 0 0-1.072-2.834s-.036-1.097.261-1.537c.298-.441-.036-5.958-.036-5.958s.111-2.668-.225-3.91c-.336-1.243.411-2.707.411-2.707v-.098l-.045-.422v.027c-.075-.707-.216-1.987-.321-2.576-.15-.841.036-4.861.036-4.861l.673-1.717 1.201 2.96 1.268 3.95a3.38 3.38 0 0 1 .645 1.676v.125a2.007 2.007 0 0 0 0 .264c-.02.499.115.991.388 1.407 0 0 .336 1.865.859 2.34.522.473.522 1.388.522 1.388s.634 2.707.935 3.18c.252.402.264 1.501.26 1.824v.1s.088.966.085 1.78v.304-.021c0 .22-.027.441-.078.656v.04-.137a6.837 6.837 0 0 0-.192 1.686c-.018.972.129 2.127.711 2.798 1.01 1.17 1.643 1.024 1.643 1.024s-.486 1.461-1.084 1.756a.36.36 0 0 0-.063.04c0-.028 0-.058-.015-.086a.72.72 0 0 0-.174.547c.027.78.284 1.535.739 2.166.14.143.313.247.504.304l-.093.058c-.067.037-.136.07-.207.1a.97.97 0 0 1-.3.08c-.41.01-.796.2-1.058.519-.372.486-.6 1.151.13 1.735l2.67.93s4.535.619 4.304-.438z" fill="url(#a)"/>
                <path d="m25.664 103.556-2.067-1.022c-.569-.642-.386-1.374-.098-1.908.198-.348.497-.557.816-.572a.85.85 0 0 0 .396-.197c.131-.1.243-.242.327-.414.153-.332.236-.718.24-1.113 0 0 2.268-.922 2.88 0 .111.168.204.357.277.562.204.64.302 1.335.288 2.034 0 0 .115 1.003.302 2.149.187 1.146-3.36.481-3.36.481zM39.211 101.614l-2.064-1.023c-.57-.64-.388-1.372-.1-1.904.198-.35.498-.56.818-.574a.587.587 0 0 0 .24-.087 1.13 1.13 0 0 0 .158-.11c.579-.441.564-1.527.564-1.527s2.266-.925 2.88 0c.083.125.156.263.216.411.244.677.363 1.428.348 2.185 0 0 .115 1.002.302 2.148.188 1.145-3.362.48-3.362.48z" fill="#2D293D"/>
                <path d="M28.56 98.445c.19.214.35.456.472.718l-5.806.7c.261-.425.403-.917.41-1.422 0 0 3.867-1.174 4.925.004zM42.58 97.233v1.34c-.8 1.835-4.68 1.436-5.806.505.083-.047.164-.103.24-.167.879-.667.857-2.31.857-2.31s3.438-1.401 4.37 0c.131.191.245.403.34.632z" fill="#000" opacity=".1"/>
                <path d="M42.424 94.658a7.454 7.454 0 0 0-.497 1.113v2.932c-.705 1.234-4.383.818-4.877.149-.493-.67-1.025-2.412-.461-2.708.564-.296 1.025-1.782 1.025-1.782s-.587.148-1.554-1.04c-.967-1.187-.67-3.82-.493-4.452.176-.632 0-2.745 0-2.745s.035-1.483-.247-1.967c-.282-.484-.882-3.229-.882-3.229s0-.925-.493-1.409c-.494-.484-.814-2.374-.814-2.374a2.53 2.53 0 0 1-.353-1.594c.106-.926-.602-1.93-.602-1.93l-1.202-4.01-1.13-3.006-.635 1.742s-.18 4.083-.036 4.934.353 3.114.353 3.114-.708 1.487-.388 2.748c.32 1.261.212 3.969.212 3.969s.317 5.603.035 6.05c-.282.447-.247 1.542-.247 1.542s1.448 3.265.987 3.7c-.461.435-.317 1.671-.317 1.671s.99 0 .567.444c-.423.444-.743 2.776-.743 2.776l-4.281.567a9.665 9.665 0 0 1-.958-1.893c-.564-1.373.106-1.234.676-1.373.57-.138.208-.518-.464-.965-.673-.447-.294-1.446-.294-1.446s1.025-1.82.673-1.967c-.353-.148-.391-2.708-.391-2.708s-.705-3.043-.529-3.857c.176-.815-.567-2.776-.567-2.776l-.247-2.337a6.697 6.697 0 0 1-.764-4.422v-3.611s-.99-6.975-1.134-10.484c-.088-2.258-.065-5.338-.035-7.262.018-1.077.035-1.792.035-1.792l15.278-1.668c.025.8.118 1.597.28 2.38.155.88.399 2.02.78 3.445 1.097 4.08.427 7.123.427 7.123l-.141 5.156s1.342 3.45 1.06 4.625c-.174.706-.272 1.43-.293 2.159 0 0 3.005 7.533 2.688 9.723-.317 2.189.993 5.624.993 5.624s.353 2.467 0 3.12z" fill="#464353"/>
                <path d="m34.839 75.47 5.806-.859s-3.282 3.724-5.806.86z" fill="#000" opacity=".05"/>
                <path d="M38.23 68.784s.277 2.82-1.456 3.885c0 0 3.098-.485 1.456-3.885zM38.71 62.956s-4.114 4.21-5.602 3.865c-1.487-.344 5.602-3.865 5.602-3.865zM27.097 76.554s-3.741 1.226-3.868 3.385c-.127 2.16 3.868-3.385 3.868-3.385z" fill="#000" opacity=".1"/>
                <path d="M28.337 92.093s-4.142 1.337-2.965 2.25a14.693 14.693 0 0 0 3.108 1.635s1.333.12-.143-3.885z" fill="#000" opacity=".05"/>
                <g opacity=".05" fill="#000">
                    <path d="M24.793 94.677a.861.861 0 0 1-.38-.628l-.04.08s-.388.987.292 1.429c.076.048.148.1.216.149.122-.025.256-.043.382-.076.554-.134.198-.503-.47-.954zM30.127 94.397c.114-.11.108-.393.041-.756a2.12 2.12 0 0 0-.236 1.063.817.817 0 0 1 .195-.307zM29.489 76.157a5.237 5.237 0 0 0-.292 1.347c.08-.314.187-.62.32-.914 0 0 .007-.177-.028-.433zM38.97 74.232c.028-.132.04-.267.038-.402-.053.274-.088.53-.114.752.024-.116.047-.231.076-.35zM29.39 89.192c.08-.262.116-.538.104-.813-.13.325-.199.674-.2 1.027.023-.075.055-.147.095-.214zM30.259 96.103c-.217.736-.378 1.49-.482 2.252l-4.243.515a9.329 9.329 0 0 1-.951-1.871 3.357 3.357 0 0 1-.12-.323c-.253.122-.355.396-.02 1.219a9.22 9.22 0 0 0 .95 1.867l4.241-.515s.318-2.31.738-2.742c.207-.234.076-.344-.113-.402zM24.653 89.518s.035 2.532.385 2.679c.178-.418.292-.814.137-.88-.35-.147-.385-2.676-.385-2.676s-.703-3.007-.525-3.815c.178-.807-.563-2.742-.563-2.742l-.245-2.31a6.603 6.603 0 0 1-.773-4.363v-3.562s-.982-6.892-1.122-10.375c-.09-2.23-.065-5.274-.035-7.176v-.914h-.12s-.018.704-.035 1.77c-.03 1.899-.055 4.946.035 7.176.14 3.483 1.123 10.375 1.123 10.375v3.556a6.58 6.58 0 0 0 .79 4.4l.245 2.31s.738 1.94.56 2.742c-.178.801.528 3.805.528 3.805zM37.144 97.88a4.375 4.375 0 0 1-.67-1.744c-.435.409.064 1.996.53 2.624.467.628 4.142 1.063 4.845-.15v-.697c-.951.984-4.238.591-4.705-.034zM42.479 93.735c-.193.352-.356.72-.49 1.1v.515a8.63 8.63 0 0 1 .35-.734 2.31 2.31 0 0 0 .154-.914l-.014.033zM37.36 94.314c.134-.282.25-.573.347-.871 0 0-.583.146-1.546-1.027-.688-.853-.726-2.465-.63-3.52-.174.625-.457 3.228.49 4.4.622.772 1.085.97 1.34 1.018zM35.532 86.185c.06.722.084 1.448.07 2.173.023-.144.05-.26.07-.342.177-.61 0-2.712 0-2.712s.034-1.468-.245-1.943c-.28-.476-.875-3.19-.875-3.19s0-.915-.49-1.393c-.49-.479-.808-2.346-.808-2.346a2.49 2.49 0 0 1-.353-1.576c.108-.914-.583-1.907-.583-1.907l-1.193-3.961-1.138-2.953-.633 1.722s0 .216-.02.558l.513-1.399 1.123 2.968 1.193 3.96s.7.991.583 1.905a2.495 2.495 0 0 0 .365 1.56s.315 1.868.805 2.346c.49.479.493 1.393.493 1.393s.583 2.712.875 3.19c.291.478.248 1.947.248 1.947z"/>
                </g>
                <path d="m38.64 19.68-.288 1.308.016.594v.428l-1.605.155-.18-.297c-.321-.56-1.028-1.698-1.252-1.873-.3-.232-.829-3.865-.193-3.648.39.139.71.407.899.752 0 0 3.175.31 2.604 2.58z" fill="#FFCDD3"/>
                <path d="m38.71 21.762-1.74.403-.196-.775c.485-1.23 1.293-1.526 1.929-.705l.007 1.077z" fill="#000" opacity=".1"/>
                <path d="m40.645 21.618-3.588.547-.076-.355-.207-.941c.396-.345.987-.573 1.64-.631.654-.06 1.317.056 1.84.318l.18.48.211.582z" fill="#DCE6F2"/>
                <path d="M5.806 17.095 3.25 18.28l-.232-.418a41.951 41.951 0 0 1-.724-1.338c-.152-.365-1.221-.827-1.221-.827-2.68-2.206.51-4.1.51-4.1 1.692-2.93 3.576.992 3.576.992s.26 2.069.076 2.206c-.185.137-.185.705-.185.705.245.401.452.819.62 1.248.098.219.137.347.137.347z" fill="#FFCDD3"/>
                <path d="m7.742 16.778-3.55 1.502-.321-.53c.503-.328 2.277-1.462 2.86-1.41.281.022.564.022.845 0 .11.276.166.438.166.438z" fill="#000" opacity=".1"/>
                <path d="m6.922 18.075-3.744 2.272-.075-.994-.052-.68s2.169-2.295 2.829-2.208c.325.057.655.057.98 0l.043.83.019.78z" fill="#DCE6F2"/>
                <path d="M34.839 27.347s-9.256 1.038-7.527.48c1.206-.39 1.684-1.149 1.786-1.993a4.825 4.825 0 0 0-.345-2.123 9.204 9.204 0 0 0-.829-1.662s7.075-3.865 5.661-.35a5.48 5.48 0 0 0-.4 1.664 4.663 4.663 0 0 0 .178 1.683c.269.888.78 1.684 1.476 2.301z" fill="#FFCDD3"/>
                <path d="M30.782 19.821a5.99 5.99 0 0 0-.398 1.742c-.663.58-1.388.555-2.32.555-.716 0-1.51.184-2.08-.177a9.847 9.847 0 0 0-.823-1.739s7.025-4.058 5.621-.38z" fill="#000" opacity=".1"/>
                <ellipse fill="#FFCDD3" cx="29.032" cy="20.223" rx="3.871" ry="3.885"/>
                <path d="M34.839 27.243s-9.256 1.206-7.527.558c1.206-.453 1.684-1.335 1.786-2.316.46-.576 1.384-.993 1.98-1.211a2.412 2.412 0 0 1 1.676-.031c.215.067.42.17.61.308.265 1.038.776 1.97 1.475 2.692zM40.645 21.289l-3.79.876-.08-.57a3.363 3.363 0 0 1 3.647-1.24l.223.934zM6.922 18.993 3.127 20.44l-.076-.633c1.23-.51 2.508-.948 3.823-1.31l.048.496zM38.71 53.832c-4.404.692-10.672 1.597-11.667 1.295-.824-.252-3.457-.226-5.753-.148.02-1.144.04-1.904.04-1.904l17.074-1.773c.025.85.128 1.698.306 2.53z" fill="#000" opacity=".1"/>
                <path d="M42.58 52.486s-13.776 2.324-15.254 1.88c-1.479-.445-9.07.04-9.07.04-3.415 2.247-1.986-1.07-1.986-1.07s-.312-1.736.112-3.138c.275-1.028.463-2.077.562-3.137 0 0-.075-2.213.336-2.729.412-.515.902-4.207.902-4.207s.378-2.508.34-3.066c-.037-.558.112-2.1.112-2.1l.487-2.586c-2.808-.368-11.374-5.535-11.374-5.535-.412-1.732-3.603-5.792-3.603-5.792a4.213 4.213 0 0 0-.262-.997c-.225-.588 3.154-1.769 3.154-1.769s2.514 3.027 3.038 3.836c.524.81 2.327 2.325 2.327 2.325.28-.028.564.009.827.107h.044a6.687 6.687 0 0 1 1.678.947 3.286 3.286 0 0 1 2.29.85s1.541-.221 1.803.037c.262.257 1.56 0 1.56 0s1.316-2.73 2.184-1.938c.867.79 4.526.757 4.526.757.49-.638 1.675-1.095 2.421-1.33a3.276 3.276 0 0 1 1.956-.031c.278.076.54.2.774.367l2.22 2.147s.625-.813.566-.997c-.06-.184.751-.33.751-.33s1.09-.332 1.5-.445c.413-.114.793.33.824.368a4.251 4.251 0 0 1-.187-1.623A1.82 1.82 0 0 0 37.69 22c1.326-3.153 4.293-.485 4.293-.485s.337 1.733.037 2.398c-.3.666.312 2.067.225 2.435-.088.368.15.996.15 1.696a9.943 9.943 0 0 1-.6 2.621c-.227.59-2.027 1.917-2.027 1.917s-.113 2.103-.902 3.32c-.79 1.218-.312 5.388-.312 5.388s.749 3.248 1.688 4.293c.939 1.046 2.34 6.903 2.34 6.903z" fill="#F1AA50"/>
                <path d="M21.193 29.935s-.403-2.106-.773-2.285a7.728 7.728 0 0 1-1.065-.821l.238-.78s1.38.654 1.6 1.349c.22.694 0 2.537 0 2.537zM15.484 27.173c-.085.433-3.871.82-3.871.82l1.914-1.943.05.018a7.53 7.53 0 0 1 1.907 1.105zM23.226 39.647c-.036-.04 8.697 9.706 15.484 4.075 0 0-10.72 1.283-15.484-4.075zM17.42 43.532s5.255.165 5.806 1.917v1.823a.888.888 0 0 1-.972 0c-.53-.33-3.708-2.202-4.828-1.302l-.007-2.438z" fill="#000" opacity=".1"/>
                <path d="M17.42 43.532s5.254.165 5.806 1.915v1.824a.893.893 0 0 1-.979 0c-.531-.334-3.724-2.202-4.828-1.301v-2.438z" fill="#FFF"/>
                <path d="M19.355 31.877c.596 1.1 1.355 2.14 2.261 3.096a14.214 14.214 0 0 0 3.545 2.732s-5.71-5.176-5.806-5.828zM17.42 26.05s1.083 4.35 3.87 5.827l-3.87-5.827zM15.586 26.051c-.03-.088-1.01 3.718 3.769 5.826 0 0-2.019-.66-3.77-5.826zM36.776 26.053c-.096 0 3.02 1.326 3.87 1.94 0 0-2.027-2.026-3.87-1.94z" fill="#000" opacity=".1"/>
                <path d="M28.481 21.49a.853.853 0 0 0 .31.542.871.871 0 0 0 .377.083c1.218.076 2.485.129 3.625-.34.214-.074.406-.2.558-.367.16-.269.262-.57.296-.88.159-.599.496-1.119.74-1.7a5.724 5.724 0 0 0 .392-3.053 2.047 2.047 0 0 0-.304-.895c-.323-.461-.912-.648-1.338-1.017-.427-.37-.703-.931-1.2-1.208a2.327 2.327 0 0 0-1.506-.134c-.996.17-1.95.53-2.811 1.06-.28.178-.608.382-.94.32a1.292 1.292 0 0 1-.692-.53 3.732 3.732 0 0 0-.298 1.741.84.84 0 0 1 0 .263.839.839 0 0 1-.187.28c-.302.35-.488.903-.193 1.255.131.154.33.237.455.394.226.28.148.685.142 1.046a.56.56 0 0 0 .09.355c.132.122.32.167.493.117.17-.051.348-.068.524-.05a.884.884 0 0 1 .458.352c.552.716.772 1.501 1.01 2.365z" fill="#2D293D"/>
                <path d="M32.71 23.102a1.18 1.18 0 0 1-.499.329c-.999.428-2.142.377-3.231.31a.725.725 0 0 1-.337-.077.762.762 0 0 1-.28-.489c-.212-.783-.407-1.497-.912-2.146a.78.78 0 0 0-.41-.32c-.157-.015-.317 0-.469.046a.46.46 0 0 1-.442-.106.497.497 0 0 1-.077-.322c0-.327.072-.694-.13-.947-.112-.142-.29-.218-.407-.358a.723.723 0 0 1-.068-.73c-.192.31-.274.705-.052.974.117.139.295.215.407.357.202.253.132.62.127.948a.512.512 0 0 0 .08.321.457.457 0 0 0 .442.107c.152-.047.312-.062.47-.046.168.057.312.17.41.32.499.65.699 1.362.911 2.145.028.194.127.37.277.492.106.05.22.076.337.076 1.092.068 2.226.116 3.247-.31.191-.066.363-.18.5-.331a.97.97 0 0 0 .154-.294c-.015.018-.025.038-.047.05zM27.097 24.591s5.327 3.584 5.806-.484M36.774 24.107s3.172 0 3.871 1.943" opacity=".1" fill="#000"/>
            </g>
            <path fill="#3A3768" opacity=".3" d="M116 108h12v13h-12zM98 91h12v13H98zM99 125h12v13H99z"/>
            <path fill="#767DC9" d="M100 90h12v13h-12z"/>
            <path d="m133 143.443 3-.443s-1.696 1.917-3 .443z" fill="#000" opacity=".05"/>
            <path d="M134.752 140s.144 1.452-.752 2c0 0 1.6-.25.752-2zM129 144s-1.933.632-1.998 1.743C126.936 146.855 129 144 129 144z" fill="#000" opacity=".1"/>
        </g>
        <path d="M44.5 110c-.167 0-.302-.045-.302-.1v-.8c0-.055.135-.1.302-.1.167 0 .302.045.302.1v.8c0 .055-.135.1-.302.1" fill="#CDC7D9"/>
        <path d="M47 91.155s-.317.06-.79.142c-.18.034-.38.072-.595.108-.775.143-1.744.313-2.492.446-.348.058-.648.112-.864.149L41 76s3.044.988 4.092 3.831C46.134 82.67 47 91.155 47 91.155" fill="#DE4861"/>
        <path d="M45 91.412c-1.001.202-2.356.474-2.966.588L41 77.304l.284-.304c-.084.252 1.262 1.225 2.131 4.324.754 2.714 1.375 8.137 1.585 10.088" fill="#9F2B40"/>
        <path d="M45.215 107.597c-.278.618-1.289 1.111-1.934 1.311-.174.055-.32.085-.421.091-.468.034.398-1.079.605-2.17.212-1.086.105-2.481.105-2.481s-.68 1.017-.819 1.512l-.143.491s-.809-.63-.56-1.566c.248-.936 1.592-2.23 1.619-2.725.005-.122.008-.449 0-.894-.023-1.356-.117-3.824-.266-4.991-.076-.606-.343-2.519-.64-4.617.766-.134 1.758-.305 2.55-.449.222-.037.427-.075.61-.109.032 2.788.072 5.638.079 6.62.011 2.143-.442 9.192-.785 9.977" fill="#EFA99B"/>
        <path d="m46 91-.608.826s-.376 7.233-1.533 9.174c-.021-1.334-.11-3.762-.251-4.91-.073-.596-.326-2.477-.608-4.541.727-.132 1.669-.3 2.421-.442.21-.036.405-.073.579-.107M43.72 107.378c-.016.274-.11 1.077-.29 1.523a1.116 1.116 0 0 1-.325.098c-.36.036.308-1.16.467-2.332.164-1.168.081-2.667.081-2.667.017 0 .21.017.322.276.12.276-.231 2.73-.255 3.102" fill="#C68273"/>
        <path d="M56 153c0 3.314-8.507 6-19 6-10.494 0-19-2.686-19-6s8.506-6 19-6c10.493 0 19 2.686 19 6" fill-opacity=".332" fill="#111"/>
        <path d="M49.618 153.88c-.019.061-.21.111-.678.12-.641.005-1.81-.068-3.767-.295-3.37-.391-5.943-1.685-5.943-1.685s-.398-.461-.147-1.01c.25-.55 1.076-3.01 1.076-3.01l3.544.736s2.793 2.456 3.277 2.733c.48.28 2.485.582 2.885 1.083.396.5-.202 1.184-.247 1.328" fill="#273570"/>
        <path d="M48.909 154c-.64.005-1.805-.068-3.756-.295-3.358-.391-5.924-1.685-5.924-1.685s-.396-.461-.146-1.01c.25-.55 1.072-3.01 1.072-3.01l3.533.736s-2.238.284-3.166.148c0 0-.048 1.759.479 2.476.527.713 4.421 1.34 5.55 1.508 1.135.168 2.347.14 2.431.577.035.194.023.393-.073.555" fill="#151736"/>
        <path d="M35.952 155.765c-.137.576-.616 1.269-1.463 1.234-1.11-.046-3.599-.519-4.489-1.632 0 0 .206-2.513.129-3.294-.077-.785.033-2.742.033-2.742l2.798-.328c.007-.003.011-.003.011-.003s1.068 3.014 1.331 3.58c.267.567 1.602 2.144 1.688 2.704.02.13.01.298-.038.48" fill="#273570"/>
        <path d="M36 155.764c-.139.577-.621 1.27-1.475 1.235-1.118-.046-3.628-.519-4.525-1.633 0 0 .207-2.513.13-3.295-.078-.785.033-2.743.033-2.743l2.82-.328c-.109.038-1.006.35-1.337.685-.354.357-.485.646-.424 1.565.061.919.234 3.272.234 3.272.106.353.632.919 1.518 1.178.882.259 2.092.55 2.566.279a2.68 2.68 0 0 1 .46-.215" fill="#151736"/>
        <path d="M46.151 138.188C45.181 143.718 44.19 149 44.19 149s-3.158-.034-4.463-.969c0 0 1.272-5.63 1.243-9.652-.034-4.022 1.535-12.188 1.535-12.188L34 110.941 35.888 102l1.29.332 6.014 1.54s4.45 20.765 4.789 21.954c.169.61-.816 6.62-1.83 12.362" fill="#273570"/>
        <path d="m46 127.535-.435 10.653A1039.045 1039.045 0 0 1 43.537 149s-3.266-.034-4.615-.969c0 0 1.315-5.63 1.284-9.652-.035-4.022 1.588-12.188 1.588-12.188L33 110.941 34.952 102l1.334.332c.526 1.9 1.003 3.899 1.003 3.899s2.447 12.82 2.915 13.131c.469.313 3.19 6.407 3.664 6.963.474.556 2.132 1.21 2.132 1.21" fill="#151736"/>
        <path d="M37.98 105.421c-.268 4.532-3.518 18.505-4.212 22.266-.76 4.119-1.098 21.862-1.098 21.862-1.118.354-2.261.444-3.01.45a9.178 9.178 0 0 1-.848-.02s-1.097-6.705-1.617-10.874c-.515-4.169-.101-11.876.051-13.222.157-1.344-1.151-7.863-1.975-12.428-.824-4.57.495-9.57.495-9.57s2.646-.513 5.473-.76c3.103-.266 6.417-.21 6.72 1.204.009.024.013.05.017.075.03.245.032.59.004 1.017" fill="#273570"/>
        <path d="M28.263 105.544s-1.857 2.7-1.81 4.761c.046 2.067 2.798 15.531 3.033 16.046.24.515 2.487.95 2.487.95-1.057.473-2.602.41-2.602.41s-1.22 2.92-1.35 6.14c-.116 2.85 1.254 13.69 1.57 16.147-.51.01-.836-.019-.836-.019s-1.08-6.723-1.593-10.903c-.507-4.18-.099-11.908.05-13.257.156-1.348-1.133-7.884-1.945-12.462-.812-4.582.488-9.594.488-9.594s2.606-.515 5.392-.763l6.62 1.207 2.233.404c-.584.307-1.35.531-2.212.691-3.823.73-9.525.242-9.525.242" fill="#151736"/>
        <path d="M35.262 59s-5.016.36-5.865 3.927c-.849 3.568-.72 5.597-2.577 7.691-1.857 2.094-3.392 3.575-2.612 8.105.78 4.53 1.088 8.014.785 10.765-.304 2.751-.737 5.562.507 6.512 0 0 3.008-2.578 7.14-1.897 4.132.682 3.29-22 3.29-22L35.261 59" fill="#251312"/>
        <path d="M37 75.802s-.871.218-2.129.196a2.187 2.187 0 0 1-.526-.072C33.21 75.67 32 74.759 32 74.759c.513-.83.804-1.73.964-2.448A8.9 8.9 0 0 0 33.167 71s4.01.03 3.781 1.641c-.155 1.124-.068 2.231 0 2.785.026.236.052.376.052.376" fill="#EFA99B"/>
        <path d="M37 75.802s-.863.218-2.11.196a2.15 2.15 0 0 1-.521-.072c-.067-.26-.168-.554-.279-.876A44.754 44.754 0 0 0 33 72.31c.17-.767.201-1.311.201-1.311s3.975.03 3.747 1.641c-.153 1.124-.067 2.231 0 2.785.027.236.052.376.052.376" fill="#C68273"/>
        <path d="M40.046 62.025s1.607-.347 1.918 1.536c.311 1.883-1.462 4.137-2.592 4.43-1.13.292.674-5.966.674-5.966" fill="#251312"/>
        <path d="M40.557 66s-.503 3.34.443 5c0 0-1.144-.826-.985-4.736l.542-.264" fill="#251312"/>
        <path d="M39.998 64.717s-.446 1.85-.58 2.872c-.135 1.022-.019 1.619-.095 2.347-.076.729-.774 3.035-3.05 4.064 0 0-2.874-1.44-3.654-2.887-.78-1.449-.808-4.205-.168-6.234s1.702-2.967 4.025-2.873c2.324.094 3.575 1.406 3.522 2.711" fill="#EFA99B"/>
        <path d="M32.672 66.95s5.622.616 7.864-2.485c0 0 1.187-1.33-.236-3.475-1.424-2.146-5.483-2.735-7.617-.879-2.134 1.857-1.903 5.675-1.134 6.672l1.123.167" fill="#251312"/>
        <path d="M33 67.53s-.991-.944-1.648-.313c-.656.63-.526 2.133 1.521 2.783L33 67.53" fill="#C68273"/>
        <path d="M33 67.021c-.003.071-1.029 2.401-.354 4.979 0 0-1.255-2.096-.266-5l.62.021" fill="#251312"/>
        <path d="M42.553 92.835c.105.654.572 11.718.572 11.718C31.705 105.978 26 103.54 26 103.54c.118-.293.23-.58.338-.868 2.127-5.64 2.689-10.38 2.689-10.38s-.267-3.907-1.05-7.055c-.461-1.846-.964-4.293-1.042-6.254-.054-1.402.099-2.554.637-3.086.886-.876 2.831-.934 3.968-.883.515.026.862.07.862.07l3.605.467 3.325.355 1.618.17s4.026 6.919 4.05 7.957c.023 1.043-2.547 8.15-2.447 8.803" fill="#DE4861"/>
        <path d="m37 78.546-2.347-.291-.456 1.526C33.143 78.441 32 77 32 77l3.665 8s.52-1.403.388-2.449L37 78.546" fill="#9F2B40"/>
        <path d="M36.737 78.927c-.19.027-.389.049-.602.065-.726.06-1.448-.222-2.113-.671C32.638 77.39 31.485 75.755 31 75c.504.025.844.069.844.069l1.991.26 1.538.2 1.243.135 1.02.11.49.05.502.056c.885 2.017.166 2.773-1.891 3.047" fill="#EFA99B"/>
        <path d="m39 76.084-1.022.436c-.2.7-.47 1.567-.73 2.4-.213.03-.436.054-.675.071-.812.066-1.62-.242-2.364-.73.164-.769.278-1.51.213-1.93a2.965 2.965 0 0 0-.119-.48L34 75l1.72.219 1.391.147 1.143.12.547.054.199.544" fill="#C68273"/>
        <path d="M42.508 92.118s-3.097.5-4.32.546c-1.218.052-4.628.392-4.628.392l.893 4.842s-3.396-4.982-3.917-4.24c-.52.736-.72 9.342-.72 9.342L26 101.722c2.165-5.506 2.737-10.135 2.737-10.135s-.271-3.815-1.068-6.889c-.47-1.803-.983-4.192-1.061-6.107L29.26 78l3.018 4.162 2.78 1.39s1.895 2.36 2.443 2.424c.544.07 2.244-.056 2.244-.056l-.701 2.328s4.234-1.302 5.955-4.726c.024 1.018-2.593 7.957-2.492 8.596" fill="#9F2B40"/>
        <path d="M28.781 75.226s1.304-.777 2.754.553S36 82.786 36 82.786L33.223 88s-5.491-7.392-6.012-8.475c-.521-1.084-.106-3.617 1.57-4.3" fill="#DE4861"/>
        <path d="M40.25 76.57c-.199.197-.635.313-.991.382-.303.057-.556.077-.556.077s-1.647 9.305-2.304 9.989c-.341.353-.747.72-1.323.889-.523.15-1.185.14-2.076-.195 0 0 .284-2.042.977-3.956.694-1.91 1.99-4.225 2.245-5.965.26-1.739-.22-2.558-.22-2.558s-.738-1.073-1.39-1.333c0 0 .626-.357 2.086.079 0 0 1.473-1.176 2.431-.95.96.226 1.713 1.422 1.848 2.067.135.65-.354 1.111-.727 1.473" fill="#EFA99B"/>
        <path d="M35.342 87.907c-.59.15-1.337.14-2.342-.193 0 0 1.292-1.996 2.316-1.68.953.293.862 1.29.026 1.873M39.844 76.556c-.313.27-1.04.006-1.054.38-.43.047-.79.064-.79.064s.465-.723 1.252-.942c.786-.218.896.228.592.498" fill="#C68273"/>
    </g>
</svg>
