<svg width="57" height="53" viewBox="0 0 57 53" xmlns="http://www.w3.org/2000/svg" xmlns:xlink="http://www.w3.org/1999/xlink">
    <defs>
        <filter x="-15.6%" y="-15.2%" width="131.1%" height="142.4%" filterUnits="objectBoundingBox" id="a">
            <feOffset dy="2" in="SourceAlpha" result="shadowOffsetOuter1"/>
            <feGaussianBlur stdDeviation="2" in="shadowOffsetOuter1" result="shadowBlurOuter1"/>
            <feColorMatrix values="0 0 0 0 0 0 0 0 0 0 0 0 0 0 0 0 0 0 0.5 0" in="shadowBlurOuter1"/>
        </filter>
        <path id="b" d="M50 27.212V5.782L46.821 4 8.272 5.782 5 9.05l2.08 24.051L33.686 37z"/>
    </defs>
    <g fill="none" fill-rule="evenodd">
        <path fill="#FFF" d="M0 19.702 29.08 0 56 19.702V26H1.462z"/>
        <use fill="#000" filter="url(#a)" xlink:href="#b"/>
        <use fill="#FFF5D0" xlink:href="#b"/>
        <path fill="#C6C6C6" opacity=".25" d="m5 24 15.297 1.109 8.934 5.654 11.46-5.654L50 24 30.784 39z"/>
        <path fill="#A3D2D2" d="M55.369 52 57 49.456 56.184 20H53.9L28 36z"/>
        <path fill="#B5E2E2" d="m0 19 56 32.77L54.909 53H4.429L0 49.773z"/>
        <rect fill="#73C5BD" opacity=".474" x="10" y="9" width="14" height="3" rx="1.5"/>
        <path stroke="#FF6969" stroke-width="2" opacity=".541" d="M39 17.393 40.213 23H46l-.793-7H39M30 17.393 31.213 23H37l-.793-7H30M19 17.393 20.213 23H26l-.793-7H19M9 17.393 10.213 23H16l-.793-7H9"/>
    </g>
</svg>
