<svg width="66" height="76" viewBox="0 0 66 76" xmlns="http://www.w3.org/2000/svg" xmlns:xlink="http://www.w3.org/1999/xlink">
    <defs>
        <path id="a" d="M0 .135h20.984v49.55H0z"/>
        <path id="c" d="M.032.1h7.094v14.597H.032z"/>
        <path id="e" d="M.078.1h7.048v9.417H.078z"/>
        <path id="g" d="M.037.1h5.1v9.417h-5.1z"/>
    </defs>
    <g fill="none" fill-rule="evenodd">
        <path d="M66 42.998C66 61.225 51.225 76 33.002 76 14.774 76 0 61.225 0 42.998 0 24.777 14.774 10 33.002 10 51.225 10 66 24.777 66 42.998" fill="#F2F2F2"/>
        <g transform="matrix(-1 0 0 1 43.785 15.462)">
            <mask id="b" fill="#fff">
                <use xlink:href="#a"/>
            </mask>
            <path d="M17.525 3.84c-.977-.636-3.508-2.282-3.559-3.638l-.002-.067h-7.07v.04c.02 1.157-2.166 2.932-3.227 3.574C.88 5.435 0 9.47 0 11.95l.012 33.681c0 2.86 1.403 3.083 2.898 3.4 4.027.849 10.473.78 14.775.31 2.392-.263 3.3-.527 3.3-3.98v-33.25c0-1.564-.446-6.312-3.46-8.272" fill="#9A3559" mask="url(#b)"/>
        </g>
        <g transform="matrix(-1 0 0 1 37.165 .621)">
            <mask id="d" fill="#fff">
                <use xlink:href="#c"/>
            </mask>
            <path d="M7.119 14.697C7.044 11.873 7.126.1 7.126.1H.166S0 11.66.037 14.697h7.08z" fill="#27211F" mask="url(#d)"/>
        </g>
        <g transform="matrix(-1 0 0 1 37.165 .621)">
            <mask id="f" fill="#fff">
                <use xlink:href="#e"/>
            </mask>
            <path d="M7.092 9.517C7.102 4.727 7.126.1 7.126.1H.166S.115 4.718.077 9.517h7.014z" fill="#D55180" mask="url(#f)"/>
        </g>
        <g transform="matrix(-1 0 0 1 35.18 .621)">
            <mask id="h" fill="#fff">
                <use xlink:href="#g"/>
            </mask>
            <path d="M2.396.1a8.44 8.44 0 0 1 .536 2.955c0 2.498-1.113 4.79-2.895 6.462h5.065C5.112 4.727 5.137.1 5.137.1H2.396z" fill="#A8A6A6" mask="url(#h)"/>
        </g>
        <path d="M24.588 27.077c.048-1.336.368-4.18 1.777-5.421.356-.313 1.11-.98 1.533-1.677v7.098h-3.31z" fill="#FEFEFE" opacity=".269"/>
        <path fill="#EFEAE8" d="M43.123 56.113H23.926V28.367h19.197z"/>
        <path d="M27.67 28.367c-.683 3.621 0 10.55.596 13.666.935 4.893 2.752 6.768 5.642 9.506 2.697 2.556 5.489 3.624 9.215 4.234v.34H23.926V28.367h3.745z" fill="#CDC9C7"/>
        <path fill="#FEFEFE" opacity=".444" d="M36.503 15.462h-1.986V.622h1.986z"/>
        <path d="M30.02.621h1.985v14.841h-1.978c.08-2.87-.008-14.84-.008-14.84" fill="#FEFEFE" opacity=".485"/>
        <path d="M29.222 4.792c0 .191.183.346.408.346h7.789c.225 0 .408-.155.408-.346v-1.89c0-.19-.183-.345-.408-.345H29.63c-.225 0-.408.155-.408.346v1.89z" fill="#D55180"/>
        <path fill="#A6A8AB" d="M37.165 2.557h-7.281v-.645h7.281z"/>
        <path fill="#FFF" d="M37.165 5.783h-7.281v-.645h7.281z"/>
        <path d="M23.926 62.243c0 1.248 4.15 2.259 9.267 2.259 5.119 0 9.268-1.011 9.268-2.259 0-1.247-4.15-2.258-9.268-2.258s-9.267 1.011-9.267 2.258" fill="#322B29"/>
        <path d="M39.813 20.624c2.003 1.692 2.648 5.25 2.648 7.478V59.32c0 2.684-1.442 3.591-2.637 3.887l-.011.003V20.624z" fill="#FEFEFE" opacity=".427"/>
    </g>
</svg>
