<svg width="20" height="16" viewBox="0 0 20 16" xmlns="http://www.w3.org/2000/svg">
    <path d="M.165 15.551c.186.28.499.449.835.449h15c.4 0 .762-.238.919-.606l3-7A.998.998 0 0 0 19 7h-1V4c0-1.103-.897-2-2-2H9.345L6.789 0H2C.897 0 0 .897 0 2v13h.007a1 1 0 0 0 .158.551zM16 4v3H4c-.4 0-.762.238-.919.606L2 10.129V4h14z" fill="#666" fill-rule="nonzero"/>
</svg>
